PCBNEW-LibModule-V1
$INDEX
synth_front_panel
$EndINDEX
#
# synth_front_panel
# pixmap w = 1872, h = 1864
#
$MODULE synth_front_panel
Po 0 0 0 15 00000000 00000000 ~~
Li synth_front_panel
T0 0 7841 600 600 0 120 N I 21 "G***"
T1 0 -7841 600 600 0 120 N I 21 "synth_front_panel"
DP 0 0 0 0 116 1 21
Dl 2957 6734
Dl 2954 6781
Dl 2937 6823
Dl 2908 6858
Dl 2868 6884
Dl 2819 6897
Dl 2809 6898
Dl 2756 6894
Dl 2711 6876
Dl 2674 6843
Dl 2673 6843
Dl 2666 6832
Dl 2649 6809
Dl 2624 6775
Dl 2593 6730
Dl 2554 6676
Dl 2511 6614
Dl 2463 6545
Dl 2410 6471
Dl 2355 6392
Dl 2304 6318
Dl 1954 5817
Dl 1950 6311
Dl 1945 6804
Dl 1926 6834
Dl 1898 6865
Dl 1859 6887
Dl 1813 6899
Dl 1765 6899
Dl 1717 6889
Dl 1699 6881
Dl 1667 6859
Dl 1645 6829
Dl 1643 6825
Dl 1625 6788
Dl 1625 5815
Dl 1625 4841
Dl 2112 4841
Dl 2599 4841
Dl 2664 4862
Dl 2740 4894
Dl 2807 4938
Dl 2864 4992
Dl 2908 5055
Dl 2939 5124
Dl 2950 5163
Dl 2953 5191
Dl 2956 5234
Dl 2957 5288
Dl 2956 5351
Dl 2956 5360
Dl 2955 5417
Dl 2953 5460
Dl 2951 5492
Dl 2947 5518
Dl 2942 5539
Dl 2936 5559
Dl 2935 5562
Dl 2902 5626
Dl 2856 5684
Dl 2798 5734
Dl 2732 5774
Dl 2690 5791
Dl 2667 5799
Dl 2643 5804
Dl 2631 5806
Dl 2631 5284
Dl 2630 5245
Dl 2626 5217
Dl 2617 5198
Dl 2605 5186
Dl 2587 5178
Dl 2577 5175
Dl 2559 5173
Dl 2527 5171
Dl 2481 5169
Dl 2422 5168
Dl 2352 5167
Dl 2272 5166
Dl 2247 5166
Dl 1950 5166
Dl 1950 5329
Dl 1950 5492
Dl 2266 5490
Dl 2347 5489
Dl 2413 5488
Dl 2465 5488
Dl 2506 5487
Dl 2537 5485
Dl 2560 5484
Dl 2577 5482
Dl 2588 5479
Dl 2596 5475
Dl 2603 5471
Dl 2605 5470
Dl 2629 5452
Dl 2631 5337
Dl 2631 5284
Dl 2631 5806
Dl 2614 5809
Dl 2577 5812
Dl 2529 5814
Dl 2494 5815
Dl 2351 5821
Dl 2642 6237
Dl 2694 6312
Dl 2744 6383
Dl 2790 6451
Dl 2832 6512
Dl 2868 6566
Dl 2899 6612
Dl 2922 6647
Dl 2938 6672
Dl 2945 6685
Dl 2957 6734
Dl 2957 6734
DP 0 0 0 0 45 1 21
Dl -1271 6766
Dl -1310 6806
Dl -1350 6845
Dl -2677 5518
Dl -4004 4191
Dl -5329 5516
Dl -5453 5640
Dl -5574 5761
Dl -5691 5879
Dl -5805 5992
Dl -5913 6100
Dl -6016 6203
Dl -6114 6301
Dl -6205 6392
Dl -6290 6476
Dl -6367 6553
Dl -6436 6622
Dl -6497 6682
Dl -6549 6734
Dl -6592 6776
Dl -6624 6808
Dl -6646 6830
Dl -6657 6840
Dl -6658 6841
Dl -6666 6836
Dl -6682 6822
Dl -6700 6804
Dl -6737 6766
Dl -5410 5439
Dl -4083 4112
Dl -5410 2785
Dl -6737 1458
Dl -6698 1419
Dl -6658 1379
Dl -5331 2706
Dl -4004 4033
Dl -2677 2706
Dl -1350 1379
Dl -1310 1419
Dl -1271 1458
Dl -2598 2785
Dl -3925 4112
Dl -2598 5439
Dl -1271 6766
Dl -1271 6766
DP 0 0 0 0 162 1 21
Dl -6289 6001
Dl -6325 6038
Dl -6345 6057
Dl -6361 6070
Dl -6367 6075
Dl -6374 6068
Dl -6389 6051
Dl -6410 6025
Dl -6435 5993
Dl -6448 5977
Dl -6529 5866
Dl -6600 5761
Dl -6665 5656
Dl -6725 5545
Dl -6783 5430
Dl -6817 5357
Dl -6851 5280
Dl -6882 5202
Dl -6910 5129
Dl -6933 5063
Dl -6946 5018
Dl -6955 4992
Dl -6964 4973
Dl -6970 4966
Dl -6980 4969
Dl -7004 4974
Dl -7039 4983
Dl -7082 4994
Dl -7129 5007
Dl -7176 5020
Dl -7218 5031
Dl -7251 5039
Dl -7273 5044
Dl -7282 5045
Dl -7287 5035
Dl -7292 5014
Dl -7298 4989
Dl -7302 4964
Dl -7303 4947
Dl -7302 4942
Dl -7293 4938
Dl -7269 4930
Dl -7235 4921
Dl -7192 4909
Dl -7144 4896
Dl -7143 4895
Dl -7089 4881
Dl -7048 4869
Dl -7021 4860
Dl -7004 4853
Dl -6996 4847
Dl -6996 4842
Dl -7000 4825
Dl -7007 4794
Dl -7016 4753
Dl -7025 4705
Dl -7035 4653
Dl -7044 4599
Dl -7053 4548
Dl -7060 4502
Dl -7064 4475
Dl -7069 4436
Dl -7072 4396
Dl -7075 4351
Dl -7077 4301
Dl -7078 4241
Dl -7079 4169
Dl -7079 4100
Dl -7078 4006
Dl -7077 3926
Dl -7074 3856
Dl -7070 3792
Dl -7064 3731
Dl -7056 3671
Dl -7045 3607
Dl -7032 3536
Dl -7024 3496
Dl -7016 3453
Dl -7009 3416
Dl -7005 3388
Dl -7003 3372
Dl -7003 3369
Dl -7012 3366
Dl -7034 3359
Dl -7067 3349
Dl -7109 3338
Dl -7155 3325
Dl -7202 3312
Dl -7243 3300
Dl -7276 3289
Dl -7298 3281
Dl -7306 3277
Dl -7306 3262
Dl -7301 3241
Dl -7294 3216
Dl -7285 3195
Dl -7277 3181
Dl -7272 3179
Dl -7260 3182
Dl -7235 3189
Dl -7202 3198
Dl -7162 3209
Dl -7120 3220
Dl -7077 3231
Dl -7038 3241
Dl -7006 3250
Dl -6983 3256
Dl -6972 3258
Dl -6972 3258
Dl -6968 3251
Dl -6960 3230
Dl -6950 3201
Dl -6941 3173
Dl -6903 3061
Dl -6857 2941
Dl -6803 2820
Dl -6746 2700
Dl -6686 2589
Dl -6666 2553
Dl -6634 2502
Dl -6598 2445
Dl -6558 2385
Dl -6517 2325
Dl -6477 2269
Dl -6440 2218
Dl -6407 2175
Dl -6382 2146
Dl -6374 2148
Dl -6358 2158
Dl -6338 2174
Dl -6320 2191
Dl -6305 2206
Dl -6300 2217
Dl -6305 2225
Dl -6318 2243
Dl -6337 2269
Dl -6352 2288
Dl -6457 2432
Dl -6556 2589
Dl -6647 2754
Dl -6728 2924
Dl -6798 3096
Dl -6852 3262
Dl -6907 3480
Dl -6945 3700
Dl -6967 3920
Dl -6973 4141
Dl -6962 4362
Dl -6934 4582
Dl -6891 4800
Dl -6866 4895
Dl -6828 5023
Dl -6784 5146
Dl -6733 5270
Dl -6672 5401
Dl -6671 5404
Dl -6597 5547
Dl -6519 5679
Dl -6435 5806
Dl -6373 5890
Dl -6289 6001
Dl -6289 6001
DP 0 0 0 0 141 1 21
Dl -702 3267
Dl -702 3278
Dl -711 3283
Dl -734 3291
Dl -767 3302
Dl -809 3314
Dl -858 3327
Dl -861 3328
Dl -916 3343
Dl -957 3354
Dl -985 3363
Dl -1002 3370
Dl -1011 3376
Dl -1013 3381
Dl -1012 3382
Dl -1000 3428
Dl -987 3488
Dl -975 3559
Dl -963 3637
Dl -952 3720
Dl -943 3805
Dl -935 3888
Dl -932 3940
Dl -927 4101
Dl -932 4268
Dl -945 4438
Dl -967 4603
Dl -996 4753
Dl -1004 4790
Dl -1011 4821
Dl -1015 4842
Dl -1016 4849
Dl -1009 4853
Dl -987 4861
Dl -955 4870
Dl -914 4882
Dl -866 4895
Dl -864 4896
Dl -816 4908
Dl -774 4920
Dl -739 4930
Dl -716 4938
Dl -705 4942
Dl -704 4951
Dl -707 4971
Dl -711 4997
Dl -717 5021
Dl -723 5039
Dl -726 5045
Dl -735 5044
Dl -757 5039
Dl -790 5031
Dl -831 5020
Dl -878 5007
Dl -879 5007
Dl -927 4994
Dl -969 4983
Dl -1004 4974
Dl -1028 4968
Dl -1039 4966
Dl -1045 4974
Dl -1054 4994
Dl -1067 5025
Dl -1080 5063
Dl -1084 5073
Dl -1134 5211
Dl -1193 5351
Dl -1259 5490
Dl -1331 5625
Dl -1406 5753
Dl -1485 5872
Dl -1564 5980
Dl -1618 6044
Dl -1646 6076
Dl -1684 6036
Dl -1723 5997
Dl -1675 5938
Dl -1560 5782
Dl -1453 5614
Dl -1356 5437
Dl -1271 5252
Dl -1198 5064
Dl -1140 4874
Dl -1125 4814
Dl -1093 4668
Dl -1069 4527
Dl -1053 4386
Dl -1045 4240
Dl -1043 4085
Dl -1044 4026
Dl -1049 3899
Dl -1057 3784
Dl -1069 3675
Dl -1087 3568
Dl -1109 3457
Dl -1130 3371
Dl -1180 3198
Dl -1242 3024
Dl -1316 2853
Dl -1399 2686
Dl -1491 2527
Dl -1589 2379
Dl -1663 2281
Dl -1684 2255
Dl -1699 2234
Dl -1707 2221
Dl -1708 2219
Dl -1703 2209
Dl -1688 2193
Dl -1671 2175
Dl -1650 2155
Dl -1637 2146
Dl -1629 2146
Dl -1623 2151
Dl -1495 2324
Dl -1382 2495
Dl -1284 2665
Dl -1199 2835
Dl -1127 3008
Dl -1067 3185
Dl -1066 3187
Dl -1056 3217
Dl -1048 3240
Dl -1042 3252
Dl -1042 3252
Dl -1032 3252
Dl -1010 3248
Dl -978 3241
Dl -939 3232
Dl -896 3222
Dl -853 3211
Dl -811 3200
Dl -775 3190
Dl -748 3181
Dl -736 3177
Dl -729 3183
Dl -721 3199
Dl -712 3222
Dl -705 3246
Dl -702 3267
Dl -702 3267
DP 0 0 0 0 51 1 21
Dl -7279 4387
Dl -7287 4405
Dl -7292 4412
Dl -7298 4417
Dl -7307 4420
Dl -7322 4422
Dl -7344 4424
Dl -7377 4424
Dl -7423 4425
Dl -7470 4425
Dl -7528 4425
Dl -7571 4424
Dl -7602 4423
Dl -7623 4422
Dl -7636 4419
Dl -7644 4415
Dl -7648 4410
Dl -7649 4409
Dl -7659 4380
Dl -7653 4358
Dl -7633 4342
Dl -7598 4334
Dl -7572 4333
Dl -7516 4333
Dl -7516 4138
Dl -7516 3943
Dl -7576 3940
Dl -7610 3937
Dl -7631 3932
Dl -7644 3924
Dl -7646 3921
Dl -7657 3895
Dl -7651 3871
Dl -7641 3858
Dl -7633 3851
Dl -7622 3846
Dl -7606 3843
Dl -7581 3842
Dl -7544 3843
Dl -7522 3843
Dl -7421 3846
Dl -7418 4089
Dl -7416 4333
Dl -7367 4333
Dl -7330 4334
Dl -7307 4338
Dl -7292 4347
Dl -7283 4362
Dl -7282 4364
Dl -7279 4387
Dl -7279 4387
DP 0 0 0 0 92 1 21
Dl -350 4268
Dl -350 4310
Dl -353 4346
Dl -355 4357
Dl -365 4381
Dl -381 4404
Dl -381 4404
Dl -389 4411
Dl -397 4416
Dl -408 4420
Dl -424 4423
Dl -448 4424
Dl -483 4424
Dl -530 4425
Dl -559 4425
Dl -614 4425
Dl -655 4424
Dl -683 4423
Dl -702 4421
Dl -714 4418
Dl -720 4414
Dl -724 4409
Dl -733 4380
Dl -725 4355
Dl -718 4347
Dl -709 4341
Dl -696 4338
Dl -676 4335
Dl -645 4334
Dl -602 4333
Dl -576 4333
Dl -449 4333
Dl -452 4260
Dl -454 4187
Dl -547 4183
Dl -593 4180
Dl -625 4176
Dl -645 4170
Dl -655 4161
Dl -660 4147
Dl -660 4138
Dl -658 4118
Dl -651 4105
Dl -636 4097
Dl -610 4093
Dl -571 4091
Dl -555 4091
Dl -509 4090
Dl -477 4087
Dl -461 4082
Dl -460 4081
Dl -454 4067
Dl -451 4040
Dl -450 4007
Dl -450 3943
Dl -580 3940
Dl -629 3939
Dl -665 3937
Dl -689 3935
Dl -705 3932
Dl -715 3928
Dl -721 3922
Dl -721 3921
Dl -732 3895
Dl -729 3871
Dl -715 3854
Dl -699 3849
Dl -670 3845
Dl -632 3843
Dl -588 3841
Dl -541 3841
Dl -496 3841
Dl -455 3843
Dl -423 3847
Dl -402 3851
Dl -400 3852
Dl -379 3867
Dl -364 3889
Dl -355 3920
Dl -351 3964
Dl -351 4013
Dl -354 4057
Dl -357 4091
Dl -361 4112
Dl -364 4118
Dl -369 4130
Dl -367 4148
Dl -362 4163
Dl -356 4189
Dl -352 4226
Dl -350 4268
Dl -350 4268
DP 0 0 0 0 114 1 21
Dl 4969 -183
Dl 4953 -165
Dl 4946 -158
Dl 4927 -140
Dl 4897 -111
Dl 4856 -72
Dl 4805 -24
Dl 4745 33
Dl 4676 99
Dl 4599 173
Dl 4513 254
Dl 4420 343
Dl 4320 438
Dl 4213 540
Dl 4100 647
Dl 3982 759
Dl 3859 876
Dl 3732 997
Dl 3601 1122
Dl 3466 1250
Dl 3376 1336
Dl 1814 2821
Dl 2570 2823
Dl 2681 2823
Dl 2786 2824
Dl 2886 2824
Dl 2978 2825
Dl 3062 2826
Dl 3136 2827
Dl 3200 2827
Dl 3251 2828
Dl 3290 2829
Dl 3314 2830
Dl 3323 2831
Dl 3323 2832
Dl 3318 2840
Dl 3304 2860
Dl 3281 2892
Dl 3251 2934
Dl 3215 2986
Dl 3172 3046
Dl 3124 3113
Dl 3072 3187
Dl 3016 3266
Dl 2956 3349
Dl 2895 3435
Dl 2832 3524
Dl 2768 3613
Dl 2704 3703
Dl 2640 3792
Dl 2578 3878
Dl 2518 3962
Dl 2461 4042
Dl 2407 4117
Dl 2358 4186
Dl 2313 4248
Dl 2275 4302
Dl 2242 4346
Dl 2217 4381
Dl 2200 4404
Dl 2192 4415
Dl 2191 4416
Dl 2183 4411
Dl 2165 4399
Dl 2147 4386
Dl 2124 4366
Dl 2112 4351
Dl 2111 4344
Dl 2117 4336
Dl 2131 4315
Dl 2154 4283
Dl 2184 4239
Dl 2222 4186
Dl 2266 4124
Dl 2316 4053
Dl 2371 3976
Dl 2431 3892
Dl 2494 3803
Dl 2561 3710
Dl 2612 3638
Dl 2680 3542
Dl 2746 3450
Dl 2808 3363
Dl 2866 3281
Dl 2920 3206
Dl 2968 3138
Dl 3010 3079
Dl 3045 3029
Dl 3073 2989
Dl 3094 2960
Dl 3105 2943
Dl 3108 2938
Dl 3100 2938
Dl 3076 2937
Dl 3038 2936
Dl 2987 2935
Dl 2923 2935
Dl 2849 2934
Dl 2765 2933
Dl 2673 2932
Dl 2573 2932
Dl 2466 2931
Dl 2355 2931
Dl 2323 2931
Dl 1539 2929
Dl 3112 1433
Dl 4686 -62
Dl 3984 -64
Dl 3283 -66
Dl 3283 -125
Dl 3283 -183
Dl 4126 -183
Dl 4969 -183
Dl 4969 -183
DP 0 0 0 0 98 1 21
Dl 1133 3789
Dl 1114 3825
Dl 1087 3859
Dl 1050 3883
Dl 1007 3897
Dl 961 3901
Dl 916 3894
Dl 875 3877
Dl 842 3849
Dl 831 3834
Dl 812 3804
Dl 808 3071
Dl 804 2339
Dl 719 2463
Dl 689 2508
Dl 667 2542
Dl 651 2568
Dl 641 2588
Dl 635 2606
Dl 631 2624
Dl 629 2641
Dl 619 2697
Dl 604 2739
Dl 582 2770
Dl 551 2793
Dl 537 2801
Dl 491 2814
Dl 443 2814
Dl 399 2802
Dl 361 2778
Dl 338 2752
Dl 318 2712
Dl 304 2663
Dl 300 2621
Dl 296 2604
Dl 283 2578
Dl 262 2541
Dl 231 2493
Dl 214 2467
Dl 129 2339
Dl 125 3067
Dl 124 3208
Dl 123 3333
Dl 122 3443
Dl 121 3537
Dl 119 3617
Dl 118 3682
Dl 117 3734
Dl 115 3773
Dl 113 3800
Dl 112 3814
Dl 111 3816
Dl 86 3852
Dl 50 3879
Dl 7 3895
Dl -41 3901
Dl -89 3894
Dl -125 3881
Dl -157 3859
Dl -179 3829
Dl -181 3825
Dl -200 3788
Dl -200 2810
Dl -200 1833
Dl -17 1833
Dl 166 1833
Dl 198 1877
Dl 211 1896
Dl 233 1927
Dl 260 1966
Dl 292 2011
Dl 326 2060
Dl 346 2089
Dl 378 2136
Dl 407 2177
Dl 432 2212
Dl 451 2238
Dl 463 2254
Dl 466 2257
Dl 472 2251
Dl 486 2232
Dl 506 2203
Dl 532 2166
Dl 563 2122
Dl 597 2073
Dl 600 2069
Dl 634 2018
Dl 667 1971
Dl 697 1929
Dl 721 1894
Dl 738 1870
Dl 748 1857
Dl 768 1833
Dl 950 1833
Dl 1133 1833
Dl 1133 2811
Dl 1133 3789
Dl 1133 3789
DP 0 0 0 0 109 1 21
Dl 4808 3737
Dl 4801 3790
Dl 4781 3834
Dl 4747 3868
Dl 4720 3884
Dl 4713 3887
Dl 4704 3890
Dl 4692 3892
Dl 4677 3894
Dl 4656 3895
Dl 4629 3896
Dl 4594 3897
Dl 4550 3898
Dl 4496 3899
Dl 4430 3899
Dl 4352 3899
Dl 4260 3899
Dl 4152 3899
Dl 4141 3899
Dl 4032 3899
Dl 3938 3899
Dl 3859 3899
Dl 3792 3899
Dl 3737 3898
Dl 3692 3898
Dl 3656 3897
Dl 3628 3895
Dl 3607 3894
Dl 3591 3892
Dl 3579 3890
Dl 3570 3887
Dl 3563 3884
Dl 3562 3884
Dl 3528 3864
Dl 3504 3838
Dl 3487 3806
Dl 3477 3764
Dl 3477 3717
Dl 3486 3673
Dl 3505 3634
Dl 3522 3615
Dl 3537 3602
Dl 3553 3593
Dl 3573 3586
Dl 3599 3581
Dl 3633 3578
Dl 3677 3576
Dl 3734 3575
Dl 3787 3575
Dl 3975 3575
Dl 3975 2871
Dl 3975 2167
Dl 3781 2165
Dl 3719 2164
Dl 3671 2163
Dl 3636 2162
Dl 3609 2160
Dl 3590 2157
Dl 3576 2154
Dl 3564 2149
Dl 3552 2142
Dl 3550 2141
Dl 3514 2112
Dl 3489 2074
Dl 3476 2031
Dl 3474 1986
Dl 3483 1942
Dl 3504 1902
Dl 3535 1870
Dl 3554 1858
Dl 3595 1837
Dl 4115 1835
Dl 4238 1834
Dl 4345 1834
Dl 4436 1834
Dl 4512 1835
Dl 4574 1836
Dl 4622 1837
Dl 4656 1839
Dl 4677 1841
Dl 4681 1842
Dl 4724 1857
Dl 4761 1883
Dl 4788 1915
Dl 4799 1940
Dl 4808 1996
Dl 4803 2047
Dl 4784 2091
Dl 4752 2127
Dl 4734 2139
Dl 4695 2162
Dl 4502 2165
Dl 4308 2168
Dl 4308 2871
Dl 4308 3575
Dl 4497 3575
Dl 4560 3575
Dl 4608 3576
Dl 4645 3577
Dl 4672 3579
Dl 4692 3581
Dl 4707 3585
Dl 4720 3590
Dl 4720 3590
Dl 4761 3618
Dl 4790 3655
Dl 4805 3703
Dl 4808 3737
Dl 4808 3737
DP 0 0 0 0 55 1 21
Dl -3791 1626
Dl -3816 1650
Dl -3840 1675
Dl -3957 1675
Dl -4075 1675
Dl -4075 1750
Dl -4075 1825
Dl -3947 1825
Dl -3897 1825
Dl -3862 1826
Dl -3838 1827
Dl -3822 1830
Dl -3812 1834
Dl -3805 1840
Dl -3805 1841
Dl -3793 1864
Dl -3795 1888
Dl -3808 1909
Dl -3816 1914
Dl -3832 1918
Dl -3859 1921
Dl -3901 1923
Dl -3957 1924
Dl -4002 1925
Dl -4166 1925
Dl -4166 1778
Dl -4166 1632
Dl -4142 1607
Dl -4118 1583
Dl -4000 1583
Dl -3883 1583
Dl -3883 1508
Dl -3883 1433
Dl -4006 1433
Dl -4063 1432
Dl -4105 1430
Dl -4134 1426
Dl -4152 1418
Dl -4162 1407
Dl -4165 1392
Dl -4165 1380
Dl -4162 1364
Dl -4154 1352
Dl -4141 1344
Dl -4119 1338
Dl -4088 1335
Dl -4043 1334
Dl -3984 1335
Dl -3982 1335
Dl -3842 1337
Dl -3817 1362
Dl -3791 1386
Dl -3791 1506
Dl -3791 1626
Dl -3791 1626
DP 0 0 0 0 119 1 21
Dl -2043 1751
Dl -2050 1762
Dl -2063 1775
Dl -2071 1783
Dl -2094 1804
Dl -2110 1813
Dl -2120 1812
Dl -2130 1804
Dl -2151 1789
Dl -2180 1767
Dl -2215 1740
Dl -2236 1725
Dl -2414 1600
Dl -2601 1490
Dl -2794 1394
Dl -2993 1313
Dl -3197 1247
Dl -3406 1197
Dl -3618 1161
Dl -3832 1141
Dl -4048 1136
Dl -4265 1147
Dl -4482 1174
Dl -4698 1217
Dl -4846 1255
Dl -5031 1317
Dl -5216 1393
Dl -5398 1483
Dl -5575 1586
Dl -5744 1699
Dl -5814 1751
Dl -5846 1775
Dl -5873 1796
Dl -5892 1810
Dl -5902 1816
Dl -5902 1816
Dl -5909 1811
Dl -5924 1797
Dl -5942 1778
Dl -5979 1740
Dl -5943 1709
Dl -5900 1675
Dl -5847 1636
Dl -5788 1593
Dl -5726 1550
Dl -5665 1509
Dl -5609 1474
Dl -5594 1465
Dl -5393 1354
Dl -5186 1259
Dl -4973 1179
Dl -4933 1165
Dl -4900 1154
Dl -4875 1145
Dl -4863 1140
Dl -4862 1140
Dl -4863 1131
Dl -4868 1109
Dl -4876 1076
Dl -4887 1035
Dl -4899 987
Dl -4899 987
Dl -4940 837
Dl -4915 826
Dl -4888 818
Dl -4861 814
Dl -4831 812
Dl -4800 929
Dl -4788 974
Dl -4776 1016
Dl -4767 1051
Dl -4760 1075
Dl -4759 1079
Dl -4750 1113
Dl -4664 1094
Dl -4506 1063
Dl -4345 1042
Dl -4180 1030
Dl -4005 1026
Dl -3929 1027
Dl -3783 1033
Dl -3649 1044
Dl -3522 1061
Dl -3397 1083
Dl -3323 1099
Dl -3258 1114
Dl -3249 1080
Dl -3243 1059
Dl -3235 1027
Dl -3224 986
Dl -3212 941
Dl -3208 929
Dl -3177 812
Dl -3147 814
Dl -3119 818
Dl -3093 826
Dl -3068 837
Dl -3109 987
Dl -3121 1035
Dl -3131 1076
Dl -3139 1110
Dl -3143 1133
Dl -3143 1142
Dl -3134 1146
Dl -3111 1155
Dl -3078 1167
Dl -3038 1181
Dl -3008 1191
Dl -2805 1269
Dl -2606 1362
Dl -2414 1469
Dl -2231 1588
Dl -2141 1654
Dl -2100 1686
Dl -2071 1709
Dl -2052 1726
Dl -2043 1740
Dl -2043 1751
Dl -2043 1751
DP 0 0 0 0 85 1 21
Dl -675 -948
Dl -675 -881
Dl -675 -829
Dl -676 -790
Dl -677 -760
Dl -679 -738
Dl -682 -721
Dl -686 -708
Dl -691 -697
Dl -692 -694
Dl -719 -657
Dl -757 -632
Dl -802 -619
Dl -860 -617
Dl -908 -629
Dl -949 -654
Dl -950 -655
Dl -976 -685
Dl -992 -720
Dl -999 -764
Dl -1000 -789
Dl -1000 -833
Dl -1087 -833
Dl -1175 -833
Dl -1175 -46
Dl -1175 110
Dl -1175 250
Dl -1176 373
Dl -1176 480
Dl -1177 571
Dl -1178 646
Dl -1179 704
Dl -1181 747
Dl -1183 773
Dl -1184 782
Dl -1201 829
Dl -1230 865
Dl -1270 888
Dl -1321 899
Dl -1341 899
Dl -1380 896
Dl -1415 886
Dl -1421 884
Dl -1458 860
Dl -1484 827
Dl -1499 782
Dl -1501 766
Dl -1502 733
Dl -1504 685
Dl -1505 621
Dl -1506 540
Dl -1507 444
Dl -1507 331
Dl -1508 202
Dl -1508 56
Dl -1508 -46
Dl -1508 -833
Dl -1596 -833
Dl -1683 -833
Dl -1683 -789
Dl -1687 -739
Dl -1698 -700
Dl -1719 -668
Dl -1733 -655
Dl -1772 -630
Dl -1820 -618
Dl -1878 -619
Dl -1881 -619
Dl -1929 -633
Dl -1966 -659
Dl -1991 -694
Dl -1996 -706
Dl -2000 -719
Dl -2003 -734
Dl -2005 -755
Dl -2007 -783
Dl -2008 -821
Dl -2008 -870
Dl -2008 -934
Dl -2008 -948
Dl -2008 -1166
Dl -1341 -1166
Dl -675 -1166
Dl -675 -948
Dl -675 -948
DP 0 0 0 0 133 1 21
Dl 2958 145
Dl 2958 257
Dl 2958 356
Dl 2957 441
Dl 2957 515
Dl 2957 578
Dl 2956 631
Dl 2956 675
Dl 2955 711
Dl 2954 739
Dl 2953 762
Dl 2951 779
Dl 2950 792
Dl 2948 802
Dl 2946 810
Dl 2943 816
Dl 2941 822
Dl 2919 855
Dl 2891 878
Dl 2854 891
Dl 2804 895
Dl 2795 896
Dl 2744 892
Dl 2706 881
Dl 2676 860
Dl 2654 831
Dl 2650 824
Dl 2646 816
Dl 2644 805
Dl 2642 790
Dl 2640 769
Dl 2639 741
Dl 2637 705
Dl 2637 658
Dl 2636 599
Dl 2635 527
Dl 2635 440
Dl 2635 418
Dl 2632 33
Dl 2291 33
Dl 1950 33
Dl 1949 406
Dl 1949 499
Dl 1948 576
Dl 1948 641
Dl 1947 693
Dl 1945 734
Dl 1942 767
Dl 1939 792
Dl 1935 811
Dl 1929 826
Dl 1922 838
Dl 1914 848
Dl 1905 858
Dl 1872 881
Dl 1830 896
Dl 1783 900
Dl 1736 894
Dl 1699 881
Dl 1667 859
Dl 1645 829
Dl 1643 825
Dl 1625 788
Dl 1625 -124
Dl 1625 -286
Dl 1625 -433
Dl 1625 -566
Dl 1626 -683
Dl 1627 -785
Dl 1627 -872
Dl 1628 -944
Dl 1630 -999
Dl 1631 -1039
Dl 1632 -1062
Dl 1633 -1068
Dl 1651 -1104
Dl 1682 -1132
Dl 1722 -1152
Dl 1769 -1161
Dl 1820 -1159
Dl 1833 -1157
Dl 1879 -1140
Dl 1914 -1111
Dl 1937 -1072
Dl 1940 -1062
Dl 1943 -1043
Dl 1945 -1009
Dl 1947 -958
Dl 1948 -891
Dl 1949 -809
Dl 1949 -712
Dl 1949 -660
Dl 1950 -291
Dl 2291 -291
Dl 2633 -291
Dl 2633 -668
Dl 2633 -758
Dl 2633 -833
Dl 2634 -894
Dl 2634 -943
Dl 2635 -981
Dl 2636 -1011
Dl 2638 -1034
Dl 2640 -1051
Dl 2643 -1063
Dl 2646 -1073
Dl 2649 -1079
Dl 2672 -1116
Dl 2704 -1141
Dl 2749 -1157
Dl 2751 -1158
Dl 2803 -1162
Dl 2851 -1155
Dl 2893 -1136
Dl 2926 -1108
Dl 2947 -1072
Dl 2948 -1068
Dl 2950 -1057
Dl 2951 -1038
Dl 2953 -1008
Dl 2954 -968
Dl 2955 -916
Dl 2956 -853
Dl 2956 -777
Dl 2957 -687
Dl 2957 -584
Dl 2958 -466
Dl 2958 -334
Dl 2958 -185
Dl 2958 -124
Dl 2958 18
Dl 2958 145
Dl 2958 145
DP 0 0 0 0 158 1 21
Dl 6591 -132
Dl 6591 -97
Dl 6589 -64
Dl 6586 -34
Dl 6580 -3
Dl 6571 30
Dl 6559 66
Dl 6542 108
Dl 6520 158
Dl 6493 216
Dl 6460 285
Dl 6420 366
Dl 6403 400
Dl 6369 468
Dl 6336 534
Dl 6305 594
Dl 6277 647
Dl 6262 674
Dl 6262 -43
Dl 6262 -129
Dl 6262 -215
Dl 6108 -522
Dl 5954 -829
Dl 5925 -829
Dl 5897 -829
Dl 5747 -529
Dl 5707 -449
Dl 5675 -382
Dl 5648 -327
Dl 5628 -282
Dl 5612 -247
Dl 5601 -219
Dl 5594 -197
Dl 5589 -179
Dl 5589 -176
Dl 5585 -151
Dl 5584 -127
Dl 5585 -104
Dl 5589 -79
Dl 5596 -50
Dl 5608 -17
Dl 5625 23
Dl 5648 72
Dl 5677 131
Dl 5712 202
Dl 5742 262
Dl 5775 326
Dl 5805 386
Dl 5833 440
Dl 5857 486
Dl 5876 522
Dl 5890 547
Dl 5897 560
Dl 5898 560
Dl 5918 573
Dl 5940 570
Dl 5955 559
Dl 5962 548
Dl 5976 524
Dl 5995 488
Dl 6018 443
Dl 6046 389
Dl 6076 329
Dl 6109 265
Dl 6116 250
Dl 6262 -43
Dl 6262 674
Dl 6253 692
Dl 6234 726
Dl 6221 748
Dl 6217 752
Dl 6166 808
Dl 6104 851
Dl 6035 881
Dl 5962 897
Dl 5887 898
Dl 5838 890
Dl 5787 872
Dl 5735 842
Dl 5685 804
Dl 5661 781
Dl 5649 766
Dl 5636 750
Dl 5622 729
Dl 5607 704
Dl 5589 672
Dl 5567 631
Dl 5540 580
Dl 5509 518
Dl 5471 442
Dl 5461 423
Dl 5418 336
Dl 5381 262
Dl 5351 199
Dl 5326 146
Dl 5306 102
Dl 5291 64
Dl 5280 31
Dl 5272 1
Dl 5267 -26
Dl 5264 -53
Dl 5263 -83
Dl 5262 -115
Dl 5262 -120
Dl 5263 -159
Dl 5264 -193
Dl 5266 -225
Dl 5271 -256
Dl 5278 -287
Dl 5289 -322
Dl 5304 -361
Dl 5323 -406
Dl 5348 -459
Dl 5379 -522
Dl 5416 -597
Dl 5451 -669
Dl 5490 -746
Dl 5522 -810
Dl 5549 -863
Dl 5571 -905
Dl 5590 -939
Dl 5606 -966
Dl 5619 -987
Dl 5632 -1005
Dl 5644 -1021
Dl 5658 -1036
Dl 5663 -1041
Dl 5723 -1094
Dl 5788 -1132
Dl 5857 -1154
Dl 5927 -1162
Dl 5997 -1155
Dl 6066 -1133
Dl 6130 -1096
Dl 6182 -1051
Dl 6195 -1037
Dl 6208 -1021
Dl 6221 -1003
Dl 6236 -980
Dl 6253 -950
Dl 6274 -913
Dl 6299 -866
Dl 6329 -808
Dl 6365 -737
Dl 6376 -716
Dl 6410 -649
Dl 6442 -586
Dl 6472 -527
Dl 6498 -475
Dl 6519 -431
Dl 6535 -398
Dl 6544 -378
Dl 6545 -377
Dl 6569 -307
Dl 6584 -238
Dl 6591 -162
Dl 6591 -132
Dl 6591 -132
DP 0 0 0 0 41 1 21
Dl -4325 -41
Dl -4462 -41
Dl -4600 -41
Dl -4600 96
Dl -4600 146
Dl -4600 183
Dl -4602 207
Dl -4604 222
Dl -4607 230
Dl -4612 233
Dl -4615 233
Dl -4631 230
Dl -4636 227
Dl -4638 218
Dl -4639 194
Dl -4641 160
Dl -4641 118
Dl -4641 90
Dl -4641 -41
Dl -4779 -41
Dl -4916 -41
Dl -4916 -66
Dl -4916 -91
Dl -4779 -91
Dl -4642 -91
Dl -4640 -227
Dl -4639 -277
Dl -4638 -313
Dl -4636 -337
Dl -4634 -352
Dl -4630 -360
Dl -4625 -364
Dl -4618 -365
Dl -4600 -367
Dl -4600 -229
Dl -4600 -91
Dl -4462 -91
Dl -4325 -91
Dl -4325 -66
Dl -4325 -41
Dl -4325 -41
DP 0 0 0 0 154 1 21
Dl 3041 -3152
Dl 3034 -3146
Dl 3016 -3129
Dl 2987 -3102
Dl 2946 -3065
Dl 2896 -3020
Dl 2835 -2965
Dl 2765 -2902
Dl 2686 -2831
Dl 2599 -2752
Dl 2504 -2667
Dl 2402 -2575
Dl 2293 -2477
Dl 2177 -2373
Dl 2056 -2264
Dl 1930 -2151
Dl 1799 -2033
Dl 1663 -1912
Dl 1524 -1787
Dl 1389 -1666
Dl -261 -187
Dl 515 -185
Dl 1291 -183
Dl 1291 -125
Dl 1291 -66
Dl 370 -66
Dl 248 -66
Dl 130 -66
Dl 19 -67
Dl -86 -67
Dl -182 -68
Dl -270 -68
Dl -348 -69
Dl -415 -69
Dl -469 -70
Dl -511 -71
Dl -538 -71
Dl -549 -72
Dl -550 -72
Dl -543 -79
Dl -525 -95
Dl -496 -122
Dl -456 -159
Dl -405 -205
Dl -344 -259
Dl -274 -323
Dl -196 -394
Dl -109 -472
Dl -14 -557
Dl 88 -649
Dl 197 -747
Dl 312 -851
Dl 433 -960
Dl 560 -1074
Dl 691 -1191
Dl 826 -1313
Dl 966 -1438
Dl 1100 -1558
Dl 2750 -3037
Dl 2004 -3039
Dl 1894 -3040
Dl 1789 -3040
Dl 1690 -3040
Dl 1598 -3041
Dl 1515 -3042
Dl 1441 -3042
Dl 1378 -3043
Dl 1327 -3043
Dl 1289 -3044
Dl 1266 -3045
Dl 1258 -3045
Dl 1262 -3052
Dl 1276 -3072
Dl 1297 -3104
Dl 1326 -3146
Dl 1362 -3198
Dl 1403 -3258
Dl 1450 -3326
Dl 1501 -3401
Dl 1556 -3480
Dl 1614 -3565
Dl 1674 -3652
Dl 1736 -3743
Dl 1799 -3834
Dl 1863 -3926
Dl 1925 -4017
Dl 1987 -4106
Dl 2047 -4193
Dl 2104 -4276
Dl 2158 -4354
Dl 2208 -4426
Dl 2253 -4491
Dl 2293 -4548
Dl 2327 -4597
Dl 2353 -4635
Dl 2373 -4663
Dl 2384 -4678
Dl 2386 -4681
Dl 2395 -4685
Dl 2408 -4681
Dl 2429 -4668
Dl 2437 -4662
Dl 2459 -4645
Dl 2473 -4631
Dl 2476 -4624
Dl 2471 -4616
Dl 2458 -4595
Dl 2436 -4563
Dl 2406 -4519
Dl 2369 -4465
Dl 2326 -4403
Dl 2278 -4331
Dl 2224 -4253
Dl 2165 -4168
Dl 2103 -4078
Dl 2038 -3982
Dl 1974 -3891
Dl 1906 -3792
Dl 1841 -3697
Dl 1779 -3608
Dl 1721 -3523
Dl 1668 -3446
Dl 1620 -3376
Dl 1578 -3314
Dl 1542 -3261
Dl 1513 -3219
Dl 1492 -3188
Dl 1479 -3168
Dl 1475 -3162
Dl 1483 -3161
Dl 1506 -3161
Dl 1544 -3160
Dl 1596 -3160
Dl 1659 -3159
Dl 1733 -3159
Dl 1817 -3159
Dl 1910 -3158
Dl 2010 -3158
Dl 2116 -3158
Dl 2228 -3158
Dl 2258 -3158
Dl 2371 -3158
Dl 2478 -3158
Dl 2580 -3157
Dl 2675 -3157
Dl 2761 -3156
Dl 2838 -3156
Dl 2904 -3155
Dl 2959 -3154
Dl 3000 -3154
Dl 3028 -3153
Dl 3040 -3152
Dl 3041 -3152
Dl 3041 -3152
DP 0 0 0 0 95 1 21
Dl 1133 -3726
Dl 883 -3401
Dl 633 -3076
Dl 633 -2672
Dl 633 -2582
Dl 632 -2498
Dl 631 -2422
Dl 630 -2356
Dl 629 -2302
Dl 627 -2260
Dl 626 -2232
Dl 624 -2224
Dl 610 -2176
Dl 586 -2141
Dl 551 -2118
Dl 504 -2105
Dl 476 -2102
Dl 431 -2103
Dl 398 -2110
Dl 391 -2112
Dl 353 -2136
Dl 327 -2166
Dl 312 -2203
Dl 309 -2215
Dl 307 -2232
Dl 305 -2254
Dl 303 -2283
Dl 302 -2321
Dl 301 -2369
Dl 300 -2429
Dl 300 -2501
Dl 300 -2587
Dl 300 -2660
Dl 300 -3075
Dl 49 -3400
Dl -201 -3725
Dl -198 -3899
Dl -197 -3958
Dl -196 -4002
Dl -195 -4035
Dl -192 -4058
Dl -189 -4074
Dl -185 -4085
Dl -180 -4094
Dl -178 -4097
Dl -142 -4133
Dl -97 -4155
Dl -46 -4164
Dl 9 -4157
Dl 19 -4154
Dl 55 -4141
Dl 82 -4122
Dl 101 -4095
Dl 114 -4059
Dl 122 -4012
Dl 124 -3950
Dl 125 -3933
Dl 125 -3837
Dl 291 -3620
Dl 331 -3568
Dl 369 -3521
Dl 402 -3479
Dl 429 -3445
Dl 450 -3420
Dl 462 -3406
Dl 465 -3404
Dl 472 -3410
Dl 488 -3428
Dl 511 -3456
Dl 541 -3493
Dl 575 -3537
Dl 614 -3586
Dl 640 -3620
Dl 807 -3837
Dl 808 -3939
Dl 810 -4003
Dl 816 -4053
Dl 828 -4091
Dl 847 -4118
Dl 873 -4138
Dl 908 -4153
Dl 915 -4155
Dl 968 -4164
Dl 1019 -4159
Dl 1064 -4141
Dl 1096 -4115
Dl 1108 -4099
Dl 1118 -4081
Dl 1124 -4058
Dl 1129 -4028
Dl 1131 -3988
Dl 1133 -3935
Dl 1133 -3883
Dl 1133 -3726
Dl 1133 -3726
DP 0 0 0 0 98 1 21
Dl 4808 -2099
Dl 4610 -2102
Dl 4412 -2104
Dl 4108 -2803
Dl 3804 -3503
Dl 3800 -2853
Dl 3799 -2721
Dl 3798 -2605
Dl 3796 -2504
Dl 3795 -2418
Dl 3794 -2346
Dl 3793 -2288
Dl 3791 -2244
Dl 3789 -2212
Dl 3788 -2191
Dl 3786 -2183
Dl 3765 -2153
Dl 3735 -2127
Dl 3701 -2109
Dl 3700 -2109
Dl 3666 -2102
Dl 3625 -2101
Dl 3586 -2105
Dl 3574 -2108
Dl 3532 -2128
Dl 3501 -2161
Dl 3492 -2178
Dl 3489 -2183
Dl 3487 -2190
Dl 3485 -2197
Dl 3483 -2207
Dl 3481 -2220
Dl 3480 -2237
Dl 3479 -2259
Dl 3478 -2288
Dl 3477 -2323
Dl 3476 -2366
Dl 3476 -2418
Dl 3475 -2479
Dl 3475 -2551
Dl 3475 -2635
Dl 3475 -2731
Dl 3475 -2841
Dl 3475 -2964
Dl 3475 -3103
Dl 3475 -3190
Dl 3475 -4167
Dl 3672 -4164
Dl 3870 -4162
Dl 4174 -3454
Dl 4479 -2746
Dl 4483 -3400
Dl 4484 -3520
Dl 4484 -3624
Dl 4485 -3714
Dl 4486 -3790
Dl 4486 -3855
Dl 4487 -3909
Dl 4488 -3952
Dl 4489 -3988
Dl 4491 -4015
Dl 4492 -4036
Dl 4494 -4052
Dl 4496 -4064
Dl 4498 -4073
Dl 4501 -4080
Dl 4504 -4086
Dl 4504 -4087
Dl 4530 -4121
Dl 4565 -4144
Dl 4612 -4155
Dl 4659 -4156
Dl 4703 -4152
Dl 4735 -4143
Dl 4761 -4125
Dl 4786 -4097
Dl 4786 -4096
Dl 4789 -4093
Dl 4791 -4088
Dl 4793 -4083
Dl 4795 -4075
Dl 4797 -4063
Dl 4798 -4047
Dl 4800 -4027
Dl 4801 -4000
Dl 4801 -3966
Dl 4802 -3924
Dl 4803 -3874
Dl 4803 -3814
Dl 4804 -3743
Dl 4804 -3661
Dl 4805 -3567
Dl 4805 -3459
Dl 4805 -3337
Dl 4806 -3201
Dl 4806 -3086
Dl 4808 -2099
Dl 4808 -2099
DP 0 0 0 0 205 1 21
Dl 2958 -6802
Dl 2951 -6745
Dl 2932 -6697
Dl 2901 -6659
Dl 2861 -6632
Dl 2812 -6618
Dl 2787 -6617
Dl 2753 -6622
Dl 2717 -6634
Dl 2687 -6650
Dl 2681 -6655
Dl 2660 -6682
Dl 2643 -6718
Dl 2634 -6756
Dl 2633 -6771
Dl 2630 -6797
Dl 2623 -6818
Dl 2621 -6821
Dl 2617 -6825
Dl 2612 -6828
Dl 2603 -6831
Dl 2589 -6833
Dl 2568 -6835
Dl 2540 -6836
Dl 2501 -6837
Dl 2451 -6838
Dl 2388 -6839
Dl 2310 -6840
Dl 2287 -6840
Dl 2215 -6840
Dl 2148 -6840
Dl 2089 -6840
Dl 2038 -6839
Dl 1998 -6838
Dl 1971 -6837
Dl 1958 -6836
Dl 1957 -6835
Dl 1961 -6828
Dl 1974 -6808
Dl 1997 -6777
Dl 2028 -6736
Dl 2066 -6686
Dl 2111 -6626
Dl 2162 -6560
Dl 2218 -6487
Dl 2279 -6408
Dl 2344 -6324
Dl 2412 -6236
Dl 2425 -6220
Dl 2509 -6113
Dl 2586 -6013
Dl 2657 -5921
Dl 2720 -5838
Dl 2776 -5765
Dl 2824 -5702
Dl 2863 -5649
Dl 2894 -5607
Dl 2915 -5578
Dl 2925 -5560
Dl 2926 -5559
Dl 2942 -5523
Dl 2951 -5488
Dl 2956 -5447
Dl 2956 -5442
Dl 2953 -5368
Dl 2935 -5300
Dl 2902 -5239
Dl 2856 -5188
Dl 2797 -5147
Dl 2745 -5123
Dl 2733 -5118
Dl 2720 -5115
Dl 2706 -5112
Dl 2689 -5109
Dl 2667 -5108
Dl 2638 -5106
Dl 2601 -5105
Dl 2554 -5104
Dl 2496 -5104
Dl 2424 -5103
Dl 2338 -5103
Dl 2333 -5103
Dl 2251 -5103
Dl 2175 -5103
Dl 2106 -5103
Dl 2045 -5104
Dl 1995 -5105
Dl 1958 -5107
Dl 1935 -5108
Dl 1930 -5109
Dl 1858 -5131
Dl 1790 -5168
Dl 1731 -5217
Dl 1682 -5275
Dl 1656 -5322
Dl 1642 -5353
Dl 1634 -5379
Dl 1630 -5407
Dl 1629 -5443
Dl 1629 -5450
Dl 1632 -5503
Dl 1642 -5544
Dl 1661 -5578
Dl 1691 -5608
Dl 1695 -5612
Dl 1712 -5625
Dl 1728 -5632
Dl 1748 -5636
Dl 1778 -5637
Dl 1791 -5637
Dl 1825 -5636
Dl 1848 -5634
Dl 1866 -5627
Dl 1883 -5616
Dl 1884 -5615
Dl 1917 -5581
Dl 1938 -5535
Dl 1949 -5486
Dl 1953 -5460
Dl 1958 -5441
Dl 1961 -5435
Dl 1971 -5433
Dl 1995 -5432
Dl 2031 -5431
Dl 2076 -5429
Dl 2130 -5428
Dl 2190 -5427
Dl 2252 -5427
Dl 2317 -5426
Dl 2380 -5426
Dl 2441 -5426
Dl 2496 -5426
Dl 2544 -5427
Dl 2583 -5427
Dl 2610 -5429
Dl 2623 -5430
Dl 2624 -5430
Dl 2619 -5438
Dl 2605 -5457
Dl 2581 -5488
Dl 2550 -5530
Dl 2511 -5580
Dl 2465 -5639
Dl 2414 -5706
Dl 2357 -5779
Dl 2296 -5858
Dl 2231 -5942
Dl 2162 -6030
Dl 2153 -6041
Dl 2067 -6153
Dl 1987 -6255
Dl 1916 -6348
Dl 1852 -6432
Dl 1796 -6505
Dl 1749 -6568
Dl 1711 -6619
Dl 1683 -6658
Dl 1664 -6686
Dl 1656 -6699
Dl 1643 -6726
Dl 1635 -6748
Dl 1631 -6770
Dl 1629 -6799
Dl 1629 -6837
Dl 1629 -6878
Dl 1631 -6908
Dl 1636 -6931
Dl 1645 -6954
Dl 1651 -6968
Dl 1679 -7016
Dl 1718 -7062
Dl 1760 -7102
Dl 1788 -7121
Dl 1808 -7131
Dl 1828 -7140
Dl 1850 -7147
Dl 1877 -7153
Dl 1909 -7158
Dl 1949 -7161
Dl 1997 -7163
Dl 2057 -7165
Dl 2128 -7166
Dl 2214 -7166
Dl 2266 -7166
Dl 2359 -7166
Dl 2437 -7165
Dl 2501 -7164
Dl 2554 -7163
Dl 2598 -7160
Dl 2634 -7156
Dl 2664 -7152
Dl 2689 -7146
Dl 2712 -7138
Dl 2734 -7129
Dl 2745 -7124
Dl 2783 -7101
Dl 2825 -7067
Dl 2864 -7029
Dl 2896 -6989
Dl 2899 -6985
Dl 2922 -6943
Dl 2941 -6894
Dl 2953 -6844
Dl 2958 -6802
Dl 2958 -6802
$EndMODULE synth_front_panel
$EndLIBRARY
