PCBNEW-LibModule-V1  Ned 09 Stu 2014 01:05:19
# encoding utf-8
Units mm
$INDEX
LDR
pad_1
pot
$EndINDEX
$MODULE LDR
Po 0 0 0 15 544D061A 00000000 ~~
Li LDR
Sc 0
AR 
Op 0 0 0
T0 0 -6.5 1 1 0 0.15 N V 21 N "LDR"
T1 0 8.5 1 1 0 0.15 N V 21 N "VAL**"
DA 0 0 5.1 4 900 0.15 21
DA 0 0 4 5.1 900 0.15 21
DA 0 0 -3.9 -5.1 900 0.15 21
DA 0 0 -5.1 -3.9 900 0.15 21
DS -5.1 -3.9 -5.1 4 0.15 21
DS -5.1 4 -5.1 3.9 0.15 21
DS 5.1 -4 5.1 4.1 0.15 21
$PAD
Sh "2" C 3 3 0 0 0
Dr 1 0 0
At STD N 00E0FFFF
Ne 0 ""
Po 0 3.8
$EndPAD
$PAD
Sh "1" C 3 3 0 0 0
Dr 1 0 0
At STD N 00E0FFFF
Ne 0 ""
Po 0 -3.8
$EndPAD
$EndMODULE LDR
$MODULE pad_1
Po 0 0 0 15 545EAF90 00000000 ~~
Li pad_1
Cd module 1 pin (ou trou mecanique de percage)
Kw DEV
Sc 0
AR 1pin
Op 0 0 0
T0 0 -3.048 1.016 1.016 0 0.254 N I 21 N "1PIN"
T1 0 2.794 1.016 1.016 0 0.254 N I 21 N "P***"
$PAD
Sh "1" O 2 20 0 0 0
Dr 2 0 0 O 2 20
At STD N 00E0FFFF
Ne 0 ""
Po 0 0
$EndPAD
$EndMODULE pad_1
$MODULE pot
Po 0 0 0 15 544D7153 00000000 ~~
Li pot
Sc 0
AR 
Op 0 0 0
T0 0 -4.6 1 1 0 0.15 N V 21 N "pot"
T1 0 4.5 1 1 0 0.15 N V 21 N "VAL**"
DS -2.3 1.9 -1.1 0.7 0.15 21
DS -1.1 0.7 -0.8 1 0.15 21
DS -0.8 1 -2.1 2.3 0.15 21
DC 0 0 3.4 -0.1 0.15 21
DC 0 0 3.1 -0.1 0.15 21
DS 4.9 -5.5 4.9 5.5 0.15 21
DS 4.9 5.5 -4.9 5.5 0.15 21
DS -4.9 5.5 -4.9 -5.5 0.15 21
DS -4.9 -5.5 4.9 -5.5 0.15 21
DC 0 0 3 0 0.15 21
$PAD
Sh "" R 3 4 0 0 0
Dr 2.2 0 0
At STD N 00E0FFFF
Ne 0 ""
Po 4.9 0
$EndPAD
$PAD
Sh "" R 3 4 0 0 0
Dr 2.2 0 0
At STD N 00E0FFFF
Ne 0 ""
Po -4.9 0
$EndPAD
$PAD
Sh "2" C 1.8 1.8 0 0 0
Dr 1 0 0
At STD N 00E0FFFF
Ne 0 ""
Po 0 7
$EndPAD
$PAD
Sh "1" C 1.8 1.8 0 0 0
Dr 1 0 0
At STD N 00E0FFFF
Ne 0 ""
Po -2.5 7
$EndPAD
$PAD
Sh "3" C 1.8 1.8 0 0 0
Dr 1 0 0
At STD N 00E0FFFF
Ne 0 ""
Po 2.5 7
$EndPAD
$EndMODULE pot
$EndLIBRARY
