PCBNEW-LibModule-V1  Sri 24 Pro 2014 22:15:35
# encoding utf-8
Units mm
$INDEX
3.5mmJack
4mmcap
4mmcap_elec
C2_bigpads
D2_bigger_pads
LDR
MiniSlideSwitch
R3-LARGE_PADS_bigpads
SIL-6
SIL-6_bigger_pads
SW_PUSH-12mm_big_pads
TO92_bigpads
bridgeRect
pot_no-lines
$EndINDEX
$MODULE 3.5mmJack
Po 0 0 0 15 544A9F58 00000000 ~~
Li 3.5mmJack
Sc 0
AR /544A9958
Op 0 0 0
T0 1.27 -8.89 1 1 0 0.15 N V 21 N "P7"
T1 0 8.89 1 1 0 0.15 N V 21 N "AUDIO_OUT"
DS -3.81 -2.54 -6.35 -2.54 0.15 21
DS -6.35 -2.54 -6.35 2.54 0.15 21
DS -6.35 2.54 -3.81 2.54 0.15 21
DS -2.54 -5.08 -3.81 -5.08 0.15 21
DS -3.81 -5.08 -3.81 5.08 0.15 21
DS -3.81 5.08 -2.54 5.08 0.15 21
DS -2.54 5.08 -2.54 6.35 0.15 21
DS -2.54 -7.62 7.62 -7.62 0.15 21
DS 7.62 -7.62 7.62 7.62 0.15 21
DS 7.62 7.62 -2.54 7.62 0.15 21
DS -2.54 7.62 -2.54 -7.62 0.15 21
$PAD
Sh "5" R 2 2 0 0 0
Dr 1.5 0 0
At STD N 00E0FFFF
Ne 0 ""
Po 5.08 -2.54
$EndPAD
$PAD
Sh "4" R 2 2 0 0 0
Dr 1.5 0 0
At STD N 00E0FFFF
Ne 0 ""
Po 5.08 2.54
$EndPAD
$PAD
Sh "2" R 2 2 0 0 0
Dr 1.5 0 0
At STD N 00E0FFFF
Ne 2 "N-0000022"
Po 5.08 -5.08
$EndPAD
$PAD
Sh "1" R 2 2 0 0 0
Dr 1.5 0 0
At STD N 00E0FFFF
Ne 3 "N-0000037"
Po 5.08 5.08
$EndPAD
$PAD
Sh "3" R 3 3 0 0 0
Dr 1.4 0 0
At STD N 00E0FFFF
Ne 1 "GND"
Po 0 0
$EndPAD
$EndMODULE 3.5mmJack
$MODULE 4mmcap
Po 0 0 0 15 544CCE29 00000000 ~~
Li 4mmcap
Sc 0
AR 
Op 0 0 0
T0 0.1 -4.07 1 1 0 0.15 N V 21 N "4mmcap"
T1 0.02 4.04 1 1 0 0.15 N V 21 N "VAL**"
DS 0 1.25 -1.5 1.25 0.15 21
DS -1.5 -1.25 0 -1.25 0.15 21
T2 -2.25 -0.5 1 1 0 0.15 N V 21 N "+"
DS -1.25 -1.5 0 -1.5 0.15 21
DS 0 -1.5 0 1.5 0.15 21
DS 0 1.5 -1.25 1.5 0.15 21
DS -1.25 1.5 -1.5 1.25 0.15 21
DS -1.5 1.25 -1.5 -1.25 0.15 21
DS -1.5 -1.25 -1.25 -1.5 0.15 21
DC 0 0 0 -2 0.15 21
$PAD
Sh "1" R 1 2 0 0 0
Dr 0.5 0 0
At STD N 00E0FFFF
Ne 0 ""
Po -0.75 0
$EndPAD
$PAD
Sh "2" R 1 2 0 0 0
Dr 0.8 0 0
At STD N 00E0FFFF
Ne 0 ""
Po 0.75 0
$EndPAD
$EndMODULE 4mmcap
$MODULE 4mmcap_elec
Po 0 0 0 15 54948BF9 00000000 ~~
Li 4mmcap_elec
Sc 0
AR /5449533A
Op 0 0 0
T0 2.162 0.153 1 1 900 0.15 N V 21 N "C2"
T1 0.02 4.04 1 1 0 0.15 N I 21 N "2u2/25V"
DS 0 1.25 -1.5 1.25 0.15 21
DS -1.5 -1.25 0 -1.25 0.15 21
T2 -2.25 -0.5 1 1 0 0.15 N V 21 N "+"
DS -1.25 -1.5 0 -1.5 0.15 21
DS 0 -1.5 0 1.5 0.15 21
DS 0 1.5 -1.25 1.5 0.15 21
DS -1.25 1.5 -1.5 1.25 0.15 21
DS -1.5 -1.25 -1.25 -1.5 0.15 21
DC 0 0 0 -2 0.15 21
$PAD
Sh "1" R 1.3 2.2 0 0 0
Dr 0.8 0 0
At STD N 00E0FFFF
Ne 2 "N-0000057"
Po -1 0
$EndPAD
$PAD
Sh "2" R 1.3 2.2 0 0 0
Dr 0.8 0 0
At STD N 00E0FFFF
Ne 1 "GND"
Po 1 0
$EndPAD
$EndMODULE 4mmcap_elec
$MODULE C2_bigpads
Po 0 0 0 15 5495C109 00000000 ~~
Li C2_bigpads
Cd Condensateur = 2 pas
Kw C
Sc 0
AR /54495C95
Op 0 0 0
T0 0 0 1.016 1.016 0 0.2032 N I 21 N "C3"
T1 0 0 1.016 1.016 0 0.2032 N V 21 N "100n"
DS -3.556 -1.016 3.556 -1.016 0.3048 21
DS 3.556 -1.016 3.556 1.016 0.3048 21
DS 3.556 1.016 -3.556 1.016 0.3048 21
DS -3.556 1.016 -3.556 -1.016 0.3048 21
DS -3.556 -0.508 -3.048 -1.016 0.3048 21
$PAD
Sh "1" C 2 2 0 0 0
Dr 0.8128 0 0
At STD N 00E0FFFF
Ne 2 "N-0000010"
Po -2.54 0
$EndPAD
$PAD
Sh "2" C 2 2 0 0 0
Dr 0.8128 0 0
At STD N 00E0FFFF
Ne 1 "GND"
Po 2.54 0
$EndPAD
$SHAPE3D
Na "discret/capa_2pas_5x5mm.wrl"
Sc 1 1 1
Of 0 0 0
Ro 0 0 0
$EndSHAPE3D
$EndMODULE C2_bigpads
$MODULE D2_bigger_pads
Po 0 0 0 15 5495C1A5 00000000 ~~
Li D2_bigger_pads
Cd Diode 3 pas
Kw DIODE DEV
Sc 0
AR /544CD4EC
Op 0 0 0
T0 0 0 1.016 1.016 0 0.2032 N V 21 N "D4"
T1 0 0 1.016 1.016 0 0.2032 N I 21 N "DIODE"
DS 3.81 0 3.048 0 0.3048 21
DS 3.048 0 3.048 -1.016 0.3048 21
DS 3.048 -1.016 -3.048 -1.016 0.3048 21
DS -3.048 -1.016 -3.048 0 0.3048 21
DS -3.048 0 -3.81 0 0.3048 21
DS -3.048 0 -3.048 1.016 0.3048 21
DS -3.048 1.016 3.048 1.016 0.3048 21
DS 3.048 1.016 3.048 0 0.3048 21
DS 2.54 -1.016 2.54 1.016 0.3048 21
DS 2.286 1.016 2.286 -1.016 0.3048 21
$PAD
Sh "2" R 2 2 0 0 0
Dr 0.9 0 0
At STD N 00E0FFFF
Ne 2 "N-0000055"
Po 3.81 0
$EndPAD
$PAD
Sh "1" C 2 2 0 0 0
Dr 0.85 0 0
At STD N 00E0FFFF
Ne 1 "GND"
Po -3.81 0
$EndPAD
$SHAPE3D
Na "discret/diode.wrl"
Sc 0.3 0.3 0.3
Of 0 0 0
Ro 0 0 0
$EndSHAPE3D
$EndMODULE D2_bigger_pads
$MODULE LDR
Po 0 0 0 15 549B2CF3 00000000 ~~
Li LDR
Sc 0
AR /545E5307
Op 0 0 0
T0 0 -6.5 1 1 0 0.15 N I 21 N "LDR1"
T1 0.127 0.254 1 1 0 0.15 N V 21 N "LDR"
DA 0 0 5.1 4 900 0.254 21
DA 0 0 4 5.1 900 0.254 21
DA 0 0 -3.9 -5.1 900 0.254 21
DA 0 0 -5.1 -3.9 900 0.254 21
DS -5.1 -3.9 -5.1 4 0.254 21
DS -5.1 4 -5.1 3.9 0.15 21
DS 5.1 -4 5.1 4.1 0.254 21
$PAD
Sh "2" C 3.5 3.5 0 0 0
Dr 1.5 0 0
At STD N 00E0FFFF
Ne 2 "I_GND"
Po 0 4.5
$EndPAD
$PAD
Sh "1" C 3.5 3.5 0 0 0
Dr 1.5 0 0
At STD N 00E0FFFF
Ne 1 "I_A2"
Po 0 -4.5
$EndPAD
$EndMODULE LDR
$MODULE MiniSlideSwitch
Po 0 0 0 15 544AA7F8 00000000 ~~
Li MiniSlideSwitch
Sc 0
AR 
Op 0 0 0
T0 0 3 1 1 0 0.15 N V 21 N "MiniSlideSwitch"
T1 -4 -3 1 1 0 0.15 N V 21 N "VAL**"
DS -1 -2 -1 -6 0.15 21
DS -1 -6 1 -6 0.15 21
DS 1 -6 1 -2 0.15 21
DS -5.6 -2.2 -4.8 -2.2 0.15 21
DS -5.6 -2.2 -5.6 2.2 0.15 21
DS -5.6 2.2 -4.8 2.2 0.15 21
DS 5.6 -2.2 5.6 2.2 0.15 21
DS 4.2 -2.2 -5 -2.2 0.15 21
DS 4.4 2.2 -5 2.2 0.15 21
DS 5.6 2.2 4.4 2.2 0.15 21
DS 5.6 -2.2 4.2 -2.2 0.15 21
$PAD
Sh "1" R 1.5 2 0 0 0
Dr 0.9 0 0
At STD N 00E0FFFF
Ne 0 ""
Po -2 0
$EndPAD
$PAD
Sh "2" R 1.5 2 0 0 0
Dr 0.9 0 0
At STD N 00E0FFFF
Ne 0 ""
Po 0 0
$EndPAD
$PAD
Sh "3" R 1.5 2 0 0 0
Dr 0.9 0 0
At STD N 00E0FFFF
Ne 0 ""
Po 2 0
$EndPAD
$PAD
Sh "4" R 1.8 2 0 0 0
Dr 1.5 0 0
At STD N 00E0FFFF
Ne 0 ""
Po -4.15 0
$EndPAD
$PAD
Sh "5" R 1.8 2 0 0 0
Dr 1.5 0 0
At STD N 00E0FFFF
Ne 0 ""
Po 4.15 0
$EndPAD
$EndMODULE MiniSlideSwitch
$MODULE R3-LARGE_PADS_bigpads
Po 0 0 0 15 5495C5E8 00000000 ~~
Li R3-LARGE_PADS_bigpads
Cd Resitance 3 pas
Kw R
Sc 0
AR /54495EEA
Op 0 A 0
T0 0 0 1.397 1.27 0 0.2032 N I 21 N "R4"
T1 -0.03 0.133 1.397 1.27 0 0.2032 N V 21 N "1k"
DS -3.81 0 -3.302 0 0.3048 21
DS 3.81 0 3.302 0 0.3048 21
DS 3.302 0 3.302 -1.016 0.3048 21
DS 3.302 -1.016 -3.302 -1.016 0.3048 21
DS -3.302 -1.016 -3.302 1.016 0.3048 21
DS -3.302 1.016 3.302 1.016 0.3048 21
DS 3.302 1.016 3.302 0 0.3048 21
DS -3.302 -0.508 -2.794 -1.016 0.3048 21
$PAD
Sh "1" C 2 2 0 0 0
Dr 0.8128 0 0
At STD N 00E0FFFF
Ne 1 "AUDIO"
Po -3.81 0
$EndPAD
$PAD
Sh "2" C 2 2 0 0 0
Dr 0.8128 0 0
At STD N 00E0FFFF
Ne 2 "N-0000047"
Po 3.81 0
$EndPAD
$SHAPE3D
Na "discret/resistor.wrl"
Sc 0.3 0.3 0.3
Of 0 0 0
Ro 0 0 0
$EndSHAPE3D
$EndMODULE R3-LARGE_PADS_bigpads
$MODULE SIL-6
Po 0 0 0 15 54946708 00000000 ~~
Li SIL-6
Cd Connecteur 6 pins
Kw CONN DEV
Sc 0
AR /544AAC6A
Op 0 0 0
T0 6.9275 2.0645 1.016 1.016 0 0.23 N V 21 N "P6"
T1 0 -2.54 1.524 1.016 0 0.3048 N I 21 N "CONN_6"
DS -7.62 1.27 -7.62 -1.27 0.3048 21
DS -7.62 -1.27 7.62 -1.27 0.3048 21
DS 7.62 -1.27 7.62 1.27 0.3048 21
DS 7.62 1.27 -7.62 1.27 0.3048 21
DS -5.08 1.27 -5.08 -1.27 0.3048 21
$PAD
Sh "1" R 1.7 1.7 0 0 0
Dr 1 0 0
At STD N 00E0FFFF
Ne 3 "D8"
Po -6.35 0
$EndPAD
$PAD
Sh "2" C 1.7 1.7 0 0 0
Dr 1 0 0
At STD N 00E0FFFF
Ne 4 "GND"
Po -3.81 0
$EndPAD
$PAD
Sh "3" C 1.7 1.7 0 0 0
Dr 1 0 0
At STD N 00E0FFFF
Ne 6 "VCC"
Po -1.27 0
$EndPAD
$PAD
Sh "4" C 1.7 1.7 0 0 0
Dr 1 0 0
At STD N 00E0FFFF
Ne 1 "D0"
Po 1.27 0
$EndPAD
$PAD
Sh "5" C 1.7 1.7 0 0 0
Dr 1 0 0
At STD N 00E0FFFF
Ne 2 "D1"
Po 3.81 0
$EndPAD
$PAD
Sh "6" C 1.7 1.7 0 0 0
Dr 1 0 0
At STD N 00E0FFFF
Ne 5 "RST"
Po 6.35 0
$EndPAD
$EndMODULE SIL-6
$MODULE SIL-6_bigger_pads
Po 0 0 0 15 54946708 00000000 ~~
Li SIL-6_bigger_pads
Cd Connecteur 6 pins
Kw CONN DEV
Sc 0
AR /544AAC6A
Op 0 0 0
T0 6.9275 2.0645 1.016 1.016 0 0.23 N V 21 N "P6"
T1 0 -2.54 1.524 1.016 0 0.3048 N I 21 N "CONN_6"
DS -7.62 1.27 -7.62 -1.27 0.3048 21
DS -7.62 -1.27 7.62 -1.27 0.3048 21
DS 7.62 -1.27 7.62 1.27 0.3048 21
DS 7.62 1.27 -7.62 1.27 0.3048 21
DS -5.08 1.27 -5.08 -1.27 0.3048 21
$PAD
Sh "1" R 1.7 1.7 0 0 0
Dr 1 0 0
At STD N 00E0FFFF
Ne 3 "D8"
Po -6.35 0
$EndPAD
$PAD
Sh "2" C 1.7 1.7 0 0 0
Dr 1 0 0
At STD N 00E0FFFF
Ne 4 "GND"
Po -3.81 0
$EndPAD
$PAD
Sh "3" C 1.7 1.7 0 0 0
Dr 1 0 0
At STD N 00E0FFFF
Ne 6 "VCC"
Po -1.27 0
$EndPAD
$PAD
Sh "4" C 1.7 1.7 0 0 0
Dr 1 0 0
At STD N 00E0FFFF
Ne 1 "D0"
Po 1.27 0
$EndPAD
$PAD
Sh "5" C 1.7 1.7 0 0 0
Dr 1 0 0
At STD N 00E0FFFF
Ne 2 "D1"
Po 3.81 0
$EndPAD
$PAD
Sh "6" C 1.7 1.7 0 0 0
Dr 1 0 0
At STD N 00E0FFFF
Ne 5 "RST"
Po 6.35 0
$EndPAD
$EndMODULE SIL-6_bigger_pads
$MODULE SW_PUSH-12mm_big_pads
Po 0 0 0 15 54946A86 00000000 ~~
Li SW_PUSH-12mm_big_pads
Sc 0
AR /545E52E9
Op 0 0 0
T0 0 -0.762 1.016 1.016 0 0.2032 N I 21 N "SW2"
T1 0 1.016 1.016 1.016 0 0.2032 N I 21 N "SW_PUSH"
DC 0 0 3.81 2.54 0.254 21
DS -6.35 -6.35 6.35 -6.35 0.254 21
DS 6.35 -6.35 6.35 6.35 0.254 21
DS 6.35 6.35 -6.35 6.35 0.254 21
DS -6.35 6.35 -6.35 -6.35 0.254 21
$PAD
Sh "1" C 3.5 3.5 0 0 0
Dr 2 0 0
At STD N 00E0FFFF
Ne 1 "I_D4"
Po 6.35 -2.54
$EndPAD
$PAD
Sh "2" C 3.5 3.5 0 0 0
Dr 2 0 0
At STD N 00E0FFFF
Ne 2 "I_GND"
Po 6.35 2.54
$EndPAD
$PAD
Sh "1" C 3.5 3.5 0 0 0
Dr 2 0 0
At STD N 00E0FFFF
Ne 1 "I_D4"
Po -6.35 -2.54
$EndPAD
$PAD
Sh "2" C 3.5 3.5 0 0 0
Dr 2 0 0
At STD N 00E0FFFF
Ne 2 "I_GND"
Po -6.35 2.54
$EndPAD
$EndMODULE SW_PUSH-12mm_big_pads
$MODULE TO92_bigpads
Po 0 0 0 15 5495C166 00000000 ~~
Li TO92_bigpads
Cd Transistor TO92 brochage type BC237
Kw TR TO92
Sc 0
AR /5449523E
Op 0 0 0
T0 -2.791 0.153 1.016 1.016 900 0.2032 N V 21 N "U1"
T1 -1.27 -5.08 1.016 1.016 0 0.2032 N I 21 N "LP2950-33LPE3"
DS -1.27 2.54 2.54 -1.27 0.3048 21
DS 2.54 -1.27 2.54 -2.54 0.3048 21
DS 2.54 -2.54 1.27 -3.81 0.3048 21
DS 1.27 -3.81 -1.27 -3.81 0.3048 21
DS -1.27 -3.81 -3.81 -1.27 0.3048 21
DS -3.81 -1.27 -3.81 1.27 0.3048 21
DS -3.81 1.27 -2.54 2.54 0.3048 21
DS -2.54 2.54 -1.27 2.54 0.3048 21
$PAD
Sh "1" R 2 2 0 0 0
Dr 0.8128 0 0
At STD N 00E0FFFF
Ne 3 "N-0000057"
Po 1.27 -1.27
$EndPAD
$PAD
Sh "2" C 2 2 0 0 0
Dr 0.8128 0 0
At STD N 00E0FFFF
Ne 1 "GND"
Po -2 -2
$EndPAD
$PAD
Sh "3" C 2 2 0 0 0
Dr 0.8128 0 0
At STD N 00E0FFFF
Ne 2 "N-0000056"
Po -1.27 1.27
$EndPAD
$SHAPE3D
Na "discret/to98.wrl"
Sc 1 1 1
Of 0 0 0
Ro 0 0 0
$EndSHAPE3D
$EndMODULE TO92_bigpads
$MODULE bridgeRect
Po 0 0 0 15 544CC898 00000000 ~~
Li bridgeRect
Sc 0
AR 
Op 0 0 0
T0 0 10.5 1 1 0 0.15 N V 21 N "bridgeRect"
T1 0 -2.5 1 1 0 0.15 N V 21 N "VAL**"
T2 2.5 5.5 1 1 0 0.15 N V 21 N "AC"
T2 -2.5 5.5 1 1 0 0.15 N V 21 N "AC"
T2 -2.5 2 1 1 0 0.15 N V 21 N "-"
T2 2.5 2 1 1 0 0.15 N V 21 N "+"
DS 3 1 3 6.5 0.15 21
DS -4 1 -4 6.5 0.15 21
DS 4 1 4 6.5 0.15 21
DS -4 6.5 4 6.5 0.15 21
DS -4 1 4 1 0.15 21
$PAD
Sh "2" R 1 2 0 0 0
Dr 0.7 0 0
At STD N 00E0FFFF
Ne 0 ""
Po -2.5 0
$EndPAD
$PAD
Sh "1" R 1 2 0 0 0
Dr 0.7 0 0
At STD N 00E0FFFF
Ne 0 ""
Po 2.5 0
$EndPAD
$PAD
Sh "4" R 1 2 0 0 0
Dr 0.7 0 0
At STD N 00E0FFFF
Ne 0 ""
Po 2.5 7.5
$EndPAD
$PAD
Sh "3" R 1 2 0 0 0
Dr 0.7 0 0
At STD N 00E0FFFF
Ne 0 ""
Po -2.5 7.5
$EndPAD
$EndMODULE bridgeRect
$MODULE pot_no-lines
Po 0 0 0 15 549B2554 00000000 ~~
Li pot_no-lines
Sc 0
AR /545E52F8
Op 0 0 0
T0 0 -4.6 1 1 0 0.15 N I 21 N "RV1"
T1 0 4.5 1 1 0 0.15 N I 21 N "POT"
$PAD
Sh "" R 3 4 0 0 0
Dr 2.2 0 0
At STD N 00E0FFFF
Ne 0 ""
Po 4.9 0
$EndPAD
$PAD
Sh "" R 3 4 0 0 0
Dr 2.2 0 0
At STD N 00E0FFFF
Ne 0 ""
Po -4.9 0
$EndPAD
$PAD
Sh "2" C 1.8 1.8 0 0 0
Dr 1 0 0
At STD N 00E0FFFF
Ne 1 "I_A1"
Po 0 7
$EndPAD
$PAD
Sh "1" C 1.8 1.8 0 0 0
Dr 1 0 0
At STD N 00E0FFFF
Ne 2 "I_GND"
Po -2.5 7
$EndPAD
$PAD
Sh "3" C 1.8 1.8 0 0 0
Dr 1 0 0
At STD N 00E0FFFF
Ne 3 "I_Vcc"
Po 2.5 7
$EndPAD
$EndMODULE pot_no-lines
$EndLIBRARY
