eeschema (2013-may-18)-stable  >> Creation date: Ned 09 Stu 2014 17:27:29
#Cmp ( order = Reference )
| C1         100n        ~                   ; C2          ; ~           ;             ;             ;             ;             ;             ;             ;             ;             
| C2         2u2/25V     ~                   ; 4mmcap      ; ~           ;             ;             ;             ;             ;             ;             ;             ;             
| C3         100n        ~                   ; C2          ; ~           ;             ;             ;             ;             ;             ;             ;             ;             
| C4         4u7/16V     ~                   ; 4mmcap      ; ~           ;             ;             ;             ;             ;             ;             ;             ;             
| C5         22p         ~                   ; C1          ; ~           ;             ;             ;             ;             ;             ;             ;             ;             
| C6         22p         ~                   ; C1          ; ~           ;             ;             ;             ;             ;             ;             ;             ;             
| CON1       BARREL_JACK ~                   ; BARREL_JACK ; ~           ; http://hr.rsdelivers.com/product/rs/ld-0202-20/21-mm-straight-pcb-mount-dc-power-socket-1-a-12-v-dc-nickel-plate/0448382.aspx;             ;             ;             ;             ;             ;             ;             
| D1         DIODE       ~                   ; D3          ; ~           ;             ;             ;             ;             ;             ;             ;             ;             
| D2         DIODE       ~                   ; D3          ; ~           ;             ;             ;             ;             ;             ;             ;             ;             
| D3         DIODE       ~                   ; D3          ; ~           ;             ;             ;             ;             ;             ;             ;             ;             
| D4         DIODE       ~                   ; D3          ; ~           ;             ;             ;             ;             ;             ;             ;             ;             
| D5         LED_PWR     ~                   ; LED-5MM     ; ~           ;             ;             ;             ;             ;             ;             ;             ;             
| D6         LED_SIG     ~                   ; LED-5MM     ; ~           ;             ;             ;             ;             ;             ;             ;             ;             
| IC1        ATMEGA328-P                     ; DIP-28__300_ELL;             ;             ;             ;             ;             ;             ;             ;             ;             
| JP1        mono/stereo ~                   ; PIN_ARRAY_3X1; ~           ;             ;             ;             ;             ;             ;             ;             ;             
| JP2        JUMPER      ~                   ; PIN_ARRAY_2X1; ~           ;             ;             ;             ;             ;             ;             ;             ;             
| LDR1       LDR         ~                   ; LDR         ; ~           ;             ;             ;             ;             ;             ;             ;             ;             
| P1         GND_bat     ~                   ; PIN_ARRAY_1 ; ~           ;             ;             ;             ;             ;             ;             ;             ;             
| P2         V_bat       ~                   ; PIN_ARRAY_1 ; ~           ;             ;             ;             ;             ;             ;             ;             ;             
| P3         CONN_5      ~                   ; PIN_ARRAY_5x1; ~           ;             ;             ;             ;             ;             ;             ;             ;             
| P4         BOOT_MODE   ~                   ; pin_array_3x2; ~           ;             ;             ;             ;             ;             ;             ;             ;             
| P5         CONN_5      ~                   ; PIN_ARRAY_5x1; ~           ;             ;             ;             ;             ;             ;             ;             ;             
| P6         CONN_6      ~                   ; SIL-6       ; ~           ;             ;             ;             ;             ;             ;             ;             ;             
| P7         AUDIO_OUT                       ; 3.5mmJack   ;             ;             ;             ;             ;             ;             ;             ;             ;             
| P8         CONN_5      ~                   ; PIN_ARRAY_5x1; ~           ;             ;             ;             ;             ;             ;             ;             ;             
| P9         CONN_6      ~                   ; SIL-6       ; ~           ;             ;             ;             ;             ;             ;             ;             ;             
| P10        CONN_6      ~                   ; SIL-6       ; ~           ;             ;             ;             ;             ;             ;             ;             ;             
| P11        CONN_5      ~                   ; PIN_ARRAY_5x1; ~           ;             ;             ;             ;             ;             ;             ;             ;             
| P12        CONN_6      ~                   ; SIL-6       ; ~           ;             ;             ;             ;             ;             ;             ;             ;             
| P13        CONN_1      ~                   ; 1PIN_SMD    ; ~           ;             ;             ;             ;             ;             ;             ;             ;             
| P14        CONN_1      ~                   ; 1PIN_SMD    ; ~           ;             ;             ;             ;             ;             ;             ;             ;             
| P15        CONN_1      ~                   ; 1PIN_SMD    ; ~           ;             ;             ;             ;             ;             ;             ;             ;             
| R1         10k         ~                   ; R3-LARGE_PADS; ~           ;             ;             ;             ;             ;             ;             ;             ;             
| R2         680         ~                   ; R3-LARGE_PADS; ~           ;             ;             ;             ;             ;             ;             ;             ;             
| R3         680         ~                   ; R3-LARGE_PADS; ~           ;             ;             ;             ;             ;             ;             ;             ;             
| R4         1k          ~                   ; R3-LARGE_PADS; ~           ;             ;             ;             ;             ;             ;             ;             ;             
| R5         10k         ~                   ; R3-LARGE_PADS; ~           ;             ;             ;             ;             ;             ;             ;             ;             
| R6         10k         ~                   ; R3-LARGE_PADS; ~           ;             ;             ;             ;             ;             ;             ;             ;             
| R7         470         ~                   ; R3-LARGE_PADS; ~           ;             ;             ;             ;             ;             ;             ;             ;             
| R8         R           ~                   ; R3-LARGE_PADS; ~           ;             ;             ;             ;             ;             ;             ;             ;             
| RV1        POT         ~                   ; pot         ; ~           ; http://hr.rsdelivers.com/product/alps/rk09k1130a8g/alps-potentiometer-rk09k-series-with-a-6-mm-dia-shaft-10-kω-20-linear-through-hole/7293599.aspx;             ;             ;             ;             ;             ;             ;             
| SW1        SWITCH_INV  ~                   ; MiniSlideSwitch; ~           ; http://hr.rsdelivers.com/product/c-k/os102011ma1qn1/through-hole-slide-switch-spdt-on-on-01-a-12-v-dc-slide/7874855.aspx;             ;             ;             ;             ;             ;             ;             
| SW2        SW_PUSH     ~                   ; SW_PUSH-12mm; ~           ;             ;             ;             ;             ;             ;             ;             ;             
| U1         LP2950-33LPE3~                   ; TO92        ; ~           ; http://hr.rsdelivers.com/product/texas-instruments/lp2950-33lpe3/lp2950-33lpe3-low-dropout-voltage-regulator-01a-33v-2-03-to-30vin-3-pin-to-92/7620430.aspx;             ;             ;             ;             ;             ;             ;             
| X1         16MHz       ~                   ; HC-49V      ; ~           ;             ;             ;             ;             ;             ;             ;             ;             
#End Cmp

#Cmp ( order = Value )
| 22p          C5        ; C1          ; ~           ;             ;             ;             ;             ;             ;             ;             ;             
| 22p          C6        ; C1          ; ~           ;             ;             ;             ;             ;             ;             ;             ;             
| 100n         C1        ; C2          ; ~           ;             ;             ;             ;             ;             ;             ;             ;             
| 100n         C3        ; C2          ; ~           ;             ;             ;             ;             ;             ;             ;             ;             
| 2u2/25V      C2        ; 4mmcap      ; ~           ;             ;             ;             ;             ;             ;             ;             ;             
| 4u7/16V      C4        ; 4mmcap      ; ~           ;             ;             ;             ;             ;             ;             ;             ;             
| BARREL_JACK  CON1      ; BARREL_JACK ; ~           ; http://hr.rsdelivers.com/product/rs/ld-0202-20/21-mm-straight-pcb-mount-dc-power-socket-1-a-12-v-dc-nickel-plate/0448382.aspx;             ;             ;             ;             ;             ;             ;             
| DIODE        D1        ; D3          ; ~           ;             ;             ;             ;             ;             ;             ;             ;             
| DIODE        D2        ; D3          ; ~           ;             ;             ;             ;             ;             ;             ;             ;             
| DIODE        D3        ; D3          ; ~           ;             ;             ;             ;             ;             ;             ;             ;             
| DIODE        D4        ; D3          ; ~           ;             ;             ;             ;             ;             ;             ;             ;             
| LED_PWR      D5        ; LED-5MM     ; ~           ;             ;             ;             ;             ;             ;             ;             ;             
| LED_SIG      D6        ; LED-5MM     ; ~           ;             ;             ;             ;             ;             ;             ;             ;             
| ATMEGA328-P  IC1       ; DIP-28__300_ELL;             ;             ;             ;             ;             ;             ;             ;             ;             
| JUMPER       JP2       ; PIN_ARRAY_2X1; ~           ;             ;             ;             ;             ;             ;             ;             ;             
| mono/stereo  JP1       ; PIN_ARRAY_3X1; ~           ;             ;             ;             ;             ;             ;             ;             ;             
| LDR          LDR1      ; LDR         ; ~           ;             ;             ;             ;             ;             ;             ;             ;             
| CONN_1       P13       ; 1PIN_SMD    ; ~           ;             ;             ;             ;             ;             ;             ;             ;             
| CONN_1       P14       ; 1PIN_SMD    ; ~           ;             ;             ;             ;             ;             ;             ;             ;             
| CONN_1       P15       ; 1PIN_SMD    ; ~           ;             ;             ;             ;             ;             ;             ;             ;             
| AUDIO_OUT    P7        ; 3.5mmJack   ;             ;             ;             ;             ;             ;             ;             ;             ;             
| GND_bat      P1        ; PIN_ARRAY_1 ; ~           ;             ;             ;             ;             ;             ;             ;             ;             
| V_bat        P2        ; PIN_ARRAY_1 ; ~           ;             ;             ;             ;             ;             ;             ;             ;             
| BOOT_MODE    P4        ; pin_array_3x2; ~           ;             ;             ;             ;             ;             ;             ;             ;             
| CONN_5       P3        ; PIN_ARRAY_5x1; ~           ;             ;             ;             ;             ;             ;             ;             ;             
| CONN_5       P5        ; PIN_ARRAY_5x1; ~           ;             ;             ;             ;             ;             ;             ;             ;             
| CONN_5       P8        ; PIN_ARRAY_5x1; ~           ;             ;             ;             ;             ;             ;             ;             ;             
| CONN_5       P11       ; PIN_ARRAY_5x1; ~           ;             ;             ;             ;             ;             ;             ;             ;             
| CONN_6       P6        ; SIL-6       ; ~           ;             ;             ;             ;             ;             ;             ;             ;             
| CONN_6       P9        ; SIL-6       ; ~           ;             ;             ;             ;             ;             ;             ;             ;             
| CONN_6       P10       ; SIL-6       ; ~           ;             ;             ;             ;             ;             ;             ;             ;             
| CONN_6       P12       ; SIL-6       ; ~           ;             ;             ;             ;             ;             ;             ;             ;             
| 470          R7        ; R3-LARGE_PADS; ~           ;             ;             ;             ;             ;             ;             ;             ;             
| 680          R2        ; R3-LARGE_PADS; ~           ;             ;             ;             ;             ;             ;             ;             ;             
| 680          R3        ; R3-LARGE_PADS; ~           ;             ;             ;             ;             ;             ;             ;             ;             
| 1k           R4        ; R3-LARGE_PADS; ~           ;             ;             ;             ;             ;             ;             ;             ;             
| 10k          R1        ; R3-LARGE_PADS; ~           ;             ;             ;             ;             ;             ;             ;             ;             
| 10k          R5        ; R3-LARGE_PADS; ~           ;             ;             ;             ;             ;             ;             ;             ;             
| 10k          R6        ; R3-LARGE_PADS; ~           ;             ;             ;             ;             ;             ;             ;             ;             
| R            R8        ; R3-LARGE_PADS; ~           ;             ;             ;             ;             ;             ;             ;             ;             
| POT          RV1       ; pot         ; ~           ; http://hr.rsdelivers.com/product/alps/rk09k1130a8g/alps-potentiometer-rk09k-series-with-a-6-mm-dia-shaft-10-kω-20-linear-through-hole/7293599.aspx;             ;             ;             ;             ;             ;             ;             
| SWITCH_INV   SW1       ; MiniSlideSwitch; ~           ; http://hr.rsdelivers.com/product/c-k/os102011ma1qn1/through-hole-slide-switch-spdt-on-on-01-a-12-v-dc-slide/7874855.aspx;             ;             ;             ;             ;             ;             ;             
| SW_PUSH      SW2       ; SW_PUSH-12mm; ~           ;             ;             ;             ;             ;             ;             ;             ;             
| LP2950-33LPE3 U1        ; TO92        ; ~           ; http://hr.rsdelivers.com/product/texas-instruments/lp2950-33lpe3/lp2950-33lpe3-low-dropout-voltage-regulator-01a-33v-2-03-to-30vin-3-pin-to-92/7620430.aspx;             ;             ;             ;             ;             ;             ;             
| 16MHz        X1        ; HC-49V      ; ~           ;             ;             ;             ;             ;             ;             ;             ;             
#End Cmp

#End List
