EESchema Schematic File Version 2
LIBS:power
LIBS:device
LIBS:transistors
LIBS:conn
LIBS:linear
LIBS:regul
LIBS:74xx
LIBS:cmos4000
LIBS:adc-dac
LIBS:memory
LIBS:xilinx
LIBS:special
LIBS:microcontrollers
LIBS:dsp
LIBS:microchip
LIBS:analog_switches
LIBS:motorola
LIBS:texas
LIBS:intel
LIBS:audio
LIBS:interface
LIBS:digital-audio
LIBS:philips
LIBS:display
LIBS:cypress
LIBS:siliconi
LIBS:opto
LIBS:atmel
LIBS:contrib
LIBS:valves
LIBS:interface_components
LIBS:kit-cache
EELAYER 27 0
EELAYER END
$Descr A4 11693 8268
encoding utf-8
Sheet 1 1
Title ""
Date "19 dec 2014"
Rev ""
Comp ""
Comment1 ""
Comment2 ""
Comment3 ""
Comment4 ""
$EndDescr
$Comp
L ATMEGA328-P IC1
U 1 1 542BC010
P 2150 3550
F 0 "IC1" H 1400 4800 40  0000 L BNN
F 1 "ATMEGA328-P" H 2550 2150 40  0000 L BNN
F 2 "DIP-28__300_ELL" H 2150 3550 30  0001 C CIN
F 3 "" H 2150 3550 60  0000 C CNN
	1    2150 3550
	1    0    0    -1  
$EndComp
$Comp
L MC78L05AACP U1
U 1 1 5449523E
P 3500 1200
F 0 "U1" H 3300 1400 40  0000 C CNN
F 1 "LP2950-33LPE3" H 3400 1400 40  0000 L CNN
F 2 "TO92" H 3500 1300 30  0001 C CIN
F 3 "~" H 3500 1200 60  0000 C CNN
F 4 "http://hr.rsdelivers.com/product/texas-instruments/lp2950-33lpe3/lp2950-33lpe3-low-dropout-voltage-regulator-01a-33v-2-03-to-30vin-3-pin-to-92/7620430.aspx" H 3500 1200 60  0001 C CNN "URL"
	1    3500 1200
	1    0    0    -1  
$EndComp
$Comp
L GND #PWR01
U 1 1 54495284
P 3500 1750
F 0 "#PWR01" H 3500 1750 30  0001 C CNN
F 1 "GND" H 3500 1680 30  0001 C CNN
F 2 "" H 3500 1750 60  0000 C CNN
F 3 "" H 3500 1750 60  0000 C CNN
	1    3500 1750
	1    0    0    -1  
$EndComp
$Comp
L CP1 C2
U 1 1 5449533A
P 3050 1350
F 0 "C2" H 3100 1450 50  0000 L CNN
F 1 "2u2/25V" H 3100 1250 50  0000 L CNN
F 2 "4mmcap" H 3050 1350 60  0001 C CNN
F 3 "~" H 3050 1350 60  0000 C CNN
	1    3050 1350
	1    0    0    -1  
$EndComp
$Comp
L CP1 C4
U 1 1 54495349
P 3950 1350
F 0 "C4" H 4000 1450 50  0000 L CNN
F 1 "4u7/16V" H 4000 1250 50  0000 L CNN
F 2 "4mmcap" H 3950 1350 60  0001 C CNN
F 3 "~" H 3950 1350 60  0000 C CNN
	1    3950 1350
	1    0    0    -1  
$EndComp
$Comp
L VCC #PWR02
U 1 1 544953D3
P 5100 1000
F 0 "#PWR02" H 5100 1100 30  0001 C CNN
F 1 "VCC" H 5100 1100 30  0000 C CNN
F 2 "" H 5100 1000 60  0000 C CNN
F 3 "" H 5100 1000 60  0000 C CNN
	1    5100 1000
	1    0    0    -1  
$EndComp
$Comp
L BARREL_JACK CON1
U 1 1 544953E2
P 1600 1400
F 0 "CON1" H 1600 1650 60  0000 C CNN
F 1 "BARREL_JACK" H 1600 1200 60  0000 C CNN
F 2 "BARREL_JACK" H 1600 1400 60  0001 C CNN
F 3 "~" H 1600 1400 60  0000 C CNN
F 4 "http://hr.rsdelivers.com/product/rs/ld-0202-20/21-mm-straight-pcb-mount-dc-power-socket-1-a-12-v-dc-nickel-plate/0448382.aspx" H 1600 1400 60  0001 C CNN "URL"
	1    1600 1400
	1    0    0    -1  
$EndComp
$Comp
L CONN_1 P2
U 1 1 544955C4
P 4100 1000
F 0 "P2" H 4180 1000 40  0000 L CNN
F 1 "V_bat" H 4100 1055 30  0000 C CNN
F 2 "PIN_ARRAY_1" H 4100 1000 60  0001 C CNN
F 3 "~" H 4100 1000 60  0000 C CNN
	1    4100 1000
	0    -1   -1   0   
$EndComp
$Comp
L CONN_1 P1
U 1 1 544955DF
P 3950 1750
F 0 "P1" H 4030 1750 40  0000 L CNN
F 1 "GND_bat" H 3950 1805 30  0000 C CNN
F 2 "PIN_ARRAY_1" H 3950 1750 60  0001 C CNN
F 3 "~" H 3950 1750 60  0000 C CNN
	1    3950 1750
	0    1    1    0   
$EndComp
$Comp
L SWITCH_INV SW1
U 1 1 544957A0
P 4600 1150
F 0 "SW1" H 4450 1050 50  0000 C CNN
F 1 "SWITCH_INV" H 4450 1000 50  0001 C CNN
F 2 "MiniSlideSwitch" H 4600 1150 60  0001 C CNN
F 3 "~" H 4600 1150 60  0000 C CNN
F 4 "http://hr.rsdelivers.com/product/c-k/os102011ma1qn1/through-hole-slide-switch-spdt-on-on-01-a-12-v-dc-slide/7874855.aspx" H 4600 1150 60  0001 C CNN "URL"
	1    4600 1150
	1    0    0    1   
$EndComp
NoConn ~ 5100 1250
$Comp
L CRYSTAL X1
U 1 1 54495831
P 3800 3150
F 0 "X1" V 3800 3300 60  0000 C CNN
F 1 "16MHz" V 3800 2950 60  0000 C CNN
F 2 "HC-49V" H 3800 3150 60  0001 C CNN
F 3 "~" H 3800 3150 60  0000 C CNN
	1    3800 3150
	0    -1   -1   0   
$EndComp
$Comp
L C C5
U 1 1 54495893
P 4000 2850
F 0 "C5" V 3950 2900 40  0000 L CNN
F 1 "22p" V 3950 2700 40  0000 L CNN
F 2 "C1" H 4038 2700 30  0001 C CNN
F 3 "~" H 4000 2850 60  0000 C CNN
	1    4000 2850
	0    -1   -1   0   
$EndComp
$Comp
L C C6
U 1 1 544958A2
P 4000 3450
F 0 "C6" V 3950 3500 40  0000 L CNN
F 1 "22p" V 3900 3300 40  0000 L CNN
F 2 "C1" H 4038 3300 30  0001 C CNN
F 3 "~" H 4000 3450 60  0000 C CNN
	1    4000 3450
	0    -1   -1   0   
$EndComp
$Comp
L GND #PWR03
U 1 1 544958D0
P 4350 3250
F 0 "#PWR03" H 4350 3250 30  0001 C CNN
F 1 "GND" H 4350 3180 30  0001 C CNN
F 2 "" H 4350 3250 60  0000 C CNN
F 3 "" H 4350 3250 60  0000 C CNN
	1    4350 3250
	1    0    0    -1  
$EndComp
$Comp
L R R1
U 1 1 54495A23
P 3650 3900
F 0 "R1" V 3730 3900 40  0000 C CNN
F 1 "10k" V 3657 3901 40  0000 C CNN
F 2 "R3-LARGE_PADS" V 3580 3900 30  0001 C CNN
F 3 "~" H 3650 3900 30  0000 C CNN
	1    3650 3900
	0    -1   -1   0   
$EndComp
$Comp
L VCC #PWR04
U 1 1 54495A32
P 3900 3800
F 0 "#PWR04" H 3900 3900 30  0001 C CNN
F 1 "VCC" H 3900 3900 30  0000 C CNN
F 2 "" H 3900 3800 60  0000 C CNN
F 3 "" H 3900 3800 60  0000 C CNN
	1    3900 3800
	1    0    0    -1  
$EndComp
$Comp
L GND #PWR05
U 1 1 54495A70
P 1200 4900
F 0 "#PWR05" H 1200 4900 30  0001 C CNN
F 1 "GND" H 1200 4830 30  0001 C CNN
F 2 "" H 1200 4900 60  0000 C CNN
F 3 "" H 1200 4900 60  0000 C CNN
	1    1200 4900
	1    0    0    -1  
$EndComp
$Comp
L VCC #PWR06
U 1 1 54495B1E
P 1200 2350
F 0 "#PWR06" H 1200 2450 30  0001 C CNN
F 1 "VCC" H 1200 2450 30  0000 C CNN
F 2 "" H 1200 2350 60  0000 C CNN
F 3 "" H 1200 2350 60  0000 C CNN
	1    1200 2350
	1    0    0    -1  
$EndComp
$Comp
L C C1
U 1 1 54495B8C
P 750 3500
F 0 "C1" H 750 3600 40  0000 L CNN
F 1 "100n" H 756 3415 40  0000 L CNN
F 2 "C2" H 788 3350 30  0001 C CNN
F 3 "~" H 750 3500 60  0000 C CNN
	1    750  3500
	1    0    0    -1  
$EndComp
$Comp
L VCC #PWR07
U 1 1 54495BB1
P 750 3300
F 0 "#PWR07" H 750 3400 30  0001 C CNN
F 1 "VCC" H 750 3400 30  0000 C CNN
F 2 "" H 750 3300 60  0000 C CNN
F 3 "" H 750 3300 60  0000 C CNN
	1    750  3300
	1    0    0    -1  
$EndComp
$Comp
L GND #PWR08
U 1 1 54495BC0
P 750 3700
F 0 "#PWR08" H 750 3700 30  0001 C CNN
F 1 "GND" H 750 3630 30  0001 C CNN
F 2 "" H 750 3700 60  0000 C CNN
F 3 "" H 750 3700 60  0000 C CNN
	1    750  3700
	1    0    0    -1  
$EndComp
$Comp
L C C3
U 1 1 54495C95
P 1200 3250
F 0 "C3" H 1200 3350 40  0000 L CNN
F 1 "100n" H 1206 3165 40  0000 L CNN
F 2 "C2" H 1238 3100 30  0001 C CNN
F 3 "~" H 1200 3250 60  0000 C CNN
	1    1200 3250
	1    0    0    -1  
$EndComp
$Comp
L GND #PWR09
U 1 1 54495CAE
P 1200 3450
F 0 "#PWR09" H 1200 3450 30  0001 C CNN
F 1 "GND" H 1200 3380 30  0001 C CNN
F 2 "" H 1200 3450 60  0000 C CNN
F 3 "" H 1200 3450 60  0000 C CNN
	1    1200 3450
	1    0    0    -1  
$EndComp
Text GLabel 1800 6900 0    39   Output ~ 0
RST
Text GLabel 3450 3750 2    39   Input ~ 0
RST
$Comp
L JUMPER3 JP1
U 1 1 54495E02
P 7500 3300
F 0 "JP1" V 7450 3200 40  0000 L CNN
F 1 "mono/stereo" H 7500 3450 40  0000 C CNN
F 2 "PIN_ARRAY_3X1" H 7500 3300 60  0001 C CNN
F 3 "~" H 7500 3300 60  0000 C CNN
	1    7500 3300
	0    -1   -1   0   
$EndComp
$Comp
L R R4
U 1 1 54495EEA
P 6750 3050
F 0 "R4" V 6830 3050 40  0000 C CNN
F 1 "1k" V 6757 3051 40  0000 C CNN
F 2 "R3-LARGE_PADS" V 6680 3050 30  0001 C CNN
F 3 "~" H 6750 3050 30  0000 C CNN
	1    6750 3050
	0    -1   -1   0   
$EndComp
$Comp
L GND #PWR010
U 1 1 544960FA
P 7750 3450
F 0 "#PWR010" H 7750 3450 30  0001 C CNN
F 1 "GND" H 7750 3380 30  0001 C CNN
F 2 "" H 7750 3450 60  0000 C CNN
F 3 "" H 7750 3450 60  0000 C CNN
	1    7750 3450
	1    0    0    -1  
$EndComp
$Comp
L GND #PWR011
U 1 1 544961F9
P 7500 3600
F 0 "#PWR011" H 7500 3600 30  0001 C CNN
F 1 "GND" H 7500 3530 30  0001 C CNN
F 2 "" H 7500 3600 60  0000 C CNN
F 3 "" H 7500 3600 60  0000 C CNN
	1    7500 3600
	1    0    0    -1  
$EndComp
$Comp
L LED D5
U 1 1 54496372
P 6350 1900
F 0 "D5" V 6350 2000 50  0000 C CNN
F 1 "LED_PWR" V 6450 2100 50  0000 C CNN
F 2 "LED-5MM" H 6350 1900 60  0001 C CNN
F 3 "~" H 6350 1900 60  0000 C CNN
	1    6350 1900
	0    1    1    0   
$EndComp
$Comp
L R R2
U 1 1 54496381
P 6350 1450
F 0 "R2" H 6430 1450 40  0000 C CNN
F 1 "680" H 6450 1400 40  0000 C CNN
F 2 "R3-LARGE_PADS" V 6280 1450 30  0001 C CNN
F 3 "~" H 6350 1450 30  0000 C CNN
	1    6350 1450
	1    0    0    -1  
$EndComp
$Comp
L GND #PWR012
U 1 1 5449640A
P 6350 2100
F 0 "#PWR012" H 6350 2100 30  0001 C CNN
F 1 "GND" H 6350 2030 30  0001 C CNN
F 2 "" H 6350 2100 60  0000 C CNN
F 3 "" H 6350 2100 60  0000 C CNN
	1    6350 2100
	1    0    0    -1  
$EndComp
$Comp
L VCC #PWR013
U 1 1 54496419
P 6350 1150
F 0 "#PWR013" H 6350 1250 30  0001 C CNN
F 1 "VCC" H 6350 1250 30  0000 C CNN
F 2 "" H 6350 1150 60  0000 C CNN
F 3 "" H 6350 1150 60  0000 C CNN
	1    6350 1150
	1    0    0    -1  
$EndComp
$Comp
L LED D6
U 1 1 54496426
P 6900 1900
F 0 "D6" V 6900 2000 50  0000 C CNN
F 1 "LED_SIG" V 7000 2100 50  0000 C CNN
F 2 "LED-5MM" H 6900 1900 60  0001 C CNN
F 3 "~" H 6900 1900 60  0000 C CNN
	1    6900 1900
	0    1    1    0   
$EndComp
$Comp
L R R3
U 1 1 5449642C
P 6900 1450
F 0 "R3" H 6980 1450 40  0000 C CNN
F 1 "680" H 7000 1400 40  0000 C CNN
F 2 "R3-LARGE_PADS" V 6830 1450 30  0001 C CNN
F 3 "~" H 6900 1450 30  0000 C CNN
	1    6900 1450
	1    0    0    -1  
$EndComp
$Comp
L GND #PWR014
U 1 1 54496432
P 6900 2100
F 0 "#PWR014" H 6900 2100 30  0001 C CNN
F 1 "GND" H 6900 2030 30  0001 C CNN
F 2 "" H 6900 2100 60  0000 C CNN
F 3 "" H 6900 2100 60  0000 C CNN
	1    6900 2100
	1    0    0    -1  
$EndComp
Text GLabel 6850 1150 0    39   Input ~ 0
LED
$Comp
L CONN_3X2 P4
U 1 1 54496595
P 8450 1650
F 0 "P4" H 8450 1900 50  0000 C CNN
F 1 "BOOT_MODE" H 8450 1500 40  0000 C CNN
F 2 "pin_array_3x2" H 8450 1650 60  0001 C CNN
F 3 "~" H 8450 1650 60  0000 C CNN
	1    8450 1650
	1    0    0    -1  
$EndComp
Text GLabel 3300 4650 2    39   Output ~ 0
LED
$Comp
L R R5
U 1 1 54496821
P 9100 1350
F 0 "R5" V 9180 1350 40  0000 C CNN
F 1 "10k" V 9107 1351 40  0000 C CNN
F 2 "R3-LARGE_PADS" V 9030 1350 30  0001 C CNN
F 3 "~" H 9100 1350 30  0000 C CNN
	1    9100 1350
	1    0    0    -1  
$EndComp
$Comp
L R R6
U 1 1 54496830
P 9100 1850
F 0 "R6" V 9000 1850 40  0000 C CNN
F 1 "10k" V 9107 1851 40  0000 C CNN
F 2 "R3-LARGE_PADS" V 9030 1850 30  0001 C CNN
F 3 "~" H 9100 1850 30  0000 C CNN
	1    9100 1850
	-1   0    0    1   
$EndComp
$Comp
L GND #PWR015
U 1 1 5449683F
P 9100 2150
F 0 "#PWR015" H 9100 2150 30  0001 C CNN
F 1 "GND" H 9100 2080 30  0001 C CNN
F 2 "" H 9100 2150 60  0000 C CNN
F 3 "" H 9100 2150 60  0000 C CNN
	1    9100 2150
	1    0    0    -1  
$EndComp
$Comp
L VCC #PWR016
U 1 1 5449684E
P 9100 1050
F 0 "#PWR016" H 9100 1150 30  0001 C CNN
F 1 "VCC" H 9100 1150 30  0000 C CNN
F 2 "" H 9100 1050 60  0000 C CNN
F 3 "" H 9100 1050 60  0000 C CNN
	1    9100 1050
	1    0    0    -1  
$EndComp
Text GLabel 7950 1600 0    39   Output ~ 0
BM
Text GLabel 3200 3600 2    39   Input ~ 0
BM
Text GLabel 6400 3050 0    39   Input ~ 0
AUDIO
Text GLabel 3450 2550 2    39   Output ~ 0
AUDIO
Text GLabel 3200 3300 2    39   Input ~ 0
A0
Text GLabel 3200 3400 2    39   Input ~ 0
A1
Text GLabel 3200 3500 2    39   Input ~ 0
A2
Text GLabel 3200 3700 2    39   Input ~ 0
A4
Text GLabel 3200 4250 2    39   BiDi ~ 0
D2
Text GLabel 3200 4350 2    39   BiDi ~ 0
D3
Text GLabel 3200 4450 2    39   BiDi ~ 0
D4
Text GLabel 3200 4550 2    39   BiDi ~ 0
D5
Text GLabel 3200 4750 2    39   BiDi ~ 0
D7
Text GLabel 3200 2450 2    39   BiDi ~ 0
D8
Text GLabel 3200 2650 2    39   BiDi ~ 0
D10
Text GLabel 3200 2750 2    39   BiDi ~ 0
D11
Text GLabel 3200 2850 2    39   BiDi ~ 0
D12
Text GLabel 3200 2950 2    39   BiDi ~ 0
D13
Text GLabel 6500 4400 0    39   Input ~ 0
D7
$Comp
L R R7
U 1 1 54497865
P 6900 4400
F 0 "R7" V 6980 4400 40  0000 C CNN
F 1 "470" V 6907 4401 40  0000 C CNN
F 2 "R3-LARGE_PADS" V 6830 4400 30  0001 C CNN
F 3 "~" H 6900 4400 30  0000 C CNN
	1    6900 4400
	0    -1   -1   0   
$EndComp
$Comp
L JUMPER JP2
U 1 1 544978F5
P 7250 4100
F 0 "JP2" H 7250 4250 60  0000 C CNN
F 1 "JUMPER" H 7250 4020 40  0000 C CNN
F 2 "PIN_ARRAY_2X1" H 7250 4100 60  0001 C CNN
F 3 "~" H 7250 4100 60  0000 C CNN
	1    7250 4100
	0    -1   -1   0   
$EndComp
Text Notes 6800 4000 2    39   ~ 0
Video out (optional)
Text GLabel 3200 4150 2    39   BiDi ~ 0
D1
Text GLabel 3200 4050 2    39   BiDi ~ 0
D0
Text GLabel 1800 6700 0    39   Input ~ 0
D0
Text GLabel 1800 6800 0    39   Input ~ 0
D1
Text GLabel 1750 5750 0    39   Input ~ 0
D2
Text GLabel 1750 5850 0    39   Input ~ 0
D3
Text GLabel 1750 5950 0    39   Input ~ 0
D4
Text GLabel 1750 6050 0    39   Input ~ 0
D5
Text GLabel 1750 6150 0    39   Input ~ 0
D7
Text GLabel 1800 6400 0    39   Input ~ 0
D8
$Comp
L GND #PWR017
U 1 1 5449827F
P 1500 6550
F 0 "#PWR017" H 1500 6550 30  0001 C CNN
F 1 "GND" H 1500 6480 30  0001 C CNN
F 2 "" H 1500 6550 60  0000 C CNN
F 3 "" H 1500 6550 60  0000 C CNN
	1    1500 6550
	1    0    0    -1  
$EndComp
Text GLabel 2950 5800 0    39   Input ~ 0
D10
Text GLabel 2950 5900 0    39   Input ~ 0
D11
Text GLabel 2950 6000 0    39   Input ~ 0
D12
Text GLabel 2950 6100 0    39   Input ~ 0
D13
Text GLabel 3000 6750 0    39   Input ~ 0
A4
Text GLabel 3000 6650 0    39   Input ~ 0
A2
Text GLabel 3000 6550 0    39   Input ~ 0
A1
Text GLabel 3000 6450 0    39   Input ~ 0
A0
$Comp
L VCC #PWR018
U 1 1 54499101
P 1700 6600
F 0 "#PWR018" H 1700 6700 30  0001 C CNN
F 1 "VCC" H 1700 6700 30  0000 C CNN
F 2 "" H 1700 6600 60  0000 C CNN
F 3 "" H 1700 6600 60  0000 C CNN
	1    1700 6600
	0    -1   -1   0   
$EndComp
$Comp
L GND #PWR019
U 1 1 54499191
P 2950 6250
F 0 "#PWR019" H 2950 6250 30  0001 C CNN
F 1 "GND" H 2950 6180 30  0001 C CNN
F 2 "" H 2950 6250 60  0000 C CNN
F 3 "" H 2950 6250 60  0000 C CNN
	1    2950 6250
	1    0    0    -1  
$EndComp
$Comp
L PWR_FLAG #FLG020
U 1 1 5449935F
P 5300 1050
F 0 "#FLG020" H 5300 1145 30  0001 C CNN
F 1 "PWR_FLAG" H 5300 1230 30  0000 C CNN
F 2 "" H 5300 1050 60  0000 C CNN
F 3 "" H 5300 1050 60  0000 C CNN
	1    5300 1050
	1    0    0    -1  
$EndComp
$Comp
L 3.5MM_JACK P7
U 1 1 544A9958
P 8100 2750
F 0 "P7" H 7950 2500 60  0000 C CNN
F 1 "AUDIO_OUT" H 8150 2150 60  0000 C CNN
F 2 "3.5mmJack" H 8100 2750 60  0001 C CNN
F 3 "" H 8100 2750 60  0000 C CNN
	1    8100 2750
	1    0    0    -1  
$EndComp
$Comp
L CONN_6 P6
U 1 1 544AAC6A
P 2200 6650
F 0 "P6" V 2150 6650 60  0000 C CNN
F 1 "CONN_6" V 2250 6650 60  0000 C CNN
F 2 "SIL-6" H 2200 6650 60  0001 C CNN
F 3 "~" H 2200 6650 60  0000 C CNN
	1    2200 6650
	1    0    0    -1  
$EndComp
$Comp
L CONN_6 P9
U 1 1 544AAC79
P 3400 6700
F 0 "P9" V 3350 6700 60  0000 C CNN
F 1 "CONN_6" V 3450 6700 60  0000 C CNN
F 2 "SIL-6" H 3400 6700 60  0001 C CNN
F 3 "~" H 3400 6700 60  0000 C CNN
	1    3400 6700
	1    0    0    -1  
$EndComp
$Comp
L CONN_5 P5
U 1 1 544AAC88
P 2200 5950
F 0 "P5" V 2150 5950 50  0000 C CNN
F 1 "CONN_5" V 2250 5950 50  0000 C CNN
F 2 "PIN_ARRAY_5x1" H 2200 5950 60  0001 C CNN
F 3 "~" H 2200 5950 60  0000 C CNN
	1    2200 5950
	1    0    0    -1  
$EndComp
$Comp
L CONN_5 P8
U 1 1 544AAC97
P 3400 6000
F 0 "P8" V 3350 6000 50  0000 C CNN
F 1 "CONN_5" V 3450 6000 50  0000 C CNN
F 2 "PIN_ARRAY_5x1" H 3400 6000 60  0001 C CNN
F 3 "~" H 3400 6000 60  0000 C CNN
	1    3400 6000
	1    0    0    -1  
$EndComp
$Comp
L GND #PWR021
U 1 1 544AAE5D
P 3000 7000
F 0 "#PWR021" H 3000 7000 30  0001 C CNN
F 1 "GND" H 3000 6930 30  0001 C CNN
F 2 "" H 3000 7000 60  0000 C CNN
F 3 "" H 3000 7000 60  0000 C CNN
	1    3000 7000
	1    0    0    -1  
$EndComp
Wire Wire Line
	3500 1450 3500 1750
Connection ~ 3500 1600
Wire Wire Line
	3950 1600 3950 1550
Wire Wire Line
	3900 1150 4100 1150
Connection ~ 3950 1150
Wire Wire Line
	1900 1300 2050 1150
Wire Wire Line
	1900 1500 2050 1600
Wire Wire Line
	1900 1400 1900 1500
Wire Wire Line
	3050 1550 3050 1600
Connection ~ 3050 1600
Wire Wire Line
	5100 1050 5100 1000
Wire Wire Line
	3150 3050 3500 3050
Wire Wire Line
	3500 3050 3500 2850
Wire Wire Line
	3500 2850 3800 2850
Wire Wire Line
	3150 3150 3500 3150
Wire Wire Line
	3500 3150 3500 3450
Wire Wire Line
	3500 3450 3800 3450
Wire Wire Line
	4200 2850 4200 3450
Wire Wire Line
	4200 3150 4350 3150
Wire Wire Line
	4350 3150 4350 3250
Connection ~ 4200 3150
Wire Wire Line
	3900 3900 3900 3800
Wire Wire Line
	1200 4650 1200 4900
Wire Wire Line
	1200 4750 1250 4750
Wire Wire Line
	1250 4650 1200 4650
Connection ~ 1200 4750
Wire Wire Line
	1200 2750 1250 2750
Wire Wire Line
	1200 2350 1200 2750
Wire Wire Line
	1200 2450 1250 2450
Connection ~ 1200 2450
Wire Wire Line
	1200 3050 1250 3050
Wire Wire Line
	1800 6900 1850 6900
Wire Wire Line
	3150 3900 3400 3900
Wire Wire Line
	3450 3750 3400 3750
Wire Wire Line
	3400 3750 3400 3900
Wire Wire Line
	7750 3450 7750 3250
Connection ~ 7500 3050
Wire Wire Line
	7600 3300 7650 3300
Wire Wire Line
	7650 3300 7650 3150
Wire Wire Line
	7650 3150 7750 3150
Wire Wire Line
	6850 1150 6900 1150
Wire Wire Line
	6900 1150 6900 1200
Wire Wire Line
	3300 4650 3150 4650
Wire Wire Line
	8850 1600 9100 1600
Wire Wire Line
	8850 1500 8850 1100
Wire Wire Line
	8850 1100 9100 1100
Wire Wire Line
	9100 1100 9100 1050
Wire Wire Line
	8850 1700 8850 2100
Wire Wire Line
	8050 1500 8050 1700
Connection ~ 8050 1600
Wire Wire Line
	7950 1600 8050 1600
Wire Wire Line
	6400 3050 6500 3050
Wire Wire Line
	3150 2550 3450 2550
Wire Wire Line
	6350 1150 6350 1200
Connection ~ 3050 1150
Wire Wire Line
	3200 3300 3150 3300
Wire Wire Line
	3200 3400 3150 3400
Wire Wire Line
	3200 3500 3150 3500
Wire Wire Line
	3200 3700 3150 3700
Wire Wire Line
	3200 3600 3150 3600
Wire Wire Line
	3200 3800 3150 3800
Wire Wire Line
	3200 4750 3150 4750
Wire Wire Line
	3200 4550 3150 4550
Wire Wire Line
	3200 4450 3150 4450
Wire Wire Line
	3200 4350 3150 4350
Wire Wire Line
	3200 4250 3150 4250
Wire Wire Line
	3200 2450 3150 2450
Wire Wire Line
	3150 2650 3200 2650
Wire Wire Line
	3200 2750 3150 2750
Wire Wire Line
	3150 2850 3200 2850
Wire Wire Line
	3200 2950 3150 2950
Wire Wire Line
	6650 4400 6500 4400
Wire Wire Line
	7000 3050 7750 3050
Wire Wire Line
	7250 4400 7150 4400
Wire Wire Line
	7250 3050 7250 3800
Wire Notes Line
	7400 3700 7400 4550
Wire Notes Line
	7400 4550 6100 4550
Wire Notes Line
	6100 4550 6100 3700
Wire Notes Line
	6100 3700 7400 3700
Wire Wire Line
	1800 6700 1850 6700
Wire Wire Line
	1850 6800 1800 6800
Wire Wire Line
	1750 5750 1800 5750
Wire Wire Line
	1800 5850 1750 5850
Wire Wire Line
	1750 5950 1800 5950
Wire Wire Line
	1800 6050 1750 6050
Wire Wire Line
	1750 6150 1800 6150
Wire Wire Line
	2950 5800 3000 5800
Wire Wire Line
	3000 5900 2950 5900
Wire Wire Line
	2950 6000 3000 6000
Wire Wire Line
	3000 6100 2950 6100
Wire Wire Line
	3000 6450 3050 6450
Wire Wire Line
	3050 6550 3000 6550
Wire Wire Line
	3000 6650 3050 6650
Wire Wire Line
	3050 6750 3000 6750
Wire Wire Line
	3000 6850 3050 6850
Wire Wire Line
	1700 6600 1850 6600
Wire Wire Line
	5300 1050 5100 1050
Wire Wire Line
	9100 2150 9100 2100
Wire Wire Line
	9100 2100 8850 2100
Wire Wire Line
	7500 3600 7500 3550
Wire Wire Line
	2950 6250 2950 6200
Wire Wire Line
	2950 6200 3000 6200
Wire Wire Line
	3000 7000 3000 6950
Wire Wire Line
	3000 6950 3050 6950
Wire Wire Line
	3150 4150 3200 4150
Wire Wire Line
	3150 4050 3200 4050
Wire Wire Line
	2800 1600 3950 1600
Connection ~ 2200 1600
Wire Wire Line
	2200 1450 2200 1600
Connection ~ 2200 1150
Wire Wire Line
	2200 1300 2200 1150
$Comp
L DIODE D1
U 1 1 544CD4BF
P 2600 1150
F 0 "D1" H 2500 1200 40  0000 C CNN
F 1 "DIODE" H 2600 1050 40  0001 C CNN
F 2 "D3" H 2600 1150 60  0001 C CNN
F 3 "~" H 2600 1150 60  0000 C CNN
	1    2600 1150
	1    0    0    -1  
$EndComp
$Comp
L DIODE D2
U 1 1 544CD4CE
P 2600 1300
F 0 "D2" H 2500 1350 40  0000 C CNN
F 1 "DIODE" H 2600 1200 40  0001 C CNN
F 2 "D3" H 2600 1300 60  0001 C CNN
F 3 "~" H 2600 1300 60  0000 C CNN
	1    2600 1300
	1    0    0    -1  
$EndComp
$Comp
L DIODE D3
U 1 1 544CD4DD
P 2600 1450
F 0 "D3" H 2700 1400 40  0000 C CNN
F 1 "DIODE" H 2600 1350 40  0001 C CNN
F 2 "D3" H 2600 1450 60  0001 C CNN
F 3 "~" H 2600 1450 60  0000 C CNN
	1    2600 1450
	-1   0    0    1   
$EndComp
$Comp
L DIODE D4
U 1 1 544CD4EC
P 2600 1600
F 0 "D4" H 2700 1550 40  0000 C CNN
F 1 "DIODE" H 2600 1500 40  0001 C CNN
F 2 "D3" H 2600 1600 60  0001 C CNN
F 3 "~" H 2600 1600 60  0000 C CNN
	1    2600 1600
	-1   0    0    1   
$EndComp
Wire Wire Line
	2800 1600 2800 1450
Wire Wire Line
	2800 1300 2800 1150
Wire Wire Line
	2800 1150 3100 1150
Wire Wire Line
	2050 1600 2400 1600
Wire Wire Line
	2050 1150 2400 1150
Wire Wire Line
	2400 1450 2350 1450
Wire Wire Line
	2350 1450 2200 1300
Wire Wire Line
	2400 1300 2350 1300
Wire Wire Line
	2350 1300 2200 1450
Text GLabel 3200 3800 2    39   Input ~ 0
A5
Text GLabel 3000 6850 0    39   Input ~ 0
A5
Wire Wire Line
	1800 6400 1850 6400
Wire Wire Line
	1500 6550 1500 6500
Wire Wire Line
	1500 6500 1850 6500
Text GLabel 8400 6450 0    39   Input ~ 0
I_D0
Text GLabel 8400 6550 0    39   Input ~ 0
I_D1
Text GLabel 8350 5700 0    39   Input ~ 0
I_D4
Text GLabel 9600 6400 0    39   Input ~ 0
I_A2
Text GLabel 9600 6300 0    39   Input ~ 0
I_A1
Text GLabel 9600 6200 0    39   Input ~ 0
I_A0
$Comp
L CONN_6 P10
U 1 1 545E516C
P 8800 6400
F 0 "P10" V 8750 6400 60  0000 C CNN
F 1 "CONN_6" V 8850 6400 60  0000 C CNN
F 2 "SIL-6" H 8800 6400 60  0001 C CNN
F 3 "~" H 8800 6400 60  0000 C CNN
	1    8800 6400
	1    0    0    -1  
$EndComp
$Comp
L CONN_6 P12
U 1 1 545E5172
P 10000 6450
F 0 "P12" V 9950 6450 60  0000 C CNN
F 1 "CONN_6" V 10050 6450 60  0000 C CNN
F 2 "SIL-6" H 10000 6450 60  0001 C CNN
F 3 "~" H 10000 6450 60  0000 C CNN
	1    10000 6450
	1    0    0    -1  
$EndComp
$Comp
L CONN_5 P3
U 1 1 545E5178
P 8800 5700
F 0 "P3" V 8750 5700 50  0000 C CNN
F 1 "CONN_5" V 8850 5700 50  0000 C CNN
F 2 "PIN_ARRAY_5x1" H 8800 5700 60  0001 C CNN
F 3 "~" H 8800 5700 60  0000 C CNN
	1    8800 5700
	1    0    0    -1  
$EndComp
$Comp
L CONN_5 P11
U 1 1 545E517E
P 10000 5750
F 0 "P11" V 9950 5750 50  0000 C CNN
F 1 "CONN_5" V 10050 5750 50  0000 C CNN
F 2 "PIN_ARRAY_5x1" H 10000 5750 60  0001 C CNN
F 3 "~" H 10000 5750 60  0000 C CNN
	1    10000 5750
	1    0    0    -1  
$EndComp
Wire Wire Line
	8400 6450 8450 6450
Wire Wire Line
	8450 6550 8400 6550
Wire Wire Line
	8350 5700 8400 5700
Wire Wire Line
	9600 6200 9650 6200
Wire Wire Line
	9650 6300 9600 6300
Wire Wire Line
	9600 6400 9650 6400
$Comp
L SW_PUSH SW2
U 1 1 545E52E9
P 6050 6050
F 0 "SW2" H 6200 6160 50  0000 C CNN
F 1 "SW_PUSH" H 6050 5970 50  0000 C CNN
F 2 "SW_PUSH-12mm" H 6050 6050 60  0001 C CNN
F 3 "~" H 6050 6050 60  0000 C CNN
	1    6050 6050
	0    1    1    0   
$EndComp
$Comp
L POT RV1
U 1 1 545E52F8
P 6600 6050
F 0 "RV1" H 6600 5950 50  0000 C CNN
F 1 "POT" H 6600 6050 50  0000 C CNN
F 2 "pot" H 6600 6050 60  0001 C CNN
F 3 "~" H 6600 6050 60  0000 C CNN
F 4 "http://hr.rsdelivers.com/product/alps/rk09k1130a8g/alps-potentiometer-rk09k-series-with-a-6-mm-dia-shaft-10-kω-20-linear-through-hole/7293599.aspx" H 6600 6050 60  0001 C CNN "URL"
	1    6600 6050
	0    -1   -1   0   
$EndComp
$Comp
L LDR LDR1
U 1 1 545E5307
P 7250 6300
F 0 "LDR1" H 7250 6050 60  0000 C CNN
F 1 "LDR" H 7250 6600 60  0000 C CNN
F 2 "LDR" H 7550 6300 60  0001 C CNN
F 3 "~" H 7550 6300 60  0000 C CNN
	1    7250 6300
	0    1    1    0   
$EndComp
Text GLabel 5950 5650 0    39   Input ~ 0
I_D4
Wire Wire Line
	5950 5650 6050 5650
Wire Wire Line
	6050 5650 6050 5750
Text GLabel 6500 5650 0    39   Input ~ 0
I_Vcc
Wire Wire Line
	6500 5650 6600 5650
Wire Wire Line
	6600 5650 6600 5800
Text GLabel 6050 6400 3    39   Input ~ 0
I_GND
Wire Wire Line
	6050 6400 6050 6350
Text GLabel 6600 6400 3    39   Input ~ 0
I_GND
Wire Wire Line
	6600 6400 6600 6300
Text GLabel 7150 5300 0    39   Input ~ 0
I_Vcc
Text GLabel 7250 6650 3    39   Input ~ 0
I_GND
Wire Wire Line
	7250 6650 7250 6600
Text GLabel 6400 6050 0    39   Input ~ 0
I_A1
Wire Wire Line
	6400 6050 6450 6050
$Comp
L R R8
U 1 1 545E5A3C
P 7250 5650
F 0 "R8" V 7330 5650 40  0000 C CNN
F 1 "R" V 7257 5651 40  0000 C CNN
F 2 "R3-LARGE_PADS" V 7180 5650 30  0001 C CNN
F 3 "~" H 7250 5650 30  0000 C CNN
	1    7250 5650
	1    0    0    -1  
$EndComp
Wire Wire Line
	7250 5900 7250 6000
Wire Wire Line
	7150 5300 7250 5300
Wire Wire Line
	7250 5300 7250 5400
Text GLabel 7150 5950 0    39   Input ~ 0
I_A2
Wire Wire Line
	7150 5950 7250 5950
Connection ~ 7250 5950
Text GLabel 8400 6250 0    39   Input ~ 0
I_GND
Text GLabel 8400 6350 0    39   Input ~ 0
I_Vcc
Wire Wire Line
	8400 6250 8450 6250
Wire Wire Line
	8450 6350 8400 6350
Text GLabel 9550 5950 0    39   Input ~ 0
I_GND
Text GLabel 9600 6700 0    39   Input ~ 0
I_GND
Wire Wire Line
	9600 6700 9650 6700
Wire Wire Line
	9600 5950 9550 5950
NoConn ~ 9600 5550
NoConn ~ 9600 5650
NoConn ~ 9600 5750
NoConn ~ 9600 5850
NoConn ~ 9650 6500
NoConn ~ 9650 6600
NoConn ~ 8450 6650
NoConn ~ 8450 6150
NoConn ~ 8400 5900
NoConn ~ 8400 5800
NoConn ~ 8400 5600
NoConn ~ 8400 5500
$Comp
L CONN_1 P13
U 1 1 545E639C
P 10650 6000
F 0 "P13" H 10730 6000 40  0000 L CNN
F 1 "CONN_1" H 10650 6055 30  0001 C CNN
F 2 "1PIN_SMD" H 10650 6000 60  0001 C CNN
F 3 "~" H 10650 6000 60  0000 C CNN
	1    10650 6000
	-1   0    0    1   
$EndComp
$Comp
L CONN_1 P14
U 1 1 545E63B5
P 10650 6100
F 0 "P14" H 10730 6100 40  0000 L CNN
F 1 "CONN_1" H 10650 6155 30  0001 C CNN
F 2 "1PIN_SMD" H 10650 6100 60  0001 C CNN
F 3 "~" H 10650 6100 60  0000 C CNN
	1    10650 6100
	-1   0    0    1   
$EndComp
$Comp
L CONN_1 P15
U 1 1 545E63C4
P 10650 6200
F 0 "P15" H 10730 6200 40  0000 L CNN
F 1 "CONN_1" H 10650 6255 30  0001 C CNN
F 2 "1PIN_SMD" H 10650 6200 60  0001 C CNN
F 3 "~" H 10650 6200 60  0000 C CNN
	1    10650 6200
	-1   0    0    1   
$EndComp
Text GLabel 10850 6000 2    39   Input ~ 0
I_D0
Text GLabel 10850 6100 2    39   Input ~ 0
I_D1
Text GLabel 10850 6200 2    39   Input ~ 0
I_A0
Wire Wire Line
	10850 6200 10800 6200
Wire Wire Line
	10800 6100 10850 6100
Wire Wire Line
	10850 6000 10800 6000
Wire Notes Line
	5600 5100 11100 5100
Wire Notes Line
	11100 5100 11100 7000
Wire Notes Line
	11100 7000 5600 7000
Wire Notes Line
	5600 7000 5600 5100
Text Notes 5700 5300 0    60   ~ 0
interface
Connection ~ 7250 3050
$Comp
L C C7
U 1 1 5493C791
P 7100 3250
F 0 "C7" H 7100 3350 40  0000 L CNN
F 1 "100n" H 7106 3165 40  0000 L CNN
F 2 "~" H 7138 3100 30  0000 C CNN
F 3 "~" H 7100 3250 60  0000 C CNN
	1    7100 3250
	1    0    0    -1  
$EndComp
Connection ~ 7100 3050
$Comp
L GND #PWR022
U 1 1 5493C849
P 7100 3450
F 0 "#PWR022" H 7100 3450 30  0001 C CNN
F 1 "GND" H 7100 3380 30  0001 C CNN
F 2 "" H 7100 3450 60  0000 C CNN
F 3 "" H 7100 3450 60  0000 C CNN
	1    7100 3450
	1    0    0    -1  
$EndComp
Text Notes 5950 3300 0    39   ~ 0
Output capacitor (optional)\nremoves noise on some speakers. \nremove if using video out.
Wire Notes Line
	5900 3150 7200 3150
Wire Notes Line
	7200 3150 7200 3500
Wire Notes Line
	7200 3500 5900 3500
Wire Notes Line
	5900 3500 5900 3150
$EndSCHEMATC
