PCBNEW-LibModule-V1
$INDEX
oshw_logo
$EndINDEX
#
# oshw_logo
# pixmap w = 700, h = 700
#
$MODULE oshw_logo
Po 0 0 0 15 00000000 00000000 ~~
Li oshw_logo
T0 0 1196 600 600 0 120 N I 21 "G***"
T1 0 -1196 600 600 0 120 N I 21 "oshw_logo"
DP 0 0 0 0 537 1 21
Dl 990 78
Dl 989 112
Dl 989 140
Dl 989 162
Dl 989 179
Dl 988 192
Dl 988 202
Dl 987 208
Dl 986 211
Dl 985 213
Dl 981 214
Dl 971 217
Dl 955 220
Dl 936 224
Dl 913 229
Dl 888 234
Dl 861 239
Dl 830 244
Dl 803 250
Dl 780 254
Dl 761 258
Dl 747 262
Dl 738 264
Dl 736 265
Dl 733 270
Dl 728 279
Dl 722 293
Dl 715 310
Dl 707 330
Dl 698 351
Dl 689 373
Dl 680 394
Dl 673 415
Dl 666 433
Dl 660 449
Dl 656 460
Dl 654 467
Dl 654 468
Dl 656 472
Dl 662 480
Dl 670 493
Dl 681 509
Dl 694 528
Dl 709 550
Dl 724 572
Dl 740 595
Dl 755 617
Dl 767 636
Dl 778 653
Dl 786 666
Dl 791 674
Dl 793 678
Dl 791 682
Dl 784 690
Dl 774 701
Dl 761 715
Dl 746 731
Dl 729 748
Dl 711 767
Dl 692 785
Dl 674 803
Dl 656 820
Dl 640 836
Dl 626 849
Dl 615 860
Dl 607 867
Dl 603 870
Dl 602 870
Dl 599 868
Dl 590 863
Dl 577 854
Dl 561 844
Dl 541 831
Dl 520 816
Dl 498 801
Dl 475 786
Dl 453 771
Dl 434 758
Dl 418 748
Dl 405 740
Dl 396 735
Dl 392 733
Dl 388 734
Dl 378 739
Dl 365 745
Dl 350 753
Dl 343 756
Dl 326 765
Dl 312 772
Dl 300 777
Dl 293 779
Dl 292 779
Dl 290 778
Dl 288 775
Dl 285 771
Dl 282 764
Dl 277 754
Dl 271 740
Dl 263 724
Dl 254 702
Dl 243 677
Dl 231 647
Dl 216 611
Dl 199 569
Dl 196 562
Dl 181 526
Dl 167 492
Dl 154 460
Dl 142 431
Dl 132 405
Dl 123 382
Dl 116 364
Dl 111 351
Dl 109 343
Dl 108 341
Dl 112 337
Dl 119 331
Dl 130 322
Dl 141 315
Dl 168 295
Dl 191 275
Dl 210 256
Dl 226 235
Dl 240 212
Dl 247 198
Dl 263 160
Dl 272 120
Dl 275 80
Dl 272 40
Dl 263 1
Dl 249 -36
Dl 228 -72
Dl 202 -105
Dl 200 -107
Dl 169 -135
Dl 134 -159
Dl 95 -177
Dl 76 -183
Dl 65 -187
Dl 55 -189
Dl 43 -190
Dl 29 -191
Dl 11 -191
Dl 1 -191
Dl -19 -191
Dl -34 -191
Dl -47 -189
Dl -57 -188
Dl -68 -185
Dl -73 -183
Dl -114 -167
Dl -150 -146
Dl -183 -120
Dl -212 -89
Dl -235 -54
Dl -241 -41
Dl -255 -10
Dl -264 18
Dl -269 48
Dl -270 80
Dl -267 122
Dl -257 163
Dl -242 201
Dl -220 237
Dl -194 269
Dl -182 280
Dl -166 293
Dl -149 306
Dl -133 318
Dl -119 327
Dl -117 328
Dl -109 334
Dl -105 340
Dl -104 341
Dl -105 346
Dl -109 356
Dl -114 371
Dl -122 392
Dl -133 418
Dl -145 448
Dl -158 482
Dl -174 520
Dl -189 557
Dl -204 593
Dl -218 626
Dl -231 658
Dl -243 687
Dl -254 712
Dl -263 734
Dl -270 752
Dl -276 764
Dl -279 771
Dl -280 773
Dl -285 778
Dl -289 780
Dl -294 778
Dl -304 774
Dl -317 768
Dl -333 760
Dl -340 756
Dl -359 746
Dl -375 739
Dl -385 734
Dl -391 734
Dl -395 736
Dl -405 741
Dl -418 750
Dl -434 760
Dl -451 772
Dl -463 780
Dl -494 801
Dl -519 819
Dl -541 833
Dl -558 845
Dl -571 854
Dl -581 861
Dl -589 865
Dl -594 868
Dl -597 869
Dl -599 870
Dl -602 867
Dl -610 861
Dl -621 851
Dl -636 837
Dl -652 821
Dl -671 803
Dl -691 783
Dl -695 779
Dl -716 758
Dl -734 739
Dl -751 722
Dl -766 707
Dl -777 695
Dl -784 687
Dl -788 683
Dl -788 682
Dl -789 680
Dl -789 678
Dl -788 676
Dl -787 672
Dl -784 667
Dl -779 659
Dl -772 649
Dl -763 635
Dl -751 618
Dl -736 596
Dl -718 569
Dl -716 567
Dl -701 544
Dl -687 523
Dl -674 504
Dl -664 488
Dl -656 476
Dl -651 468
Dl -650 464
Dl -651 460
Dl -654 451
Dl -659 436
Dl -666 418
Dl -675 397
Dl -684 374
Dl -688 363
Dl -700 334
Dl -710 311
Dl -717 293
Dl -723 279
Dl -728 270
Dl -732 265
Dl -734 263
Dl -739 261
Dl -750 259
Dl -765 256
Dl -785 252
Dl -808 248
Dl -834 243
Dl -859 238
Dl -886 233
Dl -912 228
Dl -934 223
Dl -953 220
Dl -968 216
Dl -978 214
Dl -982 213
Dl -983 210
Dl -984 206
Dl -985 199
Dl -985 188
Dl -986 173
Dl -986 153
Dl -986 128
Dl -986 97
Dl -986 78
Dl -986 -53
Dl -979 -57
Dl -974 -59
Dl -963 -62
Dl -947 -65
Dl -927 -69
Dl -904 -74
Dl -878 -79
Dl -850 -84
Dl -850 -84
Dl -822 -89
Dl -796 -94
Dl -773 -99
Dl -754 -103
Dl -738 -107
Dl -728 -109
Dl -724 -111
Dl -724 -111
Dl -721 -115
Dl -717 -124
Dl -710 -138
Dl -703 -155
Dl -694 -174
Dl -685 -194
Dl -676 -216
Dl -668 -236
Dl -660 -255
Dl -653 -272
Dl -647 -286
Dl -644 -295
Dl -643 -298
Dl -645 -302
Dl -650 -311
Dl -658 -324
Dl -669 -340
Dl -682 -360
Dl -696 -381
Dl -712 -405
Dl -715 -409
Dl -731 -432
Dl -746 -454
Dl -760 -474
Dl -771 -492
Dl -780 -505
Dl -786 -515
Dl -789 -520
Dl -789 -520
Dl -788 -523
Dl -785 -527
Dl -780 -534
Dl -772 -543
Dl -760 -556
Dl -745 -572
Dl -726 -591
Dl -702 -615
Dl -698 -620
Dl -674 -643
Dl -653 -664
Dl -635 -681
Dl -620 -695
Dl -608 -706
Dl -601 -711
Dl -598 -713
Dl -594 -711
Dl -585 -706
Dl -572 -698
Dl -556 -687
Dl -536 -674
Dl -514 -659
Dl -491 -643
Dl -488 -642
Dl -465 -626
Dl -443 -610
Dl -423 -597
Dl -405 -585
Dl -392 -576
Dl -382 -570
Dl -377 -567
Dl -377 -567
Dl -374 -566
Dl -370 -566
Dl -364 -567
Dl -354 -570
Dl -342 -575
Dl -325 -581
Dl -303 -590
Dl -287 -597
Dl -260 -608
Dl -238 -617
Dl -221 -624
Dl -208 -630
Dl -199 -634
Dl -193 -637
Dl -189 -640
Dl -186 -642
Dl -185 -644
Dl -185 -646
Dl -184 -651
Dl -181 -661
Dl -178 -677
Dl -175 -696
Dl -170 -720
Dl -165 -746
Dl -160 -773
Dl -160 -776
Dl -154 -804
Dl -149 -830
Dl -144 -854
Dl -140 -874
Dl -137 -889
Dl -134 -900
Dl -133 -905
Dl -133 -905
Dl -131 -906
Dl -126 -907
Dl -120 -908
Dl -109 -908
Dl -95 -909
Dl -77 -909
Dl -53 -909
Dl -24 -909
Dl 1 -909
Dl 30 -909
Dl 57 -909
Dl 81 -909
Dl 102 -908
Dl 118 -908
Dl 129 -907
Dl 135 -907
Dl 136 -907
Dl 137 -903
Dl 140 -893
Dl 144 -877
Dl 148 -856
Dl 153 -830
Dl 159 -801
Dl 164 -773
Dl 170 -745
Dl 175 -718
Dl 180 -694
Dl 184 -673
Dl 187 -657
Dl 190 -646
Dl 191 -640
Dl 192 -639
Dl 196 -637
Dl 205 -633
Dl 219 -627
Dl 235 -620
Dl 254 -612
Dl 275 -603
Dl 296 -595
Dl 316 -587
Dl 335 -579
Dl 352 -573
Dl 365 -568
Dl 374 -565
Dl 378 -564
Dl 381 -566
Dl 390 -572
Dl 402 -580
Dl 419 -591
Dl 438 -604
Dl 460 -619
Dl 483 -635
Dl 489 -639
Dl 513 -656
Dl 535 -671
Dl 555 -684
Dl 573 -695
Dl 587 -704
Dl 596 -710
Dl 602 -713
Dl 602 -713
Dl 606 -711
Dl 613 -704
Dl 625 -694
Dl 638 -681
Dl 654 -666
Dl 672 -649
Dl 690 -631
Dl 709 -612
Dl 727 -594
Dl 744 -576
Dl 760 -560
Dl 773 -546
Dl 783 -534
Dl 790 -526
Dl 793 -522
Dl 793 -522
Dl 791 -518
Dl 786 -509
Dl 778 -496
Dl 767 -479
Dl 754 -460
Dl 739 -438
Dl 724 -415
Dl 723 -414
Dl 706 -390
Dl 691 -368
Dl 678 -348
Dl 667 -332
Dl 658 -318
Dl 652 -309
Dl 649 -304
Dl 649 -304
Dl 648 -301
Dl 649 -296
Dl 651 -288
Dl 655 -277
Dl 661 -262
Dl 669 -242
Dl 680 -218
Dl 685 -205
Dl 696 -180
Dl 706 -158
Dl 714 -139
Dl 721 -124
Dl 727 -114
Dl 730 -109
Dl 730 -109
Dl 735 -108
Dl 745 -106
Dl 760 -102
Dl 780 -98
Dl 803 -94
Dl 829 -89
Dl 857 -83
Dl 860 -83
Dl 892 -77
Dl 920 -71
Dl 944 -66
Dl 963 -62
Dl 977 -59
Dl 985 -56
Dl 987 -55
Dl 987 -51
Dl 988 -41
Dl 988 -26
Dl 989 -6
Dl 989 16
Dl 989 43
Dl 990 71
Dl 990 78
Dl 990 78
$EndMODULE oshw_logo
$EndLIBRARY
