PCBNEW-LibModule-V1
$INDEX
radiona_logo
$EndINDEX
#
# radiona_logo
# pixmap w = 234, h = 648
#
$MODULE radiona_logo
Po 0 0 0 15 00000000 00000000 ~~
Li radiona_logo
T0 0 2775 600 600 0 120 N I 21 "G***"
T1 0 -2775 600 600 0 120 N I 21 "radiona_logo"
DP 0 0 0 0 417 1 21
Dl 717 1179
Dl 682 1209
Dl 664 1224
Dl 636 1247
Dl 601 1276
Dl 561 1309
Dl 519 1343
Dl 480 1374
Dl 446 1403
Dl 418 1426
Dl 400 1443
Dl 392 1451
Dl 392 1451
Dl 398 1458
Dl 415 1474
Dl 442 1497
Dl 477 1526
Dl 517 1559
Dl 553 1589
Dl 597 1625
Dl 637 1658
Dl 670 1686
Dl 695 1707
Dl 710 1721
Dl 713 1726
Dl 707 1732
Dl 689 1748
Dl 662 1771
Dl 627 1800
Dl 586 1834
Dl 552 1862
Dl 508 1898
Dl 468 1931
Dl 435 1959
Dl 410 1980
Dl 395 1994
Dl 392 1998
Dl 398 2005
Dl 415 2020
Dl 442 2043
Dl 475 2071
Dl 514 2103
Dl 525 2112
Dl 565 2144
Dl 600 2174
Dl 629 2198
Dl 648 2216
Dl 657 2226
Dl 658 2227
Dl 653 2238
Dl 640 2256
Dl 623 2276
Dl 606 2294
Dl 592 2305
Dl 588 2307
Dl 579 2302
Dl 560 2287
Dl 530 2265
Dl 494 2236
Dl 451 2201
Dl 403 2163
Dl 394 2155
Dl 346 2116
Dl 303 2080
Dl 266 2050
Dl 237 2025
Dl 217 2007
Dl 209 1999
Dl 208 1998
Dl 214 1992
Dl 232 1977
Dl 258 1954
Dl 293 1924
Dl 334 1891
Dl 370 1861
Dl 414 1825
Dl 454 1792
Dl 487 1764
Dl 512 1742
Dl 528 1729
Dl 532 1725
Dl 526 1718
Dl 508 1703
Dl 481 1680
Dl 447 1652
Dl 406 1618
Dl 370 1589
Dl 326 1552
Dl 286 1519
Dl 253 1491
Dl 228 1470
Dl 212 1456
Dl 208 1451
Dl 215 1444
Dl 232 1429
Dl 258 1406
Dl 292 1379
Dl 331 1347
Dl 336 1343
Dl 378 1309
Dl 418 1276
Dl 454 1247
Dl 481 1224
Dl 499 1209
Dl 534 1179
Dl 371 1046
Dl 326 1010
Dl 287 977
Dl 253 949
Dl 228 927
Dl 212 913
Dl 208 908
Dl 214 902
Dl 232 887
Dl 259 864
Dl 293 835
Dl 334 801
Dl 371 771
Dl 422 729
Dl 462 696
Dl 490 671
Dl 509 653
Dl 520 641
Dl 524 633
Dl 523 628
Dl 514 620
Dl 493 603
Dl 464 579
Dl 428 549
Dl 386 515
Dl 362 495
Dl 319 460
Dl 281 429
Dl 249 402
Dl 226 382
Dl 212 370
Dl 210 367
Dl 215 360
Dl 232 345
Dl 259 322
Dl 293 292
Dl 333 259
Dl 370 229
Dl 426 182
Dl 470 145
Dl 501 116
Dl 520 97
Dl 525 88
Dl 525 87
Dl 516 80
Dl 497 64
Dl 468 40
Dl 432 10
Dl 391 -23
Dl 363 -46
Dl 320 -81
Dl 281 -113
Dl 249 -140
Dl 225 -160
Dl 211 -173
Dl 208 -176
Dl 214 -182
Dl 232 -198
Dl 258 -221
Dl 293 -250
Dl 333 -284
Dl 368 -312
Dl 412 -348
Dl 452 -381
Dl 485 -409
Dl 511 -431
Dl 526 -444
Dl 530 -449
Dl 525 -455
Dl 508 -470
Dl 481 -493
Dl 447 -522
Dl 407 -554
Dl 382 -575
Dl 338 -610
Dl 299 -642
Dl 265 -670
Dl 239 -692
Dl 223 -706
Dl 219 -709
Dl 216 -714
Dl 217 -721
Dl 223 -730
Dl 235 -743
Dl 255 -761
Dl 285 -786
Dl 324 -819
Dl 369 -855
Dl 413 -891
Dl 453 -924
Dl 486 -952
Dl 511 -974
Dl 526 -988
Dl 530 -992
Dl 524 -999
Dl 506 -1014
Dl 479 -1037
Dl 444 -1066
Dl 403 -1100
Dl 368 -1128
Dl 324 -1164
Dl 285 -1197
Dl 252 -1225
Dl 227 -1247
Dl 212 -1260
Dl 208 -1265
Dl 215 -1272
Dl 232 -1287
Dl 258 -1310
Dl 292 -1337
Dl 331 -1369
Dl 336 -1373
Dl 378 -1407
Dl 418 -1440
Dl 454 -1469
Dl 481 -1492
Dl 499 -1507
Dl 534 -1537
Dl 371 -1670
Dl 326 -1706
Dl 287 -1739
Dl 254 -1767
Dl 229 -1789
Dl 213 -1804
Dl 210 -1809
Dl 217 -1816
Dl 235 -1831
Dl 262 -1854
Dl 296 -1883
Dl 336 -1916
Dl 358 -1933
Dl 401 -1968
Dl 440 -2001
Dl 474 -2028
Dl 500 -2050
Dl 515 -2063
Dl 519 -2066
Dl 523 -2071
Dl 524 -2077
Dl 520 -2086
Dl 509 -2098
Dl 490 -2115
Dl 461 -2139
Dl 422 -2172
Dl 407 -2184
Dl 367 -2216
Dl 331 -2246
Dl 301 -2270
Dl 279 -2287
Dl 268 -2296
Dl 267 -2297
Dl 262 -2303
Dl 264 -2313
Dl 274 -2329
Dl 291 -2349
Dl 310 -2370
Dl 325 -2385
Dl 333 -2390
Dl 341 -2384
Dl 361 -2369
Dl 389 -2346
Dl 426 -2317
Dl 469 -2282
Dl 516 -2244
Dl 529 -2234
Dl 583 -2190
Dl 625 -2155
Dl 657 -2128
Dl 680 -2107
Dl 695 -2093
Dl 704 -2083
Dl 707 -2075
Dl 706 -2070
Dl 702 -2066
Dl 691 -2057
Dl 670 -2039
Dl 639 -2014
Dl 602 -1983
Dl 561 -1949
Dl 541 -1933
Dl 499 -1899
Dl 462 -1868
Dl 430 -1842
Dl 408 -1822
Dl 395 -1811
Dl 393 -1809
Dl 399 -1802
Dl 416 -1787
Dl 442 -1764
Dl 476 -1734
Dl 517 -1701
Dl 554 -1670
Dl 717 -1537
Dl 682 -1507
Dl 664 -1492
Dl 636 -1469
Dl 601 -1439
Dl 561 -1407
Dl 519 -1373
Dl 480 -1341
Dl 446 -1313
Dl 418 -1290
Dl 400 -1273
Dl 392 -1265
Dl 392 -1265
Dl 398 -1258
Dl 415 -1243
Dl 442 -1220
Dl 476 -1191
Dl 517 -1157
Dl 553 -1127
Dl 598 -1091
Dl 637 -1058
Dl 671 -1031
Dl 696 -1009
Dl 711 -996
Dl 715 -991
Dl 709 -985
Dl 692 -970
Dl 665 -947
Dl 630 -918
Dl 589 -885
Dl 553 -855
Dl 502 -814
Dl 464 -783
Dl 436 -759
Dl 417 -741
Dl 405 -729
Dl 400 -720
Dl 400 -714
Dl 403 -709
Dl 412 -700
Dl 433 -683
Dl 463 -658
Dl 500 -627
Dl 542 -594
Dl 565 -575
Dl 608 -540
Dl 645 -509
Dl 677 -483
Dl 699 -463
Dl 712 -451
Dl 714 -449
Dl 707 -442
Dl 689 -427
Dl 662 -404
Dl 627 -374
Dl 586 -341
Dl 552 -312
Dl 508 -276
Dl 468 -243
Dl 435 -215
Dl 410 -194
Dl 395 -180
Dl 392 -176
Dl 398 -169
Dl 415 -154
Dl 442 -131
Dl 477 -102
Dl 517 -69
Dl 546 -46
Dl 590 -10
Dl 630 22
Dl 663 49
Dl 688 70
Dl 704 84
Dl 708 87
Dl 704 96
Dl 687 114
Dl 657 141
Dl 615 178
Dl 560 223
Dl 553 229
Dl 509 265
Dl 470 298
Dl 437 326
Dl 412 348
Dl 397 362
Dl 393 367
Dl 400 374
Dl 418 390
Dl 445 413
Dl 480 442
Dl 520 475
Dl 545 495
Dl 589 531
Dl 628 563
Dl 661 591
Dl 687 612
Dl 703 625
Dl 706 628
Dl 708 633
Dl 703 642
Dl 691 655
Dl 671 674
Dl 641 699
Dl 601 733
Dl 554 771
Dl 510 807
Dl 470 840
Dl 436 868
Dl 411 890
Dl 395 904
Dl 391 908
Dl 397 915
Dl 415 930
Dl 442 953
Dl 476 982
Dl 517 1016
Dl 554 1046
Dl 717 1179
Dl 717 1179
DP 0 0 0 0 63 1 21
Dl -16 2100
Dl -337 2100
Dl -391 2100
Dl -391 1991
Dl -391 1928
Dl -395 1871
Dl -407 1828
Dl -427 1799
Dl -455 1785
Dl -471 1783
Dl -501 1790
Dl -524 1812
Dl -540 1849
Dl -548 1898
Dl -550 1935
Dl -550 1991
Dl -471 1991
Dl -391 1991
Dl -391 2100
Dl -658 2100
Dl -658 1981
Dl -657 1912
Dl -652 1856
Dl -643 1811
Dl -630 1775
Dl -612 1745
Dl -606 1737
Dl -568 1703
Dl -523 1682
Dl -475 1675
Dl -426 1680
Dl -380 1699
Dl -341 1731
Dl -335 1738
Dl -319 1759
Dl -310 1775
Dl -308 1781
Dl -304 1790
Dl -301 1791
Dl -291 1788
Dl -269 1779
Dl -237 1764
Dl -198 1747
Dl -159 1729
Dl -115 1709
Dl -77 1691
Dl -46 1678
Dl -27 1669
Dl -20 1666
Dl -18 1674
Dl -17 1694
Dl -18 1722
Dl -18 1726
Dl -21 1786
Dl -150 1845
Dl -279 1905
Dl -281 1948
Dl -284 1991
Dl -150 1991
Dl -16 1991
Dl -16 2045
Dl -16 2100
Dl -16 2100
DP 0 0 0 0 61 1 21
Dl -18 1531
Dl -20 1550
Dl -24 1557
Dl -26 1557
Dl -36 1554
Dl -60 1545
Dl -95 1531
Dl -141 1513
Dl -195 1491
Dl -255 1467
Dl -321 1440
Dl -329 1437
Dl -396 1409
Dl -458 1384
Dl -515 1361
Dl -564 1341
Dl -603 1325
Dl -631 1314
Dl -645 1308
Dl -646 1308
Dl -661 1301
Dl -662 1295
Dl -658 1292
Dl -647 1287
Dl -623 1277
Dl -588 1262
Dl -544 1244
Dl -493 1222
Dl -436 1199
Dl -376 1175
Dl -315 1150
Dl -255 1126
Dl -198 1103
Dl -145 1081
Dl -100 1063
Dl -63 1048
Dl -36 1038
Dl -23 1033
Dl -22 1033
Dl -19 1040
Dl -18 1061
Dl -18 1089
Dl -18 1093
Dl -21 1152
Dl -194 1223
Dl -243 1243
Dl -287 1262
Dl -323 1278
Dl -348 1289
Dl -361 1296
Dl -362 1298
Dl -354 1302
Dl -332 1312
Dl -299 1326
Dl -258 1343
Dl -210 1362
Dl -189 1371
Dl -21 1439
Dl -18 1498
Dl -18 1531
Dl -18 1531
DP 0 0 0 0 47 1 21
Dl -14 916
Dl -131 916
Dl -131 808
Dl -136 761
Dl -146 711
Dl -166 662
Dl -192 619
Dl -223 585
Dl -232 579
Dl -255 565
Dl -277 557
Dl -306 552
Dl -327 551
Dl -363 551
Dl -389 554
Dl -413 562
Dl -425 568
Dl -467 598
Dl -500 640
Dl -526 696
Dl -544 767
Dl -545 777
Dl -551 808
Dl -341 808
Dl -131 808
Dl -131 916
Dl -337 916
Dl -661 916
Dl -656 822
Dl -645 729
Dl -625 648
Dl -595 581
Dl -554 527
Dl -504 486
Dl -444 458
Dl -375 444
Dl -357 443
Dl -283 446
Dl -217 463
Dl -160 494
Dl -112 539
Dl -74 597
Dl -46 668
Dl -27 751
Dl -19 826
Dl -14 916
Dl -14 916
DP 0 0 0 0 26 1 21
Dl -16 -41
Dl -18 139
Dl -21 320
Dl -75 320
Dl -129 320
Dl -131 256
Dl -134 191
Dl -342 191
Dl -550 191
Dl -550 258
Dl -550 325
Dl -604 325
Dl -658 325
Dl -658 141
Dl -658 -41
Dl -604 -41
Dl -550 -41
Dl -550 20
Dl -550 83
Dl -341 83
Dl -133 83
Dl -133 20
Dl -133 -41
Dl -75 -41
Dl -16 -41
Dl -16 -41
DP 0 0 0 0 71 1 21
Dl -18 -572
Dl -18 -516
Dl -18 -501
Dl -21 -321
Dl -124 -261
Dl -124 -385
Dl -127 -507
Dl -129 -628
Dl -233 -688
Dl -337 -748
Dl -387 -720
Dl -422 -700
Dl -461 -678
Dl -494 -660
Dl -550 -629
Dl -548 -505
Dl -546 -381
Dl -446 -324
Dl -409 -303
Dl -377 -285
Dl -354 -273
Dl -341 -267
Dl -339 -266
Dl -330 -270
Dl -309 -281
Dl -280 -297
Dl -244 -317
Dl -229 -326
Dl -124 -385
Dl -124 -261
Dl -175 -231
Dl -221 -205
Dl -263 -182
Dl -298 -163
Dl -324 -149
Dl -339 -143
Dl -341 -142
Dl -352 -147
Dl -375 -158
Dl -407 -176
Dl -447 -198
Dl -492 -223
Dl -506 -232
Dl -658 -321
Dl -658 -505
Dl -658 -690
Dl -503 -779
Dl -456 -806
Dl -415 -829
Dl -380 -848
Dl -354 -862
Dl -340 -868
Dl -338 -869
Dl -328 -865
Dl -307 -854
Dl -276 -837
Dl -240 -817
Dl -199 -794
Dl -158 -770
Dl -118 -747
Dl -83 -726
Dl -54 -709
Dl -36 -696
Dl -31 -693
Dl -26 -687
Dl -22 -679
Dl -20 -665
Dl -18 -645
Dl -18 -614
Dl -18 -572
Dl -18 -572
DP 0 0 0 0 31 1 21
Dl -16 -1411
Dl -237 -1257
Dl -457 -1104
Dl -239 -1100
Dl -21 -1096
Dl -21 -1041
Dl -21 -987
Dl -334 -985
Dl -404 -985
Dl -470 -985
Dl -528 -985
Dl -577 -985
Dl -616 -986
Dl -641 -987
Dl -652 -988
Dl -652 -989
Dl -655 -999
Dl -657 -1022
Dl -658 -1045
Dl -658 -1097
Dl -438 -1250
Dl -219 -1404
Dl -438 -1406
Dl -658 -1408
Dl -658 -1462
Dl -658 -1516
Dl -337 -1516
Dl -16 -1516
Dl -16 -1464
Dl -16 -1411
Dl -16 -1411
DP 0 0 0 0 86 1 21
Dl -16 -1887
Dl -17 -1825
Dl -17 -1768
Dl -18 -1717
Dl -19 -1675
Dl -20 -1644
Dl -22 -1626
Dl -23 -1622
Dl -31 -1625
Dl -53 -1635
Dl -86 -1652
Dl -125 -1671
Dl -125 -1958
Dl -125 -2007
Dl -126 -2050
Dl -127 -2085
Dl -128 -2107
Dl -130 -2116
Dl -139 -2113
Dl -160 -2102
Dl -189 -2087
Dl -224 -2067
Dl -263 -2046
Dl -303 -2024
Dl -340 -2003
Dl -373 -1985
Dl -398 -1970
Dl -413 -1960
Dl -416 -1958
Dl -410 -1953
Dl -391 -1941
Dl -363 -1925
Dl -328 -1906
Dl -289 -1884
Dl -250 -1862
Dl -212 -1842
Dl -178 -1824
Dl -152 -1810
Dl -135 -1802
Dl -131 -1800
Dl -129 -1808
Dl -127 -1830
Dl -126 -1863
Dl -125 -1906
Dl -125 -1955
Dl -125 -1958
Dl -125 -1671
Dl -129 -1674
Dl -181 -1700
Dl -240 -1731
Dl -305 -1764
Dl -348 -1786
Dl -415 -1822
Dl -477 -1855
Dl -533 -1885
Dl -581 -1910
Dl -620 -1931
Dl -648 -1947
Dl -663 -1956
Dl -666 -1958
Dl -659 -1962
Dl -639 -1974
Dl -608 -1991
Dl -568 -2012
Dl -520 -2038
Dl -466 -2067
Dl -409 -2097
Dl -350 -2129
Dl -290 -2160
Dl -233 -2190
Dl -178 -2219
Dl -130 -2245
Dl -88 -2266
Dl -55 -2283
Dl -33 -2294
Dl -24 -2298
Dl -23 -2291
Dl -21 -2269
Dl -20 -2235
Dl -19 -2190
Dl -18 -2137
Dl -17 -2079
Dl -17 -2016
Dl -16 -1951
Dl -16 -1887
Dl -16 -1887
$EndMODULE radiona_logo
$EndLIBRARY
