PCBNEW-LibModule-V1
$INDEX
synthomir_back
$EndINDEX
#
# synthomir_back
# pixmap w = 1752, h = 144
#
$MODULE synthomir_back
Po 0 0 0 15 00000000 00000000 ~~
Li synthomir_back
T0 0 675 600 600 0 120 N I 21 "G***"
T1 0 -675 600 600 0 120 N I 21 "synthomir_back"
DP 0 0 0 0 76 1 21
Dl -627 -68
Dl -628 -49
Dl -634 -28
Dl -645 2
Dl -660 40
Dl -678 81
Dl -697 122
Dl -715 160
Dl -732 193
Dl -746 217
Dl -755 228
Dl -756 229
Dl -764 234
Dl -766 241
Dl -763 255
Dl -753 278
Dl -747 289
Dl -734 316
Dl -724 332
Dl -714 339
Dl -699 341
Dl -689 341
Dl -655 345
Dl -635 357
Dl -629 376
Dl -635 393
Dl -642 401
Dl -655 406
Dl -679 407
Dl -704 408
Dl -766 408
Dl -794 352
Dl -806 326
Dl -824 289
Dl -845 244
Dl -868 194
Dl -892 142
Dl -894 137
Dl -920 79
Dl -939 34
Dl -953 0
Dl -961 -25
Dl -965 -46
Dl -966 -60
Dl -965 -94
Dl -959 -114
Dl -948 -123
Dl -938 -125
Dl -916 -119
Dl -903 -101
Dl -900 -73
Dl -897 -56
Dl -888 -28
Dl -876 4
Dl -862 41
Dl -846 78
Dl -830 112
Dl -816 140
Dl -805 158
Dl -798 164
Dl -790 155
Dl -778 134
Dl -764 104
Dl -748 69
Dl -732 32
Dl -718 -3
Dl -707 -34
Dl -701 -56
Dl -700 -64
Dl -695 -98
Dl -682 -118
Dl -662 -125
Dl -643 -117
Dl -631 -97
Dl -627 -68
Dl -627 -68
DP 0 0 0 0 80 1 21
Dl -6616 55
Dl -6617 112
Dl -6619 156
Dl -6623 188
Dl -6631 211
Dl -6642 227
Dl -6657 240
Dl -6669 247
Dl -6690 254
Dl -6723 259
Dl -6763 263
Dl -6806 264
Dl -6846 264
Dl -6879 261
Dl -6894 258
Dl -6926 243
Dl -6949 221
Dl -6964 188
Dl -6972 144
Dl -6975 87
Dl -6975 8
Dl -6893 8
Dl -6849 9
Dl -6820 12
Dl -6802 18
Dl -6793 29
Dl -6791 42
Dl -6799 60
Dl -6819 74
Dl -6849 82
Dl -6864 83
Dl -6900 83
Dl -6900 128
Dl -6898 157
Dl -6894 173
Dl -6884 182
Dl -6884 183
Dl -6867 187
Dl -6839 190
Dl -6806 191
Dl -6770 191
Dl -6738 189
Dl -6714 186
Dl -6701 181
Dl -6697 169
Dl -6694 143
Dl -6692 101
Dl -6691 49
Dl -6691 -73
Dl -6750 -149
Dl -6809 -225
Dl -6879 -225
Dl -6926 -227
Dl -6958 -236
Dl -6974 -249
Dl -6974 -268
Dl -6964 -286
Dl -6957 -293
Dl -6946 -297
Dl -6927 -299
Dl -6898 -299
Dl -6869 -298
Dl -6829 -297
Dl -6803 -294
Dl -6785 -290
Dl -6772 -283
Dl -6762 -275
Dl -6744 -256
Dl -6720 -228
Dl -6695 -196
Dl -6670 -163
Dl -6648 -133
Dl -6632 -109
Dl -6625 -96
Dl -6622 -80
Dl -6619 -51
Dl -6618 -12
Dl -6617 32
Dl -6616 55
Dl -6616 55
DP 0 0 0 0 79 1 21
Dl -6091 -300
Dl -6092 -31
Dl -6092 34
Dl -6092 94
Dl -6093 147
Dl -6094 191
Dl -6096 223
Dl -6097 242
Dl -6098 246
Dl -6116 259
Dl -6141 259
Dl -6148 257
Dl -6154 254
Dl -6159 249
Dl -6163 240
Dl -6165 224
Dl -6166 199
Dl -6166 163
Dl -6166 113
Dl -6166 103
Dl -6166 -116
Dl -6166 -171
Dl -6166 -225
Dl -6268 -223
Dl -6371 -221
Dl -6373 -180
Dl -6375 -154
Dl -6373 -137
Dl -6366 -126
Dl -6351 -120
Dl -6326 -117
Dl -6288 -116
Dl -6267 -116
Dl -6166 -116
Dl -6166 103
Dl -6167 47
Dl -6168 6
Dl -6169 -20
Dl -6172 -35
Dl -6176 -40
Dl -6176 -40
Dl -6184 -32
Dl -6199 -13
Dl -6221 15
Dl -6248 51
Dl -6278 93
Dl -6288 108
Dl -6319 151
Dl -6347 190
Dl -6371 222
Dl -6389 245
Dl -6400 257
Dl -6401 258
Dl -6417 260
Dl -6431 257
Dl -6447 244
Dl -6450 231
Dl -6445 218
Dl -6432 194
Dl -6412 162
Dl -6387 123
Dl -6362 87
Dl -6274 -37
Dl -6327 -41
Dl -6376 -49
Dl -6412 -66
Dl -6435 -92
Dl -6447 -128
Dl -6448 -178
Dl -6445 -215
Dl -6438 -244
Dl -6424 -266
Dl -6403 -281
Dl -6373 -291
Dl -6331 -297
Dl -6275 -299
Dl -6225 -300
Dl -6091 -300
Dl -6091 -300
DP 0 0 0 0 79 1 21
Dl -5577 -32
Dl -5577 0
Dl -5585 34
Dl -5602 75
Dl -5627 126
Dl -5630 131
Dl -5650 169
Dl -5650 -18
Dl -5654 -37
Dl -5664 -66
Dl -5679 -101
Dl -5694 -133
Dl -5714 -173
Dl -5730 -199
Dl -5741 -214
Dl -5751 -220
Dl -5754 -221
Dl -5763 -217
Dl -5774 -205
Dl -5788 -182
Dl -5807 -147
Dl -5814 -133
Dl -5831 -96
Dl -5845 -61
Dl -5855 -33
Dl -5857 -18
Dl -5854 0
Dl -5845 26
Dl -5831 59
Dl -5815 95
Dl -5797 129
Dl -5781 159
Dl -5766 180
Dl -5756 191
Dl -5754 191
Dl -5745 184
Dl -5731 163
Dl -5712 132
Dl -5696 100
Dl -5673 52
Dl -5658 14
Dl -5651 -12
Dl -5650 -18
Dl -5650 169
Dl -5659 185
Dl -5686 224
Dl -5711 249
Dl -5736 262
Dl -5763 262
Dl -5788 254
Dl -5805 245
Dl -5821 230
Dl -5838 207
Dl -5857 175
Dl -5880 131
Dl -5889 112
Dl -5911 63
Dl -5925 24
Dl -5932 -9
Dl -5929 -42
Dl -5919 -79
Dl -5900 -123
Dl -5885 -154
Dl -5857 -208
Dl -5832 -248
Dl -5809 -276
Dl -5787 -292
Dl -5764 -299
Dl -5754 -300
Dl -5730 -296
Dl -5708 -284
Dl -5686 -261
Dl -5662 -227
Dl -5636 -180
Dl -5623 -154
Dl -5600 -105
Dl -5584 -66
Dl -5577 -32
Dl -5577 -32
DP 0 0 0 0 60 1 21
Dl -4749 237
Dl -4767 252
Dl -4787 261
Dl -4805 254
Dl -4822 230
Dl -4837 192
Dl -4853 141
Dl -4874 141
Dl -4874 66
Dl -4880 44
Dl -4885 25
Dl -4893 -1
Dl -4902 -32
Dl -4912 -64
Dl -4921 -93
Dl -4928 -114
Dl -4932 -124
Dl -4933 -125
Dl -4935 -115
Dl -4941 -94
Dl -4950 -63
Dl -4958 -33
Dl -4968 2
Dl -4976 32
Dl -4982 53
Dl -4983 60
Dl -4975 63
Dl -4956 65
Dl -4929 66
Dl -4874 66
Dl -4874 141
Dl -4930 141
Dl -5007 141
Dl -5025 195
Dl -5040 233
Dl -5055 254
Dl -5071 261
Dl -5089 253
Dl -5091 251
Dl -5110 236
Dl -5037 -21
Dl -5019 -84
Dl -5002 -142
Dl -4987 -193
Dl -4974 -236
Dl -4964 -267
Dl -4958 -285
Dl -4956 -289
Dl -4939 -299
Dl -4920 -295
Dl -4905 -281
Dl -4900 -269
Dl -4891 -242
Dl -4878 -204
Dl -4864 -156
Dl -4847 -101
Dl -4829 -40
Dl -4821 -12
Dl -4749 237
Dl -4749 237
DP 0 0 0 0 64 1 21
Dl -4233 49
Dl -4233 109
Dl -4234 156
Dl -4234 191
Dl -4236 217
Dl -4237 234
Dl -4240 245
Dl -4243 252
Dl -4247 256
Dl -4250 258
Dl -4271 261
Dl -4294 253
Dl -4301 247
Dl -4302 239
Dl -4303 216
Dl -4304 181
Dl -4305 136
Dl -4307 84
Dl -4308 46
Dl -4312 -153
Dl -4399 46
Dl -4422 100
Dl -4444 149
Dl -4463 192
Dl -4478 225
Dl -4489 247
Dl -4493 256
Dl -4506 261
Dl -4528 265
Dl -4554 266
Dl -4575 265
Dl -4586 261
Dl -4588 251
Dl -4589 226
Dl -4590 190
Dl -4591 145
Dl -4592 93
Dl -4592 36
Dl -4591 -22
Dl -4591 -80
Dl -4590 -135
Dl -4589 -185
Dl -4587 -228
Dl -4586 -260
Dl -4584 -279
Dl -4583 -284
Dl -4568 -296
Dl -4547 -299
Dl -4528 -291
Dl -4526 -290
Dl -4523 -281
Dl -4520 -261
Dl -4518 -229
Dl -4517 -183
Dl -4516 -123
Dl -4516 -71
Dl -4516 137
Dl -4422 -79
Dl -4328 -296
Dl -4281 -298
Dl -4233 -301
Dl -4233 -25
Dl -4233 49
Dl -4233 49
DP 0 0 0 0 86 1 21
Dl -3697 -3
Dl -3705 31
Dl -3721 72
Dl -3746 123
Dl -3748 128
Dl -3769 168
Dl -3769 169
Dl -3769 -25
Dl -3775 -40
Dl -3785 -67
Dl -3800 -101
Dl -3816 -135
Dl -3835 -175
Dl -3850 -202
Dl -3861 -217
Dl -3870 -224
Dl -3875 -225
Dl -3884 -222
Dl -3894 -211
Dl -3907 -190
Dl -3924 -157
Dl -3934 -135
Dl -3951 -98
Dl -3965 -64
Dl -3976 -38
Dl -3980 -25
Dl -3978 -6
Dl -3968 23
Dl -3949 67
Dl -3941 83
Dl -3920 126
Dl -3904 156
Dl -3892 176
Dl -3884 186
Dl -3876 190
Dl -3871 189
Dl -3864 181
Dl -3852 161
Dl -3835 132
Dl -3816 96
Dl -3814 91
Dl -3791 44
Dl -3776 9
Dl -3770 -13
Dl -3769 -25
Dl -3769 169
Dl -3788 202
Dl -3805 227
Dl -3817 242
Dl -3818 243
Dl -3851 257
Dl -3884 261
Dl -3895 260
Dl -3915 253
Dl -3933 240
Dl -3950 219
Dl -3970 188
Dl -3993 144
Dl -4001 129
Dl -4026 77
Dl -4043 37
Dl -4051 2
Dl -4052 -29
Dl -4045 -63
Dl -4030 -102
Dl -4007 -151
Dl -4004 -157
Dl -3979 -207
Dl -3959 -243
Dl -3941 -268
Dl -3924 -284
Dl -3906 -292
Dl -3885 -295
Dl -3875 -296
Dl -3852 -294
Dl -3834 -289
Dl -3817 -278
Dl -3801 -258
Dl -3783 -229
Dl -3760 -187
Dl -3748 -162
Dl -3723 -111
Dl -3706 -70
Dl -3698 -35
Dl -3697 -3
Dl -3697 -3
DP 0 0 0 0 59 1 21
Dl -3203 -265
Dl -3211 -247
Dl -3212 -245
Dl -3221 -234
Dl -3232 -228
Dl -3251 -225
Dl -3282 -225
Dl -3283 -225
Dl -3341 -225
Dl -3341 -16
Dl -3341 191
Dl -3279 191
Dl -3246 192
Dl -3226 194
Dl -3215 199
Dl -3208 207
Dl -3204 230
Dl -3215 251
Dl -3225 258
Dl -3240 262
Dl -3268 264
Dl -3305 266
Dl -3349 266
Dl -3395 266
Dl -3440 265
Dl -3481 264
Dl -3515 261
Dl -3537 258
Dl -3545 255
Dl -3556 237
Dl -3557 220
Dl -3554 195
Dl -3485 193
Dl -3416 190
Dl -3416 -17
Dl -3416 -225
Dl -3471 -225
Dl -3513 -227
Dl -3540 -234
Dl -3554 -246
Dl -3558 -261
Dl -3557 -274
Dl -3553 -283
Dl -3544 -290
Dl -3527 -295
Dl -3501 -298
Dl -3464 -299
Dl -3413 -300
Dl -3378 -300
Dl -3322 -300
Dl -3281 -299
Dl -3252 -298
Dl -3232 -297
Dl -3220 -294
Dl -3213 -290
Dl -3209 -284
Dl -3208 -283
Dl -3203 -265
Dl -3203 -265
DP 0 0 0 0 75 1 21
Dl -2700 -266
Dl -2707 -245
Dl -2726 -230
Dl -2746 -225
Dl -2766 -225
Dl -2766 -16
Dl -2766 191
Dl -2742 191
Dl -2721 195
Dl -2708 204
Dl -2701 223
Dl -2707 244
Dl -2721 259
Dl -2727 261
Dl -2750 264
Dl -2783 265
Dl -2822 265
Dl -2841 263
Dl -2841 191
Dl -2841 -16
Dl -2841 -225
Dl -2866 -225
Dl -2877 -224
Dl -2887 -219
Dl -2896 -209
Dl -2908 -190
Dl -2924 -160
Dl -2937 -133
Dl -2955 -95
Dl -2970 -60
Dl -2980 -32
Dl -2983 -16
Dl -2979 0
Dl -2970 26
Dl -2956 59
Dl -2940 94
Dl -2923 129
Dl -2907 158
Dl -2894 178
Dl -2888 185
Dl -2873 190
Dl -2860 191
Dl -2841 191
Dl -2841 263
Dl -2860 262
Dl -2891 258
Dl -2902 256
Dl -2922 248
Dl -2940 236
Dl -2957 215
Dl -2977 185
Dl -2999 142
Dl -3013 113
Dl -3036 64
Dl -3050 25
Dl -3057 -9
Dl -3055 -42
Dl -3044 -78
Dl -3025 -122
Dl -3010 -154
Dl -2985 -203
Dl -2965 -239
Dl -2947 -265
Dl -2927 -281
Dl -2905 -291
Dl -2876 -296
Dl -2838 -298
Dl -2820 -298
Dl -2772 -299
Dl -2738 -297
Dl -2717 -293
Dl -2705 -284
Dl -2700 -272
Dl -2700 -266
Dl -2700 -266
DP 0 0 0 0 70 1 21
Dl -2185 235
Dl -2187 243
Dl -2190 248
Dl -2193 251
Dl -2211 261
Dl -2229 255
Dl -2246 232
Dl -2262 194
Dl -2262 192
Dl -2279 141
Dl -2301 141
Dl -2301 66
Dl -2317 10
Dl -2327 -24
Dl -2337 -58
Dl -2343 -81
Dl -2349 -102
Dl -2355 -115
Dl -2357 -116
Dl -2361 -109
Dl -2369 -88
Dl -2378 -58
Dl -2388 -25
Dl -2414 66
Dl -2357 66
Dl -2301 66
Dl -2301 141
Dl -2358 143
Dl -2437 145
Dl -2452 195
Dl -2462 224
Dl -2473 246
Dl -2481 256
Dl -2495 265
Dl -2507 263
Dl -2518 257
Dl -2531 244
Dl -2533 234
Dl -2531 222
Dl -2524 196
Dl -2515 159
Dl -2502 114
Dl -2488 63
Dl -2472 7
Dl -2456 -49
Dl -2439 -105
Dl -2424 -157
Dl -2410 -204
Dl -2398 -243
Dl -2388 -272
Dl -2383 -287
Dl -2381 -289
Dl -2364 -299
Dl -2344 -296
Dl -2334 -289
Dl -2330 -278
Dl -2321 -254
Dl -2310 -217
Dl -2295 -171
Dl -2279 -116
Dl -2261 -56
Dl -2251 -21
Dl -2231 49
Dl -2215 106
Dl -2202 150
Dl -2194 183
Dl -2188 207
Dl -2185 224
Dl -2185 235
Dl -2185 235
DP 0 0 0 0 79 1 21
Dl -1658 -31
Dl -1658 34
Dl -1659 94
Dl -1660 147
Dl -1661 191
Dl -1662 223
Dl -1664 242
Dl -1664 246
Dl -1683 259
Dl -1708 259
Dl -1714 257
Dl -1721 254
Dl -1726 249
Dl -1729 240
Dl -1731 224
Dl -1733 199
Dl -1733 163
Dl -1733 113
Dl -1733 103
Dl -1733 -116
Dl -1733 -171
Dl -1733 -225
Dl -1835 -223
Dl -1937 -221
Dl -1940 -180
Dl -1941 -154
Dl -1940 -137
Dl -1933 -126
Dl -1918 -120
Dl -1893 -117
Dl -1855 -116
Dl -1833 -116
Dl -1733 -116
Dl -1733 103
Dl -1733 47
Dl -1734 6
Dl -1736 -20
Dl -1739 -35
Dl -1742 -40
Dl -1743 -40
Dl -1750 -32
Dl -1766 -13
Dl -1788 15
Dl -1815 51
Dl -1844 93
Dl -1855 108
Dl -1886 151
Dl -1914 190
Dl -1938 222
Dl -1956 245
Dl -1966 257
Dl -1968 258
Dl -1984 260
Dl -1998 257
Dl -2013 244
Dl -2016 231
Dl -2012 218
Dl -1999 194
Dl -1979 162
Dl -1953 123
Dl -1929 87
Dl -1841 -37
Dl -1894 -41
Dl -1943 -49
Dl -1979 -66
Dl -2002 -92
Dl -2013 -128
Dl -2015 -178
Dl -2012 -215
Dl -2004 -244
Dl -1991 -266
Dl -1970 -281
Dl -1939 -291
Dl -1897 -297
Dl -1842 -299
Dl -1792 -300
Dl -1658 -300
Dl -1658 -31
Dl -1658 -31
DP 0 0 0 0 103 1 21
Dl -108 79
Dl -109 131
Dl -110 176
Dl -111 213
Dl -113 238
Dl -115 248
Dl -128 255
Dl -146 256
Dl -166 250
Dl -173 235
Dl -173 234
Dl -175 224
Dl -175 78
Dl -175 70
Dl -176 40
Dl -181 19
Dl -192 1
Dl -213 -18
Dl -227 -31
Dl -262 -52
Dl -299 -59
Dl -334 -52
Dl -353 -41
Dl -363 -32
Dl -369 -23
Dl -373 -9
Dl -374 12
Dl -375 45
Dl -375 64
Dl -374 104
Dl -373 132
Dl -370 150
Dl -365 162
Dl -357 172
Dl -341 184
Dl -320 190
Dl -296 191
Dl -271 190
Dl -253 185
Dl -234 172
Dl -214 155
Dl -193 135
Dl -181 119
Dl -176 102
Dl -175 78
Dl -175 224
Dl -176 215
Dl -205 237
Dl -231 253
Dl -263 261
Dl -282 262
Dl -311 263
Dl -335 262
Dl -346 261
Dl -371 248
Dl -399 227
Dl -424 202
Dl -434 188
Dl -441 173
Dl -446 153
Dl -449 127
Dl -450 88
Dl -450 74
Dl -449 22
Dl -445 -15
Dl -437 -44
Dl -425 -66
Dl -406 -86
Dl -393 -96
Dl -373 -111
Dl -356 -119
Dl -336 -123
Dl -307 -125
Dl -292 -125
Dl -258 -124
Dl -237 -122
Dl -222 -116
Dl -211 -107
Dl -208 -104
Dl -193 -90
Dl -182 -83
Dl -182 -83
Dl -179 -91
Dl -176 -112
Dl -175 -142
Dl -175 -162
Dl -174 -197
Dl -173 -228
Dl -171 -248
Dl -170 -253
Dl -158 -264
Dl -139 -266
Dl -121 -259
Dl -118 -256
Dl -116 -246
Dl -113 -221
Dl -111 -185
Dl -110 -139
Dl -109 -88
Dl -108 -32
Dl -108 24
Dl -108 79
Dl -108 79
DP 0 0 0 0 46 1 21
Dl 925 -21
Dl 924 57
Dl 923 121
Dl 921 171
Dl 919 205
Dl 916 224
Dl 915 226
Dl 903 241
Dl 882 253
Dl 852 260
Dl 850 260
Dl 850 191
Dl 850 -16
Dl 850 -225
Dl 745 -225
Dl 641 -225
Dl 641 -16
Dl 641 191
Dl 745 191
Dl 850 191
Dl 850 260
Dl 809 264
Dl 753 266
Dl 744 266
Dl 684 265
Dl 641 261
Dl 614 255
Dl 611 254
Dl 590 241
Dl 575 226
Dl 575 226
Dl 572 211
Dl 570 181
Dl 568 135
Dl 567 74
Dl 566 0
Dl 566 -21
Dl 566 -251
Dl 591 -275
Dl 615 -300
Dl 745 -300
Dl 876 -300
Dl 900 -275
Dl 925 -251
Dl 925 -21
Dl 925 -21
DP 0 0 0 0 56 1 21
Dl 1716 -261
Dl 1711 -244
Dl 1695 -232
Dl 1666 -226
Dl 1629 -225
Dl 1575 -225
Dl 1575 -17
Dl 1575 190
Dl 1643 193
Dl 1712 195
Dl 1715 220
Dl 1715 235
Dl 1712 247
Dl 1702 255
Dl 1684 261
Dl 1656 264
Dl 1615 266
Dl 1561 266
Dl 1541 266
Dl 1486 266
Dl 1445 265
Dl 1415 263
Dl 1395 260
Dl 1382 256
Dl 1376 253
Dl 1369 247
Dl 1363 238
Dl 1360 224
Dl 1358 201
Dl 1358 167
Dl 1358 140
Dl 1359 89
Dl 1361 53
Dl 1366 28
Dl 1375 14
Dl 1387 8
Dl 1394 8
Dl 1410 10
Dl 1422 18
Dl 1428 35
Dl 1432 63
Dl 1433 105
Dl 1433 110
Dl 1433 191
Dl 1466 191
Dl 1500 191
Dl 1500 -54
Dl 1500 -300
Dl 1598 -300
Dl 1645 -299
Dl 1678 -297
Dl 1699 -292
Dl 1710 -284
Dl 1715 -272
Dl 1716 -261
Dl 1716 -261
DP 0 0 0 0 40 1 21
Dl 2239 232
Dl 2231 245
Dl 2219 255
Dl 2205 262
Dl 2192 258
Dl 2184 252
Dl 2175 240
Dl 2159 217
Dl 2137 183
Dl 2112 141
Dl 2083 93
Dl 2053 41
Dl 2022 -12
Dl 1991 -65
Dl 1963 -116
Dl 1937 -164
Dl 1915 -205
Dl 1898 -237
Dl 1887 -259
Dl 1885 -269
Dl 1894 -289
Dl 1911 -298
Dl 1930 -295
Dl 1931 -295
Dl 1938 -286
Dl 1953 -264
Dl 1973 -232
Dl 1998 -192
Dl 2026 -145
Dl 2057 -94
Dl 2088 -41
Dl 2120 12
Dl 2150 64
Dl 2177 113
Dl 2201 156
Dl 2220 191
Dl 2233 216
Dl 2239 230
Dl 2239 232
Dl 2239 232
DP 0 0 0 0 85 1 21
Dl 2758 250
Dl 2739 257
Dl 2713 260
Dl 2693 250
Dl 2689 246
Dl 2687 235
Dl 2685 210
Dl 2684 175
Dl 2683 132
Dl 2683 97
Dl 2683 -116
Dl 2683 -171
Dl 2683 -225
Dl 2592 -225
Dl 2553 -224
Dl 2520 -223
Dl 2497 -221
Dl 2488 -220
Dl 2480 -209
Dl 2475 -188
Dl 2474 -163
Dl 2476 -140
Dl 2482 -124
Dl 2485 -122
Dl 2497 -120
Dl 2522 -119
Dl 2556 -118
Dl 2589 -117
Dl 2683 -116
Dl 2683 97
Dl 2683 51
Dl 2681 12
Dl 2680 -18
Dl 2677 -37
Dl 2676 -41
Dl 2669 -35
Dl 2654 -17
Dl 2633 11
Dl 2607 46
Dl 2577 88
Dl 2565 104
Dl 2534 148
Dl 2506 187
Dl 2482 219
Dl 2463 243
Dl 2452 256
Dl 2450 257
Dl 2430 261
Dl 2423 260
Dl 2408 249
Dl 2402 230
Dl 2408 208
Dl 2416 195
Dl 2432 172
Dl 2453 140
Dl 2479 103
Dl 2496 78
Dl 2522 41
Dl 2545 8
Dl 2562 -17
Dl 2572 -33
Dl 2575 -37
Dl 2567 -39
Dl 2548 -41
Dl 2533 -41
Dl 2483 -47
Dl 2442 -65
Dl 2420 -83
Dl 2408 -106
Dl 2402 -140
Dl 2400 -177
Dl 2404 -214
Dl 2413 -244
Dl 2416 -248
Dl 2429 -266
Dl 2445 -279
Dl 2466 -288
Dl 2494 -294
Dl 2533 -298
Dl 2584 -300
Dl 2624 -300
Dl 2758 -300
Dl 2758 -24
Dl 2758 250
Dl 2758 250
DP 0 0 0 0 60 1 21
Dl 3291 -261
Dl 3286 -244
Dl 3270 -232
Dl 3241 -226
Dl 3204 -225
Dl 3150 -225
Dl 3150 -17
Dl 3150 190
Dl 3218 193
Dl 3287 195
Dl 3290 220
Dl 3290 235
Dl 3287 247
Dl 3277 255
Dl 3259 261
Dl 3231 264
Dl 3190 265
Dl 3136 266
Dl 3117 266
Dl 3068 265
Dl 3026 264
Dl 2991 263
Dl 2968 262
Dl 2960 261
Dl 2944 246
Dl 2937 225
Dl 2941 208
Dl 2948 199
Dl 2960 194
Dl 2980 192
Dl 3012 191
Dl 3075 191
Dl 3075 -16
Dl 3075 -225
Dl 3016 -225
Dl 2985 -225
Dl 2966 -228
Dl 2954 -234
Dl 2945 -244
Dl 2945 -245
Dl 2936 -264
Dl 2940 -281
Dl 2941 -283
Dl 2945 -288
Dl 2951 -293
Dl 2961 -296
Dl 2979 -298
Dl 3005 -299
Dl 3043 -300
Dl 3094 -300
Dl 3111 -300
Dl 3170 -300
Dl 3215 -299
Dl 3247 -297
Dl 3268 -293
Dl 3282 -287
Dl 3288 -279
Dl 3291 -268
Dl 3291 -261
Dl 3291 -261
DP 0 0 0 0 69 1 21
Dl 3825 -25
Dl 3824 49
Dl 3824 109
Dl 3824 156
Dl 3823 191
Dl 3822 217
Dl 3820 234
Dl 3818 246
Dl 3815 252
Dl 3811 256
Dl 3808 258
Dl 3785 262
Dl 3765 251
Dl 3758 241
Dl 3755 228
Dl 3753 201
Dl 3752 162
Dl 3750 112
Dl 3750 54
Dl 3749 15
Dl 3749 -196
Dl 3716 -146
Dl 3700 -118
Dl 3688 -93
Dl 3683 -77
Dl 3683 -77
Dl 3676 -59
Dl 3660 -47
Dl 3641 -44
Dl 3630 -49
Dl 3619 -64
Dl 3612 -81
Dl 3605 -100
Dl 3591 -126
Dl 3576 -150
Dl 3545 -196
Dl 3543 25
Dl 3542 92
Dl 3542 144
Dl 3540 184
Dl 3539 212
Dl 3537 232
Dl 3534 245
Dl 3531 252
Dl 3527 256
Dl 3511 265
Dl 3498 262
Dl 3483 250
Dl 3478 244
Dl 3475 237
Dl 3472 227
Dl 3470 212
Dl 3468 190
Dl 3467 159
Dl 3467 117
Dl 3466 63
Dl 3466 -4
Dl 3466 -33
Dl 3466 -300
Dl 3514 -300
Dl 3562 -299
Dl 3605 -236
Dl 3648 -173
Dl 3692 -236
Dl 3736 -300
Dl 3780 -300
Dl 3825 -300
Dl 3825 -25
Dl 3825 -25
DP 0 0 0 0 82 1 21
Dl 4345 -34
Dl 4345 0
Dl 4336 35
Dl 4319 77
Dl 4293 129
Dl 4293 131
Dl 4275 165
Dl 4275 -18
Dl 4271 -37
Dl 4261 -64
Dl 4247 -97
Dl 4230 -132
Dl 4212 -165
Dl 4194 -194
Dl 4180 -215
Dl 4169 -225
Dl 4168 -225
Dl 4157 -217
Dl 4143 -198
Dl 4126 -170
Dl 4108 -136
Dl 4092 -100
Dl 4078 -66
Dl 4069 -36
Dl 4066 -16
Dl 4070 11
Dl 4084 48
Dl 4105 93
Dl 4126 136
Dl 4142 165
Dl 4154 182
Dl 4163 190
Dl 4172 189
Dl 4181 181
Dl 4185 177
Dl 4197 159
Dl 4213 131
Dl 4230 97
Dl 4246 61
Dl 4260 27
Dl 4270 0
Dl 4274 -18
Dl 4275 -18
Dl 4275 165
Dl 4272 169
Dl 4253 203
Dl 4236 229
Dl 4224 243
Dl 4222 245
Dl 4187 260
Dl 4153 261
Dl 4141 257
Dl 4124 248
Dl 4108 236
Dl 4093 217
Dl 4076 190
Dl 4056 152
Dl 4040 121
Dl 4016 70
Dl 3999 29
Dl 3991 -5
Dl 3991 -37
Dl 4000 -72
Dl 4016 -113
Dl 4041 -164
Dl 4042 -166
Dl 4068 -217
Dl 4090 -253
Dl 4111 -277
Dl 4131 -292
Dl 4153 -297
Dl 4177 -297
Dl 4200 -292
Dl 4219 -281
Dl 4238 -262
Dl 4258 -234
Dl 4281 -193
Dl 4298 -159
Dl 4322 -109
Dl 4338 -69
Dl 4345 -34
Dl 4345 -34
DP 0 0 0 0 62 1 21
Dl 4866 250
Dl 4847 257
Dl 4821 260
Dl 4801 250
Dl 4798 246
Dl 4795 235
Dl 4793 210
Dl 4792 176
Dl 4791 135
Dl 4791 127
Dl 4791 16
Dl 4687 16
Dl 4583 16
Dl 4583 127
Dl 4582 168
Dl 4581 204
Dl 4579 231
Dl 4577 245
Dl 4576 246
Dl 4558 259
Dl 4533 259
Dl 4527 257
Dl 4508 250
Dl 4508 -14
Dl 4508 -91
Dl 4508 -152
Dl 4509 -200
Dl 4511 -237
Dl 4513 -263
Dl 4517 -280
Dl 4522 -291
Dl 4528 -297
Dl 4537 -299
Dl 4547 -300
Dl 4560 -297
Dl 4570 -288
Dl 4577 -269
Dl 4581 -240
Dl 4583 -197
Dl 4583 -163
Dl 4583 -58
Dl 4687 -58
Dl 4791 -58
Dl 4791 -163
Dl 4792 -215
Dl 4794 -252
Dl 4799 -277
Dl 4807 -292
Dl 4818 -299
Dl 4827 -300
Dl 4838 -299
Dl 4846 -297
Dl 4853 -291
Dl 4858 -280
Dl 4861 -262
Dl 4864 -235
Dl 4865 -199
Dl 4866 -150
Dl 4866 -88
Dl 4866 -14
Dl 4866 250
Dl 4866 250
DP 0 0 0 0 51 1 21
Dl 5391 -247
Dl 5389 -208
Dl 5381 -182
Dl 5367 -170
Dl 5345 -168
Dl 5345 -168
Dl 5327 -172
Dl 5320 -185
Dl 5318 -198
Dl 5315 -215
Dl 5307 -223
Dl 5288 -225
Dl 5282 -225
Dl 5250 -225
Dl 5250 4
Dl 5249 72
Dl 5249 125
Dl 5249 165
Dl 5248 195
Dl 5246 216
Dl 5244 230
Dl 5240 240
Dl 5236 246
Dl 5233 250
Dl 5217 263
Dl 5204 264
Dl 5189 257
Dl 5185 254
Dl 5181 247
Dl 5179 236
Dl 5177 217
Dl 5176 191
Dl 5175 154
Dl 5175 105
Dl 5175 42
Dl 5175 12
Dl 5175 -225
Dl 5143 -225
Dl 5121 -223
Dl 5110 -215
Dl 5103 -198
Dl 5096 -179
Dl 5083 -172
Dl 5066 -171
Dl 5037 -171
Dl 5035 -235
Dl 5032 -300
Dl 5212 -300
Dl 5391 -300
Dl 5391 -247
Dl 5391 -247
DP 0 0 0 0 45 1 21
Dl 5908 -300
Dl 5908 -31
Dl 5907 34
Dl 5907 94
Dl 5906 147
Dl 5905 191
Dl 5904 223
Dl 5902 242
Dl 5901 246
Dl 5883 259
Dl 5858 259
Dl 5852 257
Dl 5833 250
Dl 5833 39
Dl 5832 -171
Dl 5738 45
Dl 5644 262
Dl 5597 264
Dl 5550 267
Dl 5550 -7
Dl 5550 -83
Dl 5550 -145
Dl 5551 -193
Dl 5552 -229
Dl 5553 -255
Dl 5555 -273
Dl 5558 -284
Dl 5561 -290
Dl 5562 -291
Dl 5581 -298
Dl 5602 -293
Dl 5617 -278
Dl 5619 -273
Dl 5621 -259
Dl 5622 -232
Dl 5623 -193
Dl 5624 -145
Dl 5625 -91
Dl 5625 -62
Dl 5625 129
Dl 5717 -85
Dl 5810 -300
Dl 5859 -300
Dl 5908 -300
Dl 5908 -300
DP 0 0 0 0 63 1 21
Dl 6425 -188
Dl 6354 -95
Dl 6283 -2
Dl 6283 123
Dl 6283 172
Dl 6282 206
Dl 6280 229
Dl 6278 244
Dl 6274 252
Dl 6268 257
Dl 6267 258
Dl 6251 265
Dl 6240 263
Dl 6226 251
Dl 6225 250
Dl 6218 242
Dl 6213 231
Dl 6210 216
Dl 6209 192
Dl 6208 157
Dl 6208 111
Dl 6208 -10
Dl 6137 -101
Dl 6108 -138
Dl 6089 -165
Dl 6076 -185
Dl 6070 -201
Dl 6067 -216
Dl 6066 -229
Dl 6070 -267
Dl 6081 -291
Dl 6099 -300
Dl 6102 -300
Dl 6125 -294
Dl 6137 -277
Dl 6141 -247
Dl 6143 -230
Dl 6149 -212
Dl 6162 -189
Dl 6184 -160
Dl 6192 -149
Dl 6215 -121
Dl 6233 -100
Dl 6246 -87
Dl 6250 -85
Dl 6257 -92
Dl 6272 -110
Dl 6292 -134
Dl 6303 -148
Dl 6330 -186
Dl 6345 -214
Dl 6350 -233
Dl 6353 -264
Dl 6363 -288
Dl 6378 -299
Dl 6382 -300
Dl 6404 -298
Dl 6417 -289
Dl 6423 -271
Dl 6424 -240
Dl 6425 -239
Dl 6425 -188
Dl 6425 -188
DP 0 0 0 0 91 1 21
Dl 6938 174
Dl 6932 201
Dl 6916 228
Dl 6893 247
Dl 6880 254
Dl 6862 258
Dl 6836 261
Dl 6798 263
Dl 6767 263
Dl 6725 264
Dl 6688 263
Dl 6660 262
Dl 6644 261
Dl 6644 261
Dl 6616 247
Dl 6594 222
Dl 6583 191
Dl 6583 182
Dl 6584 172
Dl 6587 160
Dl 6594 145
Dl 6606 126
Dl 6624 100
Dl 6649 67
Dl 6682 24
Dl 6724 -30
Dl 6724 -30
Dl 6761 -78
Dl 6795 -122
Dl 6823 -159
Dl 6846 -189
Dl 6860 -209
Dl 6866 -218
Dl 6858 -221
Dl 6837 -223
Dl 6805 -224
Dl 6767 -225
Dl 6764 -225
Dl 6661 -225
Dl 6653 -198
Dl 6642 -176
Dl 6626 -168
Dl 6602 -171
Dl 6588 -185
Dl 6583 -209
Dl 6590 -239
Dl 6595 -250
Dl 6607 -268
Dl 6623 -282
Dl 6644 -291
Dl 6674 -296
Dl 6716 -299
Dl 6770 -300
Dl 6815 -300
Dl 6847 -299
Dl 6869 -297
Dl 6883 -294
Dl 6895 -288
Dl 6905 -280
Dl 6910 -276
Dl 6928 -255
Dl 6936 -234
Dl 6937 -219
Dl 6936 -208
Dl 6933 -196
Dl 6926 -182
Dl 6914 -163
Dl 6897 -138
Dl 6873 -105
Dl 6841 -63
Dl 6799 -10
Dl 6763 37
Dl 6730 80
Dl 6701 118
Dl 6679 149
Dl 6665 169
Dl 6659 179
Dl 6660 184
Dl 6667 188
Dl 6683 190
Dl 6709 190
Dl 6749 190
Dl 6759 189
Dl 6861 187
Dl 6868 161
Dl 6879 137
Dl 6897 128
Dl 6917 133
Dl 6933 150
Dl 6938 174
Dl 6938 174
DP 0 0 0 0 24 1 21
Dl -5291 160
Dl -5292 188
Dl -5297 214
Dl -5305 228
Dl -5321 236
Dl -5348 240
Dl -5378 241
Dl -5405 237
Dl -5418 232
Dl -5427 223
Dl -5432 204
Dl -5433 176
Dl -5431 148
Dl -5427 126
Dl -5423 118
Dl -5410 112
Dl -5385 109
Dl -5362 108
Dl -5333 109
Dl -5311 114
Dl -5301 118
Dl -5294 134
Dl -5291 160
Dl -5291 160
DP 0 0 0 0 24 1 21
Dl 1208 160
Dl 1207 188
Dl 1202 214
Dl 1195 228
Dl 1178 236
Dl 1152 240
Dl 1122 241
Dl 1095 237
Dl 1081 232
Dl 1072 223
Dl 1067 204
Dl 1066 176
Dl 1068 148
Dl 1072 126
Dl 1076 118
Dl 1090 112
Dl 1114 109
Dl 1137 108
Dl 1166 109
Dl 1189 114
Dl 1198 118
Dl 1205 134
Dl 1208 160
Dl 1208 160
$EndMODULE synthomir_back
$EndLIBRARY
