PCBNEW-LibModule-V1
$INDEX
synthomir_logo
$EndINDEX
#
# synthomir_logo
# pixmap w = 648, h = 1020
#
$MODULE synthomir_logo
Po 0 0 0 15 00000000 00000000 ~~
Li synthomir_logo
T0 0 7521 600 600 0 120 N I 21 "G***"
T1 0 -7521 600 600 0 120 N I 21 "synthomir_logo"
DP 0 0 0 0 104 1 21
Dl 637 5540
Dl 634 5627
Dl 626 5709
Dl 613 5776
Dl 598 5818
Dl 534 5909
Dl 451 5978
Dl 350 6026
Dl 260 6044
Dl 260 5546
Dl 258 5486
Dl 251 5442
Dl 243 5423
Dl 226 5416
Dl 188 5411
Dl 128 5408
Dl 44 5406
Dl -67 5405
Dl -75 5405
Dl -376 5405
Dl -376 5543
Dl -376 5680
Dl -95 5680
Dl -5 5680
Dl 76 5678
Dl 145 5675
Dl 196 5671
Dl 223 5666
Dl 223 5666
Dl 242 5657
Dl 253 5643
Dl 259 5617
Dl 260 5572
Dl 260 5546
Dl 260 6044
Dl 230 6051
Dl 184 6054
Dl 127 6058
Dl 84 6062
Dl 60 6065
Dl 57 6066
Dl 65 6080
Dl 88 6113
Dl 123 6165
Dl 170 6232
Dl 224 6311
Dl 286 6399
Dl 323 6453
Dl 390 6547
Dl 451 6636
Dl 506 6716
Dl 552 6784
Dl 587 6837
Dl 608 6870
Dl 613 6879
Dl 634 6948
Dl 630 7015
Dl 601 7075
Dl 550 7120
Dl 495 7140
Dl 432 7143
Dl 373 7131
Dl 342 7114
Dl 325 7096
Dl 294 7057
Dl 251 6999
Dl 197 6926
Dl 134 6839
Dl 65 6742
Dl -8 6638
Dl -36 6597
Dl -376 6111
Dl -376 6559
Dl -377 6686
Dl -377 6789
Dl -379 6869
Dl -380 6930
Dl -383 6975
Dl -387 7008
Dl -392 7032
Dl -399 7050
Dl -402 7057
Dl -434 7103
Dl -480 7131
Dl -543 7143
Dl -577 7144
Dl -626 7142
Dl -660 7132
Dl -690 7108
Dl -704 7095
Dl -753 7046
Dl -753 6029
Dl -753 5012
Dl -235 5016
Dl 282 5021
Dl 373 5063
Dl 462 5117
Dl 538 5188
Dl 594 5270
Dl 616 5320
Dl 629 5378
Dl 636 5454
Dl 637 5540
Dl 637 5540
DP 0 0 0 0 135 1 21
Dl 2606 -17
Dl 2595 -6
Dl 2563 23
Dl 2513 70
Dl 2445 133
Dl 2361 211
Dl 2260 304
Dl 2146 410
Dl 2019 527
Dl 1880 656
Dl 1730 794
Dl 1571 941
Dl 1403 1095
Dl 1228 1256
Dl 1047 1422
Dl 1036 1433
Dl 853 1601
Dl 676 1764
Dl 505 1922
Dl 341 2072
Dl 186 2215
Dl 42 2348
Dl -90 2471
Dl -211 2582
Dl -318 2681
Dl -410 2766
Dl -485 2836
Dl -543 2890
Dl -582 2926
Dl -601 2944
Dl -673 3016
Dl 293 3011
Dl 457 3010
Dl 613 3010
Dl 757 3010
Dl 889 3010
Dl 1003 3011
Dl 1100 3012
Dl 1176 3013
Dl 1229 3014
Dl 1257 3016
Dl 1260 3016
Dl 1252 3029
Dl 1226 3062
Dl 1187 3113
Dl 1135 3181
Dl 1071 3263
Dl 998 3357
Dl 917 3461
Dl 830 3573
Dl 738 3690
Dl 643 3812
Dl 547 3934
Dl 452 4056
Dl 359 4174
Dl 270 4288
Dl 186 4394
Dl 110 4492
Dl 42 4577
Dl -14 4649
Dl -59 4706
Dl -90 4744
Dl -106 4762
Dl -106 4763
Dl -123 4770
Dl -147 4758
Dl -169 4741
Dl -215 4702
Dl 385 3941
Dl 487 3811
Dl 585 3687
Dl 676 3572
Dl 759 3466
Dl 832 3372
Dl 894 3293
Dl 943 3229
Dl 979 3183
Dl 998 3157
Dl 1001 3153
Dl 1004 3147
Dl 1003 3143
Dl 998 3139
Dl 986 3136
Dl 964 3133
Dl 932 3131
Dl 887 3130
Dl 827 3129
Dl 751 3129
Dl 655 3129
Dl 539 3130
Dl 400 3131
Dl 236 3132
Dl 46 3134
Dl 16 3134
Dl -151 3136
Dl -310 3137
Dl -457 3138
Dl -591 3138
Dl -710 3139
Dl -810 3139
Dl -890 3139
Dl -947 3138
Dl -979 3138
Dl -985 3137
Dl -975 3126
Dl -944 3098
Dl -894 3051
Dl -827 2988
Dl -743 2910
Dl -643 2817
Dl -528 2712
Dl -401 2594
Dl -261 2465
Dl -110 2326
Dl 50 2177
Dl 219 2021
Dl 395 1859
Dl 579 1690
Dl 659 1616
Dl 2304 101
Dl 1604 97
Dl 905 93
Dl 905 36
Dl 905 -21
Dl 1758 -25
Dl 1912 -26
Dl 2057 -26
Dl 2190 -26
Dl 2309 -25
Dl 2412 -24
Dl 2495 -23
Dl 2557 -21
Dl 2595 -19
Dl 2606 -17
Dl 2606 -17
DP 0 0 0 0 84 1 21
Dl -1202 1985
Dl -1206 3005
Dl -1210 4026
Dl -1245 4063
Dl -1301 4103
Dl -1367 4121
Dl -1437 4118
Dl -1501 4093
Dl -1537 4063
Dl -1572 4026
Dl -1580 3317
Dl -1586 2608
Dl -1648 2699
Dl -1681 2753
Dl -1703 2800
Dl -1710 2830
Dl -1722 2899
Dl -1756 2957
Dl -1806 3000
Dl -1866 3025
Dl -1931 3027
Dl -1985 3010
Dl -2026 2976
Dl -2062 2928
Dl -2083 2875
Dl -2086 2850
Dl -2096 2810
Dl -2122 2754
Dl -2148 2711
Dl -2210 2616
Dl -2217 3312
Dl -2219 3473
Dl -2220 3608
Dl -2222 3720
Dl -2224 3809
Dl -2226 3880
Dl -2229 3934
Dl -2232 3974
Dl -2236 4003
Dl -2240 4024
Dl -2245 4038
Dl -2250 4046
Dl -2297 4093
Dl -2359 4119
Dl -2430 4122
Dl -2485 4108
Dl -2522 4095
Dl -2544 4087
Dl -2546 4086
Dl -2555 4075
Dl -2571 4047
Dl -2576 4039
Dl -2580 4029
Dl -2585 4015
Dl -2589 3996
Dl -2592 3970
Dl -2594 3934
Dl -2596 3887
Dl -2598 3826
Dl -2599 3750
Dl -2600 3656
Dl -2600 3541
Dl -2601 3405
Dl -2601 3245
Dl -2601 3059
Dl -2601 2992
Dl -2601 1992
Dl -2392 1992
Dl -2183 1992
Dl -2045 2191
Dl -1999 2256
Dl -1958 2312
Dl -1926 2353
Dl -1904 2378
Dl -1896 2383
Dl -1885 2369
Dl -1860 2335
Dl -1825 2286
Dl -1782 2226
Dl -1751 2180
Dl -1616 1985
Dl -1409 1985
Dl -1202 1985
Dl -1202 1985
DP 0 0 0 0 87 1 21
Dl 2504 3939
Dl 2492 4006
Dl 2456 4063
Dl 2399 4103
Dl 2367 4114
Dl 2339 4118
Dl 2286 4121
Dl 2213 4123
Dl 2123 4126
Dl 2020 4127
Dl 1910 4128
Dl 1796 4129
Dl 1683 4128
Dl 1574 4127
Dl 1473 4126
Dl 1385 4124
Dl 1314 4121
Dl 1264 4118
Dl 1240 4115
Dl 1180 4083
Dl 1136 4034
Dl 1111 3973
Dl 1107 3908
Dl 1126 3845
Dl 1159 3798
Dl 1186 3775
Dl 1216 3759
Dl 1256 3748
Dl 1310 3742
Dl 1383 3739
Dl 1450 3739
Dl 1608 3739
Dl 1608 3057
Dl 1608 2376
Dl 1442 2376
Dl 1331 2373
Dl 1246 2360
Dl 1184 2338
Dl 1143 2304
Dl 1119 2256
Dl 1110 2195
Dl 1110 2180
Dl 1119 2107
Dl 1149 2053
Dl 1202 2015
Dl 1218 2008
Dl 1237 2002
Dl 1263 1996
Dl 1297 1993
Dl 1344 1990
Dl 1406 1987
Dl 1487 1986
Dl 1589 1985
Dl 1715 1985
Dl 1795 1985
Dl 1917 1985
Dl 2031 1986
Dl 2134 1987
Dl 2222 1988
Dl 2292 1990
Dl 2340 1992
Dl 2360 1994
Dl 2422 2020
Dl 2468 2066
Dl 2496 2126
Dl 2503 2195
Dl 2490 2251
Dl 2472 2294
Dl 2449 2325
Dl 2416 2346
Dl 2370 2361
Dl 2304 2369
Dl 2215 2373
Dl 2194 2374
Dl 2000 2379
Dl 2000 3057
Dl 2000 3736
Dl 2194 3741
Dl 2288 3745
Dl 2358 3752
Dl 2408 3765
Dl 2443 3785
Dl 2468 3814
Dl 2487 3854
Dl 2490 3863
Dl 2504 3939
Dl 2504 3939
DP 0 0 0 0 72 1 21
Dl -3027 -1029
Dl -3031 -776
Dl -3033 -684
Dl -3035 -617
Dl -3038 -570
Dl -3042 -538
Dl -3049 -516
Dl -3058 -501
Dl -3071 -487
Dl -3075 -483
Dl -3110 -457
Dl -3153 -443
Dl -3192 -438
Dl -3272 -442
Dl -3335 -467
Dl -3380 -512
Dl -3403 -574
Dl -3406 -608
Dl -3407 -635
Dl -3418 -648
Dl -3446 -652
Dl -3471 -652
Dl -3536 -652
Dl -3536 166
Dl -3536 985
Dl -3583 1036
Dl -3623 1072
Dl -3666 1089
Dl -3695 1093
Dl -3742 1095
Dl -3781 1091
Dl -3790 1089
Dl -3846 1060
Dl -3888 1014
Dl -3893 1004
Dl -3898 990
Dl -3902 970
Dl -3905 941
Dl -3907 900
Dl -3909 846
Dl -3910 776
Dl -3912 689
Dl -3912 581
Dl -3913 450
Dl -3913 294
Dl -3913 163
Dl -3913 -652
Dl -3978 -652
Dl -4018 -651
Dl -4037 -643
Dl -4043 -625
Dl -4043 -608
Dl -4056 -539
Dl -4090 -486
Dl -4146 -451
Dl -4218 -437
Dl -4256 -438
Dl -4313 -446
Dl -4352 -464
Dl -4374 -483
Dl -4388 -498
Dl -4398 -513
Dl -4405 -533
Dl -4410 -562
Dl -4413 -605
Dl -4415 -667
Dl -4417 -752
Dl -4417 -776
Dl -4422 -1029
Dl -3724 -1029
Dl -3027 -1029
Dl -3027 -1029
DP 0 0 0 0 87 1 21
Dl 638 985
Dl 588 1038
Dl 556 1070
Dl 528 1086
Dl 490 1092
Dl 460 1093
Dl 385 1086
Dl 330 1064
Dl 290 1023
Dl 284 1014
Dl 277 998
Dl 271 976
Dl 267 945
Dl 264 901
Dl 262 840
Dl 261 760
Dl 260 655
Dl 260 595
Dl 260 217
Dl -58 217
Dl -376 217
Dl -376 583
Dl -377 698
Dl -378 788
Dl -379 856
Dl -382 907
Dl -386 944
Dl -391 971
Dl -398 992
Dl -402 1000
Dl -441 1049
Dl -498 1084
Dl -562 1100
Dl -572 1101
Dl -615 1094
Dl -662 1078
Dl -666 1075
Dl -705 1049
Dl -733 1018
Dl -735 1014
Dl -739 1000
Dl -742 972
Dl -745 930
Dl -747 870
Dl -749 793
Dl -750 696
Dl -752 576
Dl -753 433
Dl -753 266
Dl -753 70
Dl -753 23
Dl -753 -930
Dl -704 -980
Dl -673 -1008
Dl -644 -1023
Dl -607 -1028
Dl -570 -1029
Dl -500 -1023
Dl -453 -1007
Dl -451 -1005
Dl -429 -988
Dl -413 -967
Dl -400 -940
Dl -390 -902
Dl -383 -850
Dl -380 -781
Dl -377 -691
Dl -376 -578
Dl -376 -522
Dl -376 -159
Dl -58 -159
Dl 259 -159
Dl 263 -552
Dl 267 -944
Dl 315 -986
Dl 346 -1011
Dl 378 -1024
Dl 422 -1028
Dl 449 -1029
Dl 501 -1027
Dl 537 -1018
Dl 567 -1000
Dl 583 -986
Dl 630 -944
Dl 634 20
Dl 638 985
Dl 638 985
DP 0 0 0 0 118 1 21
Dl 4260 22
Dl 4256 127
Dl 4237 220
Dl 4233 233
Dl 4219 268
Dl 4193 325
Dl 4160 397
Dl 4120 481
Dl 4076 571
Dl 4054 615
Dl 3993 735
Dl 3940 832
Dl 3893 907
Dl 3883 922
Dl 3883 37
Dl 3877 -16
Dl 3859 -76
Dl 3830 -147
Dl 3788 -233
Dl 3734 -340
Dl 3731 -346
Dl 3688 -433
Dl 3649 -509
Dl 3615 -573
Dl 3589 -620
Dl 3573 -647
Dl 3568 -652
Dl 3559 -640
Dl 3539 -605
Dl 3510 -551
Dl 3473 -482
Dl 3432 -402
Dl 3405 -347
Dl 3350 -238
Dl 3308 -150
Dl 3278 -79
Dl 3260 -18
Dl 3253 37
Dl 3260 93
Dl 3277 153
Dl 3307 223
Dl 3349 309
Dl 3402 416
Dl 3403 417
Dl 3446 501
Dl 3486 575
Dl 3520 636
Dl 3546 680
Dl 3563 703
Dl 3567 706
Dl 3578 693
Dl 3600 656
Dl 3630 602
Dl 3667 533
Dl 3710 453
Dl 3733 407
Dl 3786 303
Dl 3828 219
Dl 3858 150
Dl 3876 91
Dl 3883 37
Dl 3883 922
Dl 3851 965
Dl 3810 1008
Dl 3768 1040
Dl 3723 1063
Dl 3680 1078
Dl 3604 1096
Dl 3540 1098
Dl 3472 1084
Dl 3436 1073
Dl 3394 1056
Dl 3356 1036
Dl 3321 1009
Dl 3287 973
Dl 3251 924
Dl 3211 860
Dl 3166 777
Dl 3113 674
Dl 3059 567
Dl 2880 207
Dl 2873 77
Dl 2870 -6
Dl 2876 -73
Dl 2890 -135
Dl 2890 -137
Dl 2906 -180
Dl 2932 -243
Dl 2968 -321
Dl 3010 -409
Dl 3055 -502
Dl 3102 -596
Dl 3148 -685
Dl 3191 -764
Dl 3228 -830
Dl 3257 -877
Dl 3269 -893
Dl 3340 -960
Dl 3425 -1004
Dl 3518 -1026
Dl 3613 -1027
Dl 3706 -1005
Dl 3790 -961
Dl 3855 -901
Dl 3879 -868
Dl 3912 -813
Dl 3952 -742
Dl 3997 -660
Dl 4045 -570
Dl 4092 -477
Dl 4136 -388
Dl 4175 -306
Dl 4206 -237
Dl 4227 -186
Dl 4230 -178
Dl 4252 -83
Dl 4260 22
Dl 4260 22
DP 0 0 0 0 115 1 21
Dl 823 -3016
Dl 811 -3006
Dl 779 -2977
Dl 726 -2933
Dl 655 -2873
Dl 566 -2798
Dl 460 -2710
Dl 340 -2610
Dl 206 -2497
Dl 58 -2374
Dl -100 -2242
Dl -270 -2101
Dl -449 -1952
Dl -636 -1797
Dl -830 -1636
Dl -970 -1520
Dl -2758 -36
Dl -1893 -32
Dl -1029 -29
Dl -1029 36
Dl -1029 101
Dl -2066 101
Dl -2236 100
Dl -2397 100
Dl -2548 100
Dl -2684 99
Dl -2806 97
Dl -2909 96
Dl -2991 94
Dl -3052 93
Dl -3087 91
Dl -3096 90
Dl -3084 79
Dl -3051 51
Dl -2999 7
Dl -2927 -52
Dl -2838 -126
Dl -2732 -214
Dl -2612 -315
Dl -2477 -427
Dl -2329 -550
Dl -2170 -683
Dl -2000 -823
Dl -1821 -972
Dl -1634 -1127
Dl -1440 -1289
Dl -1299 -1406
Dl 490 -2891
Dl -386 -2895
Dl -542 -2896
Dl -690 -2897
Dl -825 -2898
Dl -947 -2900
Dl -1052 -2902
Dl -1138 -2904
Dl -1203 -2906
Dl -1244 -2908
Dl -1258 -2910
Dl -1248 -2929
Dl -1223 -2968
Dl -1187 -3027
Dl -1139 -3102
Dl -1082 -3192
Dl -1016 -3294
Dl -944 -3405
Dl -868 -3524
Dl -787 -3648
Dl -705 -3775
Dl -623 -3902
Dl -541 -4027
Dl -463 -4148
Dl -388 -4262
Dl -319 -4367
Dl -257 -4461
Dl -204 -4541
Dl -161 -4605
Dl -130 -4651
Dl -112 -4676
Dl -108 -4681
Dl -88 -4672
Dl -59 -4651
Dl -55 -4648
Dl -15 -4616
Dl -522 -3829
Dl -610 -3693
Dl -693 -3564
Dl -769 -3444
Dl -839 -3336
Dl -899 -3241
Dl -950 -3162
Dl -989 -3100
Dl -1015 -3058
Dl -1028 -3037
Dl -1029 -3035
Dl -1015 -3034
Dl -974 -3033
Dl -909 -3032
Dl -823 -3031
Dl -717 -3030
Dl -594 -3030
Dl -457 -3029
Dl -308 -3029
Dl -150 -3029
Dl -100 -3029
Dl 66 -3029
Dl 222 -3028
Dl 365 -3027
Dl 492 -3026
Dl 602 -3024
Dl 693 -3023
Dl 761 -3021
Dl 805 -3019
Dl 823 -3016
Dl 823 -3016
Dl 823 -3016
DP 0 0 0 0 69 1 21
Dl -1203 -3585
Dl -1456 -3256
Dl -1709 -2928
Dl -1713 -2479
Dl -1717 -2029
Dl -1763 -1983
Dl -1820 -1945
Dl -1889 -1929
Dl -1960 -1936
Dl -2000 -1952
Dl -2023 -1965
Dl -2042 -1979
Dl -2056 -1997
Dl -2067 -2023
Dl -2075 -2059
Dl -2081 -2109
Dl -2084 -2176
Dl -2086 -2263
Dl -2086 -2372
Dl -2086 -2485
Dl -2087 -2920
Dl -2340 -3249
Dl -2594 -3578
Dl -2594 -3768
Dl -2594 -3959
Dl -2545 -4009
Dl -2510 -4039
Dl -2478 -4053
Dl -2435 -4058
Dl -2421 -4058
Dl -2344 -4050
Dl -2286 -4024
Dl -2248 -3980
Dl -2225 -3913
Dl -2217 -3823
Dl -2217 -3813
Dl -2217 -3713
Dl -2063 -3512
Dl -2013 -3446
Dl -1969 -3390
Dl -1934 -3345
Dl -1912 -3316
Dl -1905 -3307
Dl -1896 -3316
Dl -1871 -3345
Dl -1835 -3390
Dl -1790 -3448
Dl -1742 -3510
Dl -1583 -3718
Dl -1577 -3844
Dl -1574 -3907
Dl -1569 -3948
Dl -1560 -3976
Dl -1544 -3998
Dl -1533 -4009
Dl -1498 -4036
Dl -1454 -4050
Dl -1417 -4054
Dl -1341 -4053
Dl -1285 -4036
Dl -1243 -3999
Dl -1232 -3982
Dl -1219 -3957
Dl -1210 -3928
Dl -1206 -3888
Dl -1203 -3832
Dl -1203 -3760
Dl -1203 -3585
Dl -1203 -3585
DP 0 0 0 0 87 1 21
Dl 2506 -1927
Dl 2285 -1927
Dl 2063 -1927
Dl 1778 -2583
Dl 1493 -3239
Dl 1492 -2666
Dl 1491 -2501
Dl 1490 -2363
Dl 1487 -2252
Dl 1485 -2165
Dl 1481 -2102
Dl 1477 -2060
Dl 1473 -2044
Dl 1440 -1989
Dl 1389 -1951
Dl 1326 -1930
Dl 1259 -1931
Dl 1194 -1954
Dl 1190 -1956
Dl 1173 -1967
Dl 1159 -1977
Dl 1146 -1989
Dl 1136 -2005
Dl 1127 -2027
Dl 1120 -2058
Dl 1114 -2098
Dl 1110 -2150
Dl 1106 -2217
Dl 1104 -2300
Dl 1102 -2402
Dl 1101 -2523
Dl 1101 -2667
Dl 1101 -2836
Dl 1101 -3031
Dl 1101 -3072
Dl 1101 -4059
Dl 1327 -4054
Dl 1553 -4050
Dl 1832 -3402
Dl 1887 -3273
Dl 1940 -3152
Dl 1987 -3042
Dl 2030 -2945
Dl 2065 -2864
Dl 2093 -2802
Dl 2112 -2761
Dl 2120 -2744
Dl 2120 -2743
Dl 2122 -2756
Dl 2124 -2793
Dl 2126 -2854
Dl 2127 -2936
Dl 2129 -3033
Dl 2129 -3146
Dl 2130 -3270
Dl 2130 -3330
Dl 2130 -3474
Dl 2131 -3605
Dl 2133 -3720
Dl 2135 -3815
Dl 2137 -3889
Dl 2140 -3939
Dl 2144 -3963
Dl 2175 -4006
Dl 2225 -4037
Dl 2287 -4054
Dl 2353 -4055
Dl 2416 -4038
Dl 2421 -4035
Dl 2437 -4026
Dl 2451 -4018
Dl 2463 -4007
Dl 2473 -3991
Dl 2482 -3969
Dl 2489 -3939
Dl 2494 -3898
Dl 2498 -3844
Dl 2501 -3776
Dl 2503 -3692
Dl 2505 -3589
Dl 2506 -3465
Dl 2506 -3319
Dl 2506 -3148
Dl 2506 -2950
Dl 2506 -2920
Dl 2506 -1927
Dl 2506 -1927
DP 0 0 0 0 125 1 21
Dl 636 -5323
Dl 634 -5282
Dl 616 -5184
Dl 573 -5103
Dl 506 -5036
Dl 463 -5009
Dl 383 -4963
Dl -14 -4960
Dl -143 -4960
Dl -247 -4960
Dl -327 -4962
Dl -389 -4965
Dl -433 -4969
Dl -466 -4975
Dl -476 -4977
Dl -572 -5022
Dl -651 -5085
Dl -710 -5164
Dl -744 -5255
Dl -753 -5335
Dl -743 -5418
Dl -711 -5483
Dl -661 -5526
Dl -594 -5548
Dl -562 -5550
Dl -513 -5547
Dl -480 -5535
Dl -445 -5506
Dl -441 -5502
Dl -397 -5441
Dl -383 -5393
Dl -373 -5333
Dl -68 -5333
Dl 32 -5333
Dl 107 -5334
Dl 161 -5335
Dl 195 -5337
Dl 213 -5341
Dl 220 -5346
Dl 217 -5353
Dl 213 -5358
Dl 187 -5390
Dl 146 -5441
Dl 93 -5508
Dl 31 -5587
Dl -38 -5677
Dl -114 -5775
Dl -193 -5878
Dl -273 -5983
Dl -353 -6087
Dl -430 -6189
Dl -503 -6284
Dl -568 -6370
Dl -625 -6446
Dl -670 -6507
Dl -702 -6551
Dl -719 -6576
Dl -720 -6578
Dl -748 -6662
Dl -753 -6752
Dl -736 -6842
Dl -700 -6925
Dl -646 -6993
Dl -627 -7008
Dl -596 -7030
Dl -567 -7048
Dl -534 -7061
Dl -495 -7071
Dl -445 -7078
Dl -381 -7082
Dl -299 -7085
Dl -194 -7086
Dl -93 -7086
Dl 39 -7086
Dl 147 -7084
Dl 233 -7081
Dl 301 -7075
Dl 355 -7065
Dl 399 -7051
Dl 435 -7033
Dl 468 -7008
Dl 502 -6977
Dl 513 -6966
Dl 574 -6891
Dl 615 -6813
Dl 635 -6734
Dl 635 -6660
Dl 615 -6593
Dl 575 -6539
Dl 515 -6500
Dl 491 -6492
Dl 421 -6486
Dl 357 -6504
Dl 306 -6545
Dl 272 -6606
Dl 263 -6639
Dl 252 -6703
Dl -47 -6706
Dl -137 -6707
Dl -216 -6707
Dl -280 -6706
Dl -325 -6705
Dl -346 -6703
Dl -347 -6702
Dl -339 -6690
Dl -314 -6656
Dl -275 -6604
Dl -222 -6536
Dl -159 -6453
Dl -86 -6359
Dl -4 -6254
Dl 82 -6142
Dl 117 -6097
Dl 208 -5980
Dl 294 -5869
Dl 373 -5764
Dl 445 -5670
Dl 506 -5588
Dl 554 -5521
Dl 590 -5472
Dl 609 -5441
Dl 612 -5436
Dl 630 -5382
Dl 636 -5323
Dl 636 -5323
DP 0 0 0 0 15 1 21
Dl -4683 -5857
Dl -4683 -5786
Dl -4685 -5757
Dl -4686 -5738
Dl -4688 -5746
Dl -4690 -5777
Dl -4690 -5830
Dl -4690 -5840
Dl -4690 -5897
Dl -4689 -5932
Dl -4687 -5943
Dl -4685 -5928
Dl -4685 -5923
Dl -4683 -5857
Dl -4683 -5857
DP 0 0 0 0 10 1 21
Dl -4529 -7386
Dl -4604 -7380
Dl -4680 -7375
Dl -4685 -7271
Dl -4690 -7166
Dl -4693 -7279
Dl -4695 -7391
Dl -4612 -7388
Dl -4529 -7386
Dl -4529 -7386
$EndMODULE synthomir_logo
$EndLIBRARY
