(footprint "LOGO" (version 20221018) (generator bitmap2component)
  (layer "F.Cu")
  (attr board_only exclude_from_pos_files exclude_from_bom)
  (fp_text reference "G***" (at 0 0) (layer "F.SilkS")
      (effects (font (size 1.5 1.5) (thickness 0.3)))
    (tstamp d4d6ad5c-23e5-46b1-9f07-6c3b16c79ca2)
  )
  (fp_text value "LOGO" (at 0.75 0) (layer "F.SilkS") hide
      (effects (font (size 1.5 1.5) (thickness 0.3)))
    (tstamp 16460c7f-e5e2-4aab-af39-65dd215355a6)
  )
  (fp_poly
    (pts
      (xy 1.699943 -0.290010)
      (xy 1.728599 -0.279195)
      (xy 1.748094 -0.257712)
      (xy 1.759606 -0.223080)
      (xy 1.764309 -0.172815)
      (xy 1.764569 -0.153633)
      (xy 1.764757 -0.132179)
      (xy 1.765903 -0.113112)
      (xy 1.768877 -0.093968)
      (xy 1.774550 -0.072282)
      (xy 1.783794 -0.045589)
      (xy 1.797479 -0.011423)
      (xy 1.816477 0.032679)
      (xy 1.841659 0.089184)
      (xy 1.873896 0.160555)
      (xy 1.881665 0.177711)
      (xy 1.916143 0.253479)
      (xy 1.943747 0.313136)
      (xy 1.965469 0.358530)
      (xy 1.982299 0.391509)
      (xy 1.995230 0.413921)
      (xy 2.005252 0.427615)
      (xy 2.013356 0.434438)
      (xy 2.020329 0.436241)
      (xy 2.027511 0.434333)
      (xy 2.035620 0.427371)
      (xy 2.045643 0.413504)
      (xy 2.058569 0.390877)
      (xy 2.075386 0.357637)
      (xy 2.097081 0.311932)
      (xy 2.124644 0.251907)
      (xy 2.158115 0.177815)
      (xy 2.191725 0.102958)
      (xy 2.218137 0.043501)
      (xy 2.238219 -0.003030)
      (xy 2.252838 -0.039106)
      (xy 2.262861 -0.067199)
      (xy 2.269154 -0.089782)
      (xy 2.272586 -0.109326)
      (xy 2.274022 -0.128303)
      (xy 2.274331 -0.149185)
      (xy 2.274334 -0.153529)
      (xy 2.277155 -0.209170)
      (xy 2.286404 -0.248407)
      (xy 2.303258 -0.273725)
      (xy 2.328893 -0.287610)
      (xy 2.338960 -0.290010)
      (xy 2.376587 -0.288357)
      (xy 2.408770 -0.271184)
      (xy 2.429905 -0.241825)
      (xy 2.432425 -0.234392)
      (xy 2.437817 -0.200409)
      (xy 2.439774 -0.154878)
      (xy 2.438477 -0.105519)
      (xy 2.434106 -0.060055)
      (xy 2.427591 -0.028516)
      (xy 2.421548 -0.013260)
      (xy 2.408197 0.017737)
      (xy 2.388473 0.062426)
      (xy 2.363312 0.118758)
      (xy 2.333647 0.184684)
      (xy 2.300416 0.258156)
      (xy 2.264552 0.337124)
      (xy 2.226991 0.419540)
      (xy 2.188667 0.503355)
      (xy 2.150516 0.586520)
      (xy 2.113474 0.666987)
      (xy 2.078474 0.742706)
      (xy 2.046453 0.811629)
      (xy 2.018344 0.871707)
      (xy 1.995084 0.920891)
      (xy 1.979455 0.953358)
      (xy 1.956726 0.999923)
      (xy 1.783001 0.999923)
      (xy 1.609276 0.999923)
      (xy 1.603191 0.972217)
      (xy 1.602694 0.935529)
      (xy 1.615721 0.903842)
      (xy 1.639583 0.883321)
      (xy 1.642492 0.882109)
      (xy 1.664027 0.877602)
      (xy 1.698598 0.874224)
      (xy 1.739644 0.872561)
      (xy 1.750433 0.872482)
      (xy 1.833051 0.872482)
      (xy 1.896842 0.745181)
      (xy 1.919434 0.699846)
      (xy 1.938509 0.661096)
      (xy 1.952512 0.632127)
      (xy 1.959886 0.616136)
      (xy 1.960633 0.614063)
      (xy 1.952280 0.609493)
      (xy 1.933674 0.604386)
      (xy 1.909286 0.597218)
      (xy 1.894656 0.590449)
      (xy 1.887519 0.579584)
      (xy 1.873747 0.553295)
      (xy 1.854501 0.514143)
      (xy 1.830944 0.464693)
      (xy 1.804242 0.407506)
      (xy 1.775555 0.345146)
      (xy 1.746048 0.280176)
      (xy 1.716885 0.215158)
      (xy 1.689227 0.152657)
      (xy 1.664239 0.095234)
      (xy 1.643083 0.045453)
      (xy 1.626924 0.005877)
      (xy 1.616923 -0.020931)
      (xy 1.616268 -0.022930)
      (xy 1.605784 -0.069078)
      (xy 1.599957 -0.123052)
      (xy 1.599156 -0.176876)
      (xy 1.603750 -0.222575)
      (xy 1.606478 -0.234392)
      (xy 1.624569 -0.265895)
      (xy 1.654888 -0.285915)
      (xy 1.691833 -0.291118)
    )

    (stroke (width 0.000000) (type solid)) (fill solid) (layer "F.SilkS") (tstamp 49f7d621-3ecf-48fd-aaa4-1690752d1a2f))
  (fp_poly
    (pts
      (xy -16.530007 -0.725094)
      (xy -16.464062 -0.724193)
      (xy -16.404099 -0.722533)
      (xy -16.353772 -0.720114)
      (xy -16.316736 -0.716934)
      (xy -16.302725 -0.714728)
      (xy -16.247077 -0.694189)
      (xy -16.197960 -0.659843)
      (xy -16.158280 -0.615313)
      (xy -16.130944 -0.564224)
      (xy -16.118857 -0.510201)
      (xy -16.119174 -0.485833)
      (xy -16.125646 -0.450010)
      (xy -16.139116 -0.425572)
      (xy -16.150002 -0.414760)
      (xy -16.184869 -0.395273)
      (xy -16.220158 -0.392958)
      (xy -16.252120 -0.405830)
      (xy -16.277004 -0.431904)
      (xy -16.291060 -0.469195)
      (xy -16.292860 -0.490393)
      (xy -16.293929 -0.507540)
      (xy -16.298524 -0.520997)
      (xy -16.308725 -0.531176)
      (xy -16.326613 -0.538488)
      (xy -16.354269 -0.543343)
      (xy -16.393774 -0.546151)
      (xy -16.447209 -0.547325)
      (xy -16.516655 -0.547273)
      (xy -16.578153 -0.546704)
      (xy -16.652679 -0.545823)
      (xy -16.709915 -0.544884)
      (xy -16.752174 -0.543673)
      (xy -16.781772 -0.541979)
      (xy -16.801024 -0.539587)
      (xy -16.812244 -0.536287)
      (xy -16.817747 -0.531864)
      (xy -16.819849 -0.526107)
      (xy -16.820109 -0.524469)
      (xy -16.815041 -0.512157)
      (xy -16.798273 -0.485632)
      (xy -16.769697 -0.444749)
      (xy -16.729205 -0.389358)
      (xy -16.676687 -0.319313)
      (xy -16.612035 -0.234466)
      (xy -16.535140 -0.134669)
      (xy -16.487720 -0.073523)
      (xy -16.424557 0.008092)
      (xy -16.364587 0.086214)
      (xy -16.308984 0.159272)
      (xy -16.258921 0.225693)
      (xy -16.215573 0.283907)
      (xy -16.180111 0.332341)
      (xy -16.153711 0.369423)
      (xy -16.137546 0.393583)
      (xy -16.133279 0.401152)
      (xy -16.120636 0.438868)
      (xy -16.118009 0.477957)
      (xy -16.119496 0.497687)
      (xy -16.134459 0.557338)
      (xy -16.165269 0.605895)
      (xy -16.210880 0.642213)
      (xy -16.270244 0.665146)
      (xy -16.273254 0.665853)
      (xy -16.297298 0.668928)
      (xy -16.337305 0.671365)
      (xy -16.389643 0.673162)
      (xy -16.450679 0.674320)
      (xy -16.516780 0.674840)
      (xy -16.584315 0.674723)
      (xy -16.649649 0.673968)
      (xy -16.709151 0.672577)
      (xy -16.759189 0.670550)
      (xy -16.796129 0.667887)
      (xy -16.811589 0.665777)
      (xy -16.865344 0.647384)
      (xy -16.912698 0.616456)
      (xy -16.951593 0.576242)
      (xy -16.979970 0.529991)
      (xy -16.995770 0.480951)
      (xy -16.996935 0.432372)
      (xy -16.984446 0.393021)
      (xy -16.960184 0.364634)
      (xy -16.927174 0.349475)
      (xy -16.891227 0.348402)
      (xy -16.858153 0.362276)
      (xy -16.846630 0.372641)
      (xy -16.834876 0.393810)
      (xy -16.826151 0.423730)
      (xy -16.824920 0.431258)
      (xy -16.821655 0.451485)
      (xy -16.816458 0.467320)
      (xy -16.807132 0.479269)
      (xy -16.791484 0.487839)
      (xy -16.767317 0.493537)
      (xy -16.732436 0.496869)
      (xy -16.684647 0.498342)
      (xy -16.621754 0.498463)
      (xy -16.541562 0.497738)
      (xy -16.537068 0.497688)
      (xy -16.461828 0.496738)
      (xy -16.403941 0.495633)
      (xy -16.361149 0.494201)
      (xy -16.331200 0.492270)
      (xy -16.311837 0.489668)
      (xy -16.300807 0.486222)
      (xy -16.295854 0.481761)
      (xy -16.294969 0.479187)
      (xy -16.300240 0.468496)
      (xy -16.316619 0.443744)
      (xy -16.343101 0.406290)
      (xy -16.378683 0.357491)
      (xy -16.422361 0.298706)
      (xy -16.473131 0.231292)
      (xy -16.529990 0.156607)
      (xy -16.591932 0.076008)
      (xy -16.616652 0.044039)
      (xy -16.678871 -0.036394)
      (xy -16.738108 -0.113168)
      (xy -16.793152 -0.184698)
      (xy -16.842790 -0.249400)
      (xy -16.885810 -0.305690)
      (xy -16.921001 -0.351984)
      (xy -16.947150 -0.386697)
      (xy -16.963045 -0.408246)
      (xy -16.966598 -0.413331)
      (xy -16.990543 -0.465799)
      (xy -16.997417 -0.521247)
      (xy -16.988634 -0.576120)
      (xy -16.965610 -0.626864)
      (xy -16.929758 -0.669923)
      (xy -16.882493 -0.701742)
      (xy -16.846726 -0.714611)
      (xy -16.821607 -0.718246)
      (xy -16.780549 -0.721127)
      (xy -16.727207 -0.723253)
      (xy -16.665234 -0.724624)
      (xy -16.598283 -0.725238)
    )

    (stroke (width 0.000000) (type solid)) (fill solid) (layer "F.SilkS") (tstamp bc08d79f-ab10-4421-8c7b-e06fc27f29c9))
  (fp_poly
    (pts
      (xy -14.906158 -0.721263)
      (xy -14.881059 -0.714079)
      (xy -14.863351 -0.701460)
      (xy -14.851818 -0.680371)
      (xy -14.845242 -0.647776)
      (xy -14.842406 -0.600639)
      (xy -14.841992 -0.561220)
      (xy -14.841992 -0.450385)
      (xy -15.018449 -0.220839)
      (xy -15.194906 0.008706)
      (xy -15.194906 0.316968)
      (xy -15.194988 0.403618)
      (xy -15.195308 0.472805)
      (xy -15.195978 0.526675)
      (xy -15.197112 0.567372)
      (xy -15.198820 0.597040)
      (xy -15.201216 0.617823)
      (xy -15.204412 0.631865)
      (xy -15.208519 0.641311)
      (xy -15.212162 0.646541)
      (xy -15.236122 0.663062)
      (xy -15.270200 0.672024)
      (xy -15.305918 0.672074)
      (xy -15.329182 0.665199)
      (xy -15.340464 0.657901)
      (xy -15.349560 0.647297)
      (xy -15.356702 0.631379)
      (xy -15.362124 0.608140)
      (xy -15.366059 0.575572)
      (xy -15.368741 0.531668)
      (xy -15.370403 0.474419)
      (xy -15.371277 0.401818)
      (xy -15.371598 0.311858)
      (xy -15.371610 0.299985)
      (xy -15.371858 0.004902)
      (xy -15.548067 -0.223320)
      (xy -15.724277 -0.451542)
      (xy -15.724277 -0.561799)
      (xy -15.723192 -0.619780)
      (xy -15.719120 -0.661275)
      (xy -15.710840 -0.689323)
      (xy -15.697128 -0.706962)
      (xy -15.676760 -0.717234)
      (xy -15.660111 -0.721263)
      (xy -15.618182 -0.721696)
      (xy -15.583812 -0.707647)
      (xy -15.561146 -0.681040)
      (xy -15.558259 -0.674029)
      (xy -15.552838 -0.648584)
      (xy -15.549064 -0.611965)
      (xy -15.547820 -0.576500)
      (xy -15.547820 -0.508916)
      (xy -15.414847 -0.337575)
      (xy -15.281874 -0.166234)
      (xy -15.150162 -0.337417)
      (xy -15.018449 -0.508601)
      (xy -15.018449 -0.576342)
      (xy -15.016924 -0.615854)
      (xy -15.012949 -0.651743)
      (xy -15.008009 -0.674029)
      (xy -14.988333 -0.703032)
      (xy -14.956078 -0.719880)
      (xy -14.915394 -0.722651)
    )

    (stroke (width 0.000000) (type solid)) (fill solid) (layer "F.SilkS") (tstamp 138ac84a-ef29-476d-8d28-7a327bdf068d))
  (fp_poly
    (pts
      (xy -13.963946 -0.178907)
      (xy -13.729333 0.367619)
      (xy -13.724431 -0.154135)
      (xy -13.723345 -0.268479)
      (xy -13.722363 -0.364833)
      (xy -13.721407 -0.444812)
      (xy -13.720398 -0.510033)
      (xy -13.719257 -0.562109)
      (xy -13.717907 -0.602658)
      (xy -13.716269 -0.633294)
      (xy -13.714264 -0.655634)
      (xy -13.711815 -0.671291)
      (xy -13.708843 -0.681883)
      (xy -13.705270 -0.689024)
      (xy -13.701017 -0.694330)
      (xy -13.698089 -0.697322)
      (xy -13.677208 -0.711863)
      (xy -13.648838 -0.717680)
      (xy -13.629758 -0.718046)
      (xy -13.614259 -0.718220)
      (xy -13.600843 -0.718368)
      (xy -13.589361 -0.717173)
      (xy -13.579664 -0.713319)
      (xy -13.571601 -0.705489)
      (xy -13.565023 -0.692367)
      (xy -13.559779 -0.672638)
      (xy -13.555722 -0.644984)
      (xy -13.552700 -0.608089)
      (xy -13.550564 -0.560638)
      (xy -13.549165 -0.501314)
      (xy -13.548352 -0.428801)
      (xy -13.547976 -0.341781)
      (xy -13.547887 -0.238941)
      (xy -13.547936 -0.118962)
      (xy -13.547974 0.001086)
      (xy -13.547974 0.676419)
      (xy -13.663279 0.676419)
      (xy -13.778583 0.676419)
      (xy -14.013742 0.135927)
      (xy -14.248900 -0.404565)
      (xy -14.253802 0.108968)
      (xy -14.254895 0.207895)
      (xy -14.256212 0.301175)
      (xy -14.257708 0.386917)
      (xy -14.259335 0.463229)
      (xy -14.261046 0.528220)
      (xy -14.262797 0.579997)
      (xy -14.264539 0.616670)
      (xy -14.266226 0.636346)
      (xy -14.266842 0.638972)
      (xy -14.282402 0.653947)
      (xy -14.309024 0.667207)
      (xy -14.338265 0.675048)
      (xy -14.350846 0.675797)
      (xy -14.372495 0.671698)
      (xy -14.387955 0.666547)
      (xy -14.409806 0.651287)
      (xy -14.419815 0.638403)
      (xy -14.422169 0.624993)
      (xy -14.424214 0.593964)
      (xy -14.425954 0.545050)
      (xy -14.427394 0.477987)
      (xy -14.428537 0.392508)
      (xy -14.429387 0.288350)
      (xy -14.429949 0.165247)
      (xy -14.430226 0.022934)
      (xy -14.430259 -0.053273)
      (xy -14.430259 -0.725434)
      (xy -14.314409 -0.725434)
      (xy -14.198559 -0.725434)
    )

    (stroke (width 0.000000) (type solid)) (fill solid) (layer "F.SilkS") (tstamp eb108b59-5340-414d-b5be-1ee7c4344a18))
  (fp_poly
    (pts
      (xy -12.253956 -0.584374)
      (xy -12.254594 -0.519261)
      (xy -12.257296 -0.471184)
      (xy -12.263249 -0.437591)
      (xy -12.273636 -0.415930)
      (xy -12.289642 -0.403651)
      (xy -12.312454 -0.398202)
      (xy -12.340969 -0.397028)
      (xy -12.379571 -0.400334)
      (xy -12.404800 -0.412397)
      (xy -12.419688 -0.436430)
      (xy -12.427265 -0.475649)
      (xy -12.428494 -0.489861)
      (xy -12.432770 -0.548977)
      (xy -12.519820 -0.548977)
      (xy -12.606870 -0.548977)
      (xy -12.606870 0.038127)
      (xy -12.606901 0.160550)
      (xy -12.607022 0.264875)
      (xy -12.607276 0.352609)
      (xy -12.607705 0.425262)
      (xy -12.608352 0.484340)
      (xy -12.609261 0.531353)
      (xy -12.610474 0.567808)
      (xy -12.612033 0.595213)
      (xy -12.613981 0.615076)
      (xy -12.616362 0.628905)
      (xy -12.619218 0.638209)
      (xy -12.622592 0.644496)
      (xy -12.624126 0.646541)
      (xy -12.648086 0.663062)
      (xy -12.682165 0.672024)
      (xy -12.717882 0.672074)
      (xy -12.741147 0.665199)
      (xy -12.759794 0.648273)
      (xy -12.773007 0.624673)
      (xy -12.775518 0.607229)
      (xy -12.777688 0.570449)
      (xy -12.779513 0.514604)
      (xy -12.780987 0.439960)
      (xy -12.782108 0.346787)
      (xy -12.782868 0.235353)
      (xy -12.783266 0.105927)
      (xy -12.783327 0.023045)
      (xy -12.783327 -0.548977)
      (xy -12.870378 -0.548977)
      (xy -12.957428 -0.548977)
      (xy -12.961704 -0.489861)
      (xy -12.967770 -0.445791)
      (xy -12.980294 -0.417810)
      (xy -13.002307 -0.402704)
      (xy -13.036841 -0.397259)
      (xy -13.049229 -0.397028)
      (xy -13.079470 -0.398400)
      (xy -13.101800 -0.404219)
      (xy -13.117402 -0.417035)
      (xy -13.127462 -0.439399)
      (xy -13.133165 -0.473863)
      (xy -13.135696 -0.522979)
      (xy -13.136241 -0.584374)
      (xy -13.136241 -0.725434)
      (xy -12.695099 -0.725434)
      (xy -12.253956 -0.725434)
    )

    (stroke (width 0.000000) (type solid)) (fill solid) (layer "F.SilkS") (tstamp a34d29a1-abd6-4da7-8522-e1c4bbdadf15))
  (fp_poly
    (pts
      (xy -11.024104 -0.721263)
      (xy -11.011694 -0.719143)
      (xy -11.000993 -0.716860)
      (xy -10.991876 -0.713044)
      (xy -10.984215 -0.706320)
      (xy -10.977884 -0.695316)
      (xy -10.972757 -0.678661)
      (xy -10.968708 -0.654980)
      (xy -10.965610 -0.622903)
      (xy -10.963337 -0.581057)
      (xy -10.961762 -0.528068)
      (xy -10.960758 -0.462565)
      (xy -10.960201 -0.383175)
      (xy -10.959963 -0.288525)
      (xy -10.959917 -0.177244)
      (xy -10.959938 -0.047958)
      (xy -10.959939 -0.024508)
      (xy -10.959919 0.107920)
      (xy -10.959945 0.222114)
      (xy -10.960142 0.319446)
      (xy -10.960638 0.401290)
      (xy -10.961558 0.469018)
      (xy -10.963028 0.524001)
      (xy -10.965176 0.567614)
      (xy -10.968128 0.601228)
      (xy -10.972009 0.626215)
      (xy -10.976947 0.643949)
      (xy -10.983068 0.655801)
      (xy -10.990498 0.663145)
      (xy -10.999363 0.667351)
      (xy -11.009791 0.669795)
      (xy -11.021907 0.671846)
      (xy -11.024104 0.672247)
      (xy -11.064626 0.672567)
      (xy -11.099543 0.659501)
      (xy -11.123217 0.635336)
      (xy -11.125321 0.631181)
      (xy -11.129296 0.611706)
      (xy -11.132393 0.572688)
      (xy -11.134610 0.514170)
      (xy -11.135945 0.436195)
      (xy -11.136396 0.338808)
      (xy -11.136396 0.337748)
      (xy -11.136396 0.068622)
      (xy -11.401081 0.068622)
      (xy -11.665767 0.068622)
      (xy -11.665767 0.337748)
      (xy -11.666194 0.432508)
      (xy -11.667467 0.509522)
      (xy -11.669567 0.568342)
      (xy -11.672478 0.608518)
      (xy -11.676184 0.629603)
      (xy -11.676651 0.630762)
      (xy -11.698851 0.657715)
      (xy -11.732418 0.672636)
      (xy -11.772178 0.674023)
      (xy -11.799919 0.666547)
      (xy -11.821771 0.651287)
      (xy -11.831780 0.638403)
      (xy -11.834184 0.624799)
      (xy -11.836266 0.593410)
      (xy -11.838029 0.543986)
      (xy -11.839479 0.476279)
      (xy -11.840618 0.390037)
      (xy -11.841450 0.285012)
      (xy -11.841980 0.160953)
      (xy -11.842212 0.017610)
      (xy -11.842224 -0.026583)
      (xy -11.842243 -0.158795)
      (xy -11.842216 -0.272775)
      (xy -11.842017 -0.369898)
      (xy -11.841518 -0.451539)
      (xy -11.840592 -0.519072)
      (xy -11.839113 -0.573873)
      (xy -11.836952 -0.617315)
      (xy -11.833984 -0.650774)
      (xy -11.830082 -0.675624)
      (xy -11.825117 -0.693240)
      (xy -11.818964 -0.704996)
      (xy -11.811496 -0.712268)
      (xy -11.802585 -0.716429)
      (xy -11.792104 -0.718855)
      (xy -11.779927 -0.720920)
      (xy -11.778058 -0.721263)
      (xy -11.736129 -0.721696)
      (xy -11.701758 -0.707647)
      (xy -11.679093 -0.681040)
      (xy -11.676206 -0.674029)
      (xy -11.672932 -0.654419)
      (xy -11.670196 -0.616988)
      (xy -11.668062 -0.563515)
      (xy -11.666592 -0.495780)
      (xy -11.665848 -0.415564)
      (xy -11.665767 -0.375959)
      (xy -11.665767 -0.107835)
      (xy -11.401081 -0.107835)
      (xy -11.136396 -0.107835)
      (xy -11.136396 -0.375959)
      (xy -11.135998 -0.461201)
      (xy -11.134846 -0.534760)
      (xy -11.133002 -0.594856)
      (xy -11.130529 -0.639710)
      (xy -11.127489 -0.667543)
      (xy -11.125956 -0.674029)
      (xy -11.106280 -0.703032)
      (xy -11.074025 -0.719880)
      (xy -11.033341 -0.722651)
    )

    (stroke (width 0.000000) (type solid)) (fill solid) (layer "F.SilkS") (tstamp 714e06d0-4eaa-4d34-b790-6cdd8d7da484))
  (fp_poly
    (pts
      (xy -10.064427 -0.718705)
      (xy -10.017060 -0.700941)
      (xy -9.973241 -0.675777)
      (xy -9.949758 -0.656357)
      (xy -9.933317 -0.635224)
      (xy -9.910464 -0.599309)
      (xy -9.882793 -0.551727)
      (xy -9.851897 -0.495592)
      (xy -9.819370 -0.434019)
      (xy -9.786806 -0.370124)
      (xy -9.755798 -0.307020)
      (xy -9.727941 -0.247824)
      (xy -9.704827 -0.195650)
      (xy -9.688052 -0.153612)
      (xy -9.680412 -0.129941)
      (xy -9.667410 -0.047460)
      (xy -9.670249 0.034769)
      (xy -9.681625 0.088535)
      (xy -9.690983 0.113693)
      (xy -9.707789 0.152656)
      (xy -9.730438 0.202175)
      (xy -9.757326 0.259000)
      (xy -9.786846 0.319882)
      (xy -9.817395 0.381570)
      (xy -9.847367 0.440815)
      (xy -9.875157 0.494367)
      (xy -9.899162 0.538976)
      (xy -9.917775 0.571393)
      (xy -9.927058 0.585521)
      (xy -9.967777 0.624641)
      (xy -10.020369 0.653451)
      (xy -10.078920 0.669891)
      (xy -10.137515 0.671899)
      (xy -10.162371 0.667533)
      (xy -10.210456 0.648015)
      (xy -10.256363 0.616913)
      (xy -10.287610 0.584810)
      (xy -10.301134 0.563545)
      (xy -10.321228 0.527703)
      (xy -10.346292 0.480531)
      (xy -10.374723 0.425275)
      (xy -10.404920 0.365181)
      (xy -10.435281 0.303494)
      (xy -10.464205 0.243460)
      (xy -10.490089 0.188325)
      (xy -10.511332 0.141335)
      (xy -10.526333 0.105736)
      (xy -10.532502 0.088535)
      (xy -10.542151 0.034311)
      (xy -10.373768 0.034311)
      (xy -10.260693 0.261194)
      (xy -10.229664 0.322679)
      (xy -10.200888 0.378236)
      (xy -10.175666 0.425471)
      (xy -10.155297 0.461989)
      (xy -10.141083 0.485395)
      (xy -10.134693 0.493246)
      (xy -10.101997 0.498622)
      (xy -10.082523 0.493691)
      (xy -10.073873 0.483512)
      (xy -10.058005 0.458111)
      (xy -10.036258 0.419904)
      (xy -10.009975 0.371307)
      (xy -9.980497 0.314737)
      (xy -9.953271 0.260866)
      (xy -9.840359 0.034311)
      (xy -9.844801 -0.034311)
      (xy -9.846714 -0.056816)
      (xy -9.850044 -0.077801)
      (xy -9.855877 -0.100001)
      (xy -9.865295 -0.126147)
      (xy -9.879382 -0.158972)
      (xy -9.899222 -0.201211)
      (xy -9.925900 -0.255595)
      (xy -9.958205 -0.320284)
      (xy -9.998542 -0.400532)
      (xy -10.031567 -0.463407)
      (xy -10.059056 -0.508908)
      (xy -10.082784 -0.537035)
      (xy -10.104525 -0.547789)
      (xy -10.126056 -0.541170)
      (xy -10.149150 -0.517176)
      (xy -10.175583 -0.475809)
      (xy -10.207130 -0.417069)
      (xy -10.245566 -0.340955)
      (xy -10.255922 -0.320284)
      (xy -10.290020 -0.251980)
      (xy -10.316261 -0.198393)
      (xy -10.335730 -0.156790)
      (xy -10.349510 -0.124436)
      (xy -10.358685 -0.098601)
      (xy -10.364339 -0.076550)
      (xy -10.367555 -0.055550)
      (xy -10.369326 -0.034311)
      (xy -10.373768 0.034311)
      (xy -10.542151 0.034311)
      (xy -10.546395 0.010464)
      (xy -10.544474 -0.072545)
      (xy -10.533715 -0.129941)
      (xy -10.522963 -0.161954)
      (xy -10.504635 -0.206523)
      (xy -10.480325 -0.260534)
      (xy -10.451627 -0.320872)
      (xy -10.420133 -0.384422)
      (xy -10.387439 -0.448070)
      (xy -10.355138 -0.508699)
      (xy -10.324823 -0.563195)
      (xy -10.298089 -0.608444)
      (xy -10.276529 -0.641331)
      (xy -10.264369 -0.656357)
      (xy -10.227661 -0.684470)
      (xy -10.181795 -0.707647)
      (xy -10.135048 -0.722253)
      (xy -10.107063 -0.725434)
    )

    (stroke (width 0.000000) (type solid)) (fill solid) (layer "F.SilkS") (tstamp 5014c020-3468-419d-a0df-8f3f7c461f6f))
  (fp_poly
    (pts
      (xy -8.371903 -0.051197)
      (xy -8.371882 0.083981)
      (xy -8.371900 0.200897)
      (xy -8.372074 0.300898)
      (xy -8.372526 0.385329)
      (xy -8.373373 0.455534)
      (xy -8.374735 0.512860)
      (xy -8.376733 0.558651)
      (xy -8.379484 0.594253)
      (xy -8.383108 0.621010)
      (xy -8.387725 0.640269)
      (xy -8.393454 0.653375)
      (xy -8.400414 0.661672)
      (xy -8.408724 0.666507)
      (xy -8.418505 0.669223)
      (xy -8.429874 0.671168)
      (xy -8.436069 0.672247)
      (xy -8.476590 0.672567)
      (xy -8.511507 0.659501)
      (xy -8.535181 0.635336)
      (xy -8.537285 0.631181)
      (xy -8.539962 0.617879)
      (xy -8.542245 0.590125)
      (xy -8.544149 0.547195)
      (xy -8.545688 0.488369)
      (xy -8.546877 0.412924)
      (xy -8.547730 0.320137)
      (xy -8.548260 0.209287)
      (xy -8.548482 0.079652)
      (xy -8.548489 0.060809)
      (xy -8.548617 -0.485256)
      (xy -8.635648 -0.353513)
      (xy -8.669944 -0.300783)
      (xy -8.694467 -0.260734)
      (xy -8.710877 -0.230117)
      (xy -8.720836 -0.205687)
      (xy -8.726004 -0.184196)
      (xy -8.727220 -0.174506)
      (xy -8.736571 -0.130603)
      (xy -8.755510 -0.102918)
      (xy -8.785517 -0.089818)
      (xy -8.805406 -0.088228)
      (xy -8.835234 -0.090636)
      (xy -8.858971 -0.096557)
      (xy -8.861675 -0.097824)
      (xy -8.878913 -0.115990)
      (xy -8.892875 -0.146496)
      (xy -8.900602 -0.182078)
      (xy -8.901288 -0.195075)
      (xy -8.907023 -0.213988)
      (xy -8.923483 -0.246574)
      (xy -8.949568 -0.290865)
      (xy -8.984179 -0.344894)
      (xy -8.989503 -0.352914)
      (xy -9.077704 -0.485256)
      (xy -9.077717 0.060809)
      (xy -9.077881 0.194676)
      (xy -9.078373 0.309516)
      (xy -9.079204 0.405902)
      (xy -9.080385 0.484412)
      (xy -9.081927 0.545620)
      (xy -9.083841 0.590101)
      (xy -9.086139 0.618433)
      (xy -9.088615 0.630762)
      (xy -9.110816 0.657715)
      (xy -9.144382 0.672636)
      (xy -9.184142 0.674023)
      (xy -9.211884 0.666547)
      (xy -9.233735 0.651287)
      (xy -9.243744 0.638403)
      (xy -9.246098 0.624993)
      (xy -9.248143 0.593964)
      (xy -9.249883 0.545050)
      (xy -9.251323 0.477987)
      (xy -9.252466 0.392508)
      (xy -9.253316 0.288350)
      (xy -9.253878 0.165247)
      (xy -9.254155 0.022934)
      (xy -9.254188 -0.053273)
      (xy -9.254188 -0.725434)
      (xy -9.143902 -0.725183)
      (xy -9.033617 -0.724932)
      (xy -8.925782 -0.563840)
      (xy -8.892545 -0.514541)
      (xy -8.862967 -0.471335)
      (xy -8.838772 -0.436688)
      (xy -8.821685 -0.413065)
      (xy -8.813430 -0.402930)
      (xy -8.813046 -0.402725)
      (xy -8.806349 -0.410478)
      (xy -8.790545 -0.432109)
      (xy -8.767358 -0.465155)
      (xy -8.738515 -0.507152)
      (xy -8.705739 -0.555636)
      (xy -8.700309 -0.563735)
      (xy -8.592474 -0.724768)
      (xy -8.482189 -0.725101)
      (xy -8.371903 -0.725434)
    )

    (stroke (width 0.000000) (type solid)) (fill solid) (layer "F.SilkS") (tstamp b6f9fa72-4766-4802-abe0-79fe8eae0b0e))
  (fp_poly
    (pts
      (xy -7.272764 -0.724004)
      (xy -7.211061 -0.723545)
      (xy -7.161666 -0.722799)
      (xy -7.126988 -0.721783)
      (xy -7.109434 -0.720516)
      (xy -7.109199 -0.720475)
      (xy -7.070532 -0.705815)
      (xy -7.047048 -0.678752)
      (xy -7.038694 -0.639223)
      (xy -7.038673 -0.636760)
      (xy -7.043878 -0.601206)
      (xy -7.061724 -0.574063)
      (xy -7.062735 -0.573039)
      (xy -7.072581 -0.563923)
      (xy -7.083158 -0.557458)
      (xy -7.097805 -0.553191)
      (xy -7.119865 -0.550665)
      (xy -7.152679 -0.549425)
      (xy -7.199587 -0.549014)
      (xy -7.239192 -0.548977)
      (xy -7.391587 -0.548977)
      (xy -7.391587 -0.024508)
      (xy -7.391587 0.499962)
      (xy -7.239192 0.499962)
      (xy -7.181338 0.500077)
      (xy -7.139748 0.500726)
      (xy -7.111083 0.502365)
      (xy -7.092000 0.505450)
      (xy -7.079160 0.510435)
      (xy -7.069219 0.517777)
      (xy -7.062735 0.524024)
      (xy -7.042703 0.555627)
      (xy -7.038673 0.583487)
      (xy -7.043481 0.623147)
      (xy -7.059512 0.649227)
      (xy -7.088945 0.665584)
      (xy -7.107792 0.668709)
      (xy -7.143124 0.671324)
      (xy -7.192236 0.673434)
      (xy -7.252423 0.675044)
      (xy -7.320979 0.676162)
      (xy -7.395200 0.676793)
      (xy -7.472379 0.676943)
      (xy -7.549812 0.676617)
      (xy -7.624793 0.675823)
      (xy -7.694618 0.674564)
      (xy -7.756580 0.672848)
      (xy -7.807975 0.670681)
      (xy -7.846097 0.668067)
      (xy -7.868241 0.665014)
      (xy -7.871645 0.663878)
      (xy -7.902884 0.638374)
      (xy -7.917784 0.603148)
      (xy -7.915569 0.562434)
      (xy -7.908436 0.540671)
      (xy -7.897568 0.524616)
      (xy -7.880188 0.513416)
      (xy -7.853519 0.506219)
      (xy -7.814785 0.502172)
      (xy -7.761211 0.500422)
      (xy -7.712640 0.500106)
      (xy -7.568044 0.499962)
      (xy -7.568044 -0.023833)
      (xy -7.568044 -0.547628)
      (xy -7.724571 -0.550753)
      (xy -7.788927 -0.552372)
      (xy -7.836424 -0.554984)
      (xy -7.869811 -0.559633)
      (xy -7.891834 -0.567365)
      (xy -7.905243 -0.579226)
      (xy -7.912784 -0.596259)
      (xy -7.917205 -0.619512)
      (xy -7.917861 -0.624282)
      (xy -7.918740 -0.654578)
      (xy -7.909131 -0.677972)
      (xy -7.898361 -0.691802)
      (xy -7.873657 -0.720532)
      (xy -7.507632 -0.723472)
      (xy -7.423457 -0.723985)
      (xy -7.344365 -0.724156)
    )

    (stroke (width 0.000000) (type solid)) (fill solid) (layer "F.SilkS") (tstamp eba20dc6-5b2c-4cd2-a87f-21d8334612df))
  (fp_poly
    (pts
      (xy -6.251969 -0.723569)
      (xy -6.161776 -0.722713)
      (xy -6.088961 -0.721847)
      (xy -6.031295 -0.720825)
      (xy -5.986551 -0.719497)
      (xy -5.952501 -0.717715)
      (xy -5.926917 -0.715331)
      (xy -5.907570 -0.712196)
      (xy -5.892233 -0.708164)
      (xy -5.878677 -0.703085)
      (xy -5.867195 -0.697973)
      (xy -5.804270 -0.659360)
      (xy -5.754301 -0.608385)
      (xy -5.732073 -0.573485)
      (xy -5.721485 -0.548498)
      (xy -5.714329 -0.518003)
      (xy -5.709729 -0.477009)
      (xy -5.707248 -0.432072)
      (xy -5.706380 -0.358879)
      (xy -5.711034 -0.300942)
      (xy -5.722084 -0.254469)
      (xy -5.740406 -0.215669)
      (xy -5.764590 -0.183311)
      (xy -5.797467 -0.150059)
      (xy -5.831496 -0.125770)
      (xy -5.870694 -0.108993)
      (xy -5.919081 -0.098274)
      (xy -5.980677 -0.092163)
      (xy -6.022191 -0.090220)
      (xy -6.078986 -0.087595)
      (xy -6.117340 -0.084219)
      (xy -6.138412 -0.079946)
      (xy -6.143430 -0.074796)
      (xy -6.137015 -0.064499)
      (xy -6.120626 -0.039968)
      (xy -6.095522 -0.003036)
      (xy -6.062961 0.044460)
      (xy -6.024202 0.100685)
      (xy -5.980504 0.163804)
      (xy -5.933124 0.231982)
      (xy -5.927417 0.240178)
      (xy -5.871695 0.320817)
      (xy -5.822753 0.392934)
      (xy -5.781448 0.455202)
      (xy -5.748639 0.506298)
      (xy -5.725184 0.544898)
      (xy -5.711940 0.569676)
      (xy -5.709341 0.576817)
      (xy -5.710987 0.612796)
      (xy -5.727771 0.643124)
      (xy -5.755348 0.664335)
      (xy -5.789373 0.672961)
      (xy -5.822289 0.666943)
      (xy -5.832734 0.659162)
      (xy -5.849192 0.641551)
      (xy -5.872361 0.613172)
      (xy -5.902943 0.573091)
      (xy -5.941636 0.520370)
      (xy -5.989141 0.454074)
      (xy -6.046157 0.373266)
      (xy -6.108533 0.283981)
      (xy -6.171374 0.193940)
      (xy -6.224132 0.118916)
      (xy -6.267723 0.057693)
      (xy -6.303065 0.009059)
      (xy -6.331073 -0.028200)
      (xy -6.352663 -0.055300)
      (xy -6.368753 -0.073454)
      (xy -6.380258 -0.083876)
      (xy -6.388094 -0.087779)
      (xy -6.389213 -0.087884)
      (xy -6.411270 -0.088228)
      (xy -6.411270 0.253420)
      (xy -6.411578 0.352357)
      (xy -6.412476 0.438081)
      (xy -6.413932 0.509337)
      (xy -6.415909 0.564867)
      (xy -6.418373 0.603417)
      (xy -6.421289 0.623729)
      (xy -6.421561 0.624589)
      (xy -6.441283 0.654193)
      (xy -6.472862 0.671472)
      (xy -6.511790 0.674898)
      (xy -6.545423 0.666547)
      (xy -6.567274 0.651287)
      (xy -6.577283 0.638403)
      (xy -6.579636 0.624997)
      (xy -6.581680 0.593975)
      (xy -6.583420 0.545072)
      (xy -6.584860 0.478022)
      (xy -6.586003 0.392560)
      (xy -6.586853 0.288421)
      (xy -6.587416 0.165338)
      (xy -6.587694 0.023046)
      (xy -6.587727 -0.053858)
      (xy -6.587727 -0.550239)
      (xy -6.411270 -0.550239)
      (xy -6.411270 -0.406983)
      (xy -6.411270 -0.263727)
      (xy -6.167201 -0.266657)
      (xy -6.091168 -0.267672)
      (xy -6.032284 -0.268800)
      (xy -5.988092 -0.270242)
      (xy -5.956136 -0.272198)
      (xy -5.933958 -0.274869)
      (xy -5.919101 -0.278455)
      (xy -5.909109 -0.283156)
      (xy -5.902515 -0.288262)
      (xy -5.892825 -0.299163)
      (xy -5.886724 -0.313517)
      (xy -5.883409 -0.335739)
      (xy -5.882079 -0.370242)
      (xy -5.881899 -0.401740)
      (xy -5.882242 -0.446063)
      (xy -5.883928 -0.475420)
      (xy -5.887948 -0.494452)
      (xy -5.895290 -0.507794)
      (xy -5.906942 -0.520087)
      (xy -5.907178 -0.520309)
      (xy -5.915488 -0.527712)
      (xy -5.924385 -0.533425)
      (xy -5.936402 -0.537707)
      (xy -5.954074 -0.540814)
      (xy -5.979936 -0.543003)
      (xy -6.016522 -0.544533)
      (xy -6.066366 -0.545658)
      (xy -6.132004 -0.546638)
      (xy -6.171863 -0.547157)
      (xy -6.411270 -0.550239)
      (xy -6.587727 -0.550239)
      (xy -6.587727 -0.726605)
    )

    (stroke (width 0.000000) (type solid)) (fill solid) (layer "F.SilkS") (tstamp cdc427ed-1147-43db-921c-64a46619c7c7))
  (fp_poly
    (pts
      (xy -4.451072 -0.707302)
      (xy -4.436201 -0.696276)
      (xy -4.416022 -0.664683)
      (xy -4.412091 -0.625261)
      (xy -4.424657 -0.581514)
      (xy -4.427640 -0.575449)
      (xy -4.438633 -0.555288)
      (xy -4.458069 -0.520862)
      (xy -4.484978 -0.473826)
      (xy -4.518389 -0.415838)
      (xy -4.557332 -0.348555)
      (xy -4.600836 -0.273634)
      (xy -4.647930 -0.192731)
      (xy -4.697644 -0.107504)
      (xy -4.749007 -0.019610)
      (xy -4.801048 0.069294)
      (xy -4.852797 0.157552)
      (xy -4.903284 0.243506)
      (xy -4.951537 0.325499)
      (xy -4.996586 0.401874)
      (xy -5.037460 0.470975)
      (xy -5.073189 0.531144)
      (xy -5.102802 0.580724)
      (xy -5.125328 0.618058)
      (xy -5.139797 0.641490)
      (xy -5.145020 0.649222)
      (xy -5.176178 0.668340)
      (xy -5.213378 0.671502)
      (xy -5.250613 0.658214)
      (xy -5.251110 0.657906)
      (xy -5.279456 0.630450)
      (xy -5.290121 0.595829)
      (xy -5.282502 0.556512)
      (xy -5.278191 0.547242)
      (xy -5.266623 0.525901)
      (xy -5.246652 0.490367)
      (xy -5.219243 0.442285)
      (xy -5.185358 0.383301)
      (xy -5.145960 0.315059)
      (xy -5.102011 0.239207)
      (xy -5.054474 0.157388)
      (xy -5.004312 0.071248)
      (xy -4.952488 -0.017568)
      (xy -4.899964 -0.107414)
      (xy -4.847703 -0.196645)
      (xy -4.796667 -0.283615)
      (xy -4.747820 -0.366679)
      (xy -4.702124 -0.444192)
      (xy -4.660541 -0.514509)
      (xy -4.624036 -0.575984)
      (xy -4.593569 -0.626972)
      (xy -4.570104 -0.665827)
      (xy -4.554604 -0.690904)
      (xy -4.548164 -0.700436)
      (xy -4.519904 -0.716602)
      (xy -4.485193 -0.718803)
    )

    (stroke (width 0.000000) (type solid)) (fill solid) (layer "F.SilkS") (tstamp bd618367-ac1f-462f-b4d6-f8bcbd91d126))
  (fp_poly
    (pts
      (xy -3.470321 -0.113223)
      (xy -3.470321 0.499962)
      (xy -3.382643 0.499962)
      (xy -3.294964 0.499962)
      (xy -3.291963 0.295101)
      (xy -3.290627 0.219397)
      (xy -3.288589 0.161047)
      (xy -3.285069 0.117798)
      (xy -3.279284 0.087396)
      (xy -3.270451 0.067589)
      (xy -3.257789 0.056124)
      (xy -3.240515 0.050749)
      (xy -3.217847 0.049210)
      (xy -3.206567 0.049166)
      (xy -3.181724 0.049769)
      (xy -3.161985 0.052741)
      (xy -3.146762 0.060105)
      (xy -3.135470 0.073885)
      (xy -3.127521 0.096104)
      (xy -3.122330 0.128783)
      (xy -3.119309 0.173947)
      (xy -3.117873 0.233617)
      (xy -3.117435 0.309818)
      (xy -3.117407 0.356710)
      (xy -3.117889 0.450426)
      (xy -3.119331 0.525013)
      (xy -3.121729 0.580353)
      (xy -3.125079 0.616326)
      (xy -3.128561 0.631355)
      (xy -3.145738 0.652199)
      (xy -3.169237 0.666128)
      (xy -3.187776 0.669143)
      (xy -3.222820 0.671652)
      (xy -3.271667 0.673661)
      (xy -3.331611 0.675179)
      (xy -3.399952 0.676214)
      (xy -3.473985 0.676772)
      (xy -3.551007 0.676862)
      (xy -3.628316 0.676492)
      (xy -3.703207 0.675669)
      (xy -3.772979 0.674402)
      (xy -3.834928 0.672697)
      (xy -3.886350 0.670563)
      (xy -3.924542 0.668008)
      (xy -3.946803 0.665039)
      (xy -3.950380 0.663878)
      (xy -3.981618 0.638374)
      (xy -3.996518 0.603148)
      (xy -3.994303 0.562434)
      (xy -3.987170 0.540671)
      (xy -3.976302 0.524616)
      (xy -3.958922 0.513416)
      (xy -3.932253 0.506219)
      (xy -3.893519 0.502172)
      (xy -3.839945 0.500422)
      (xy -3.791374 0.500106)
      (xy -3.646778 0.499962)
      (xy -3.646778 -0.023833)
      (xy -3.646778 -0.547628)
      (xy -3.803305 -0.550753)
      (xy -3.867661 -0.552372)
      (xy -3.915158 -0.554984)
      (xy -3.948545 -0.559633)
      (xy -3.970568 -0.567365)
      (xy -3.983977 -0.579226)
      (xy -3.991518 -0.596259)
      (xy -3.995939 -0.619512)
      (xy -3.996595 -0.624282)
      (xy -3.997474 -0.654582)
      (xy -3.987862 -0.677981)
      (xy -3.977101 -0.691802)
      (xy -3.952405 -0.720532)
      (xy -3.711363 -0.723470)
      (xy -3.470321 -0.726408)
    )

    (stroke (width 0.000000) (type solid)) (fill solid) (layer "F.SilkS") (tstamp 80fa9b2a-3b2e-4017-ac6e-0b259e02aaeb))
  (fp_poly
    (pts
      (xy -1.490081 -0.113223)
      (xy -1.490081 0.499962)
      (xy -1.402403 0.499962)
      (xy -1.314725 0.499962)
      (xy -1.311724 0.295101)
      (xy -1.310387 0.219397)
      (xy -1.308350 0.161047)
      (xy -1.304830 0.117798)
      (xy -1.299045 0.087396)
      (xy -1.290212 0.067589)
      (xy -1.277550 0.056124)
      (xy -1.260276 0.050749)
      (xy -1.237608 0.049210)
      (xy -1.226327 0.049166)
      (xy -1.201485 0.049769)
      (xy -1.181746 0.052741)
      (xy -1.166523 0.060105)
      (xy -1.155231 0.073885)
      (xy -1.147282 0.096104)
      (xy -1.142091 0.128783)
      (xy -1.139070 0.173947)
      (xy -1.137634 0.233617)
      (xy -1.137196 0.309818)
      (xy -1.137168 0.356710)
      (xy -1.137649 0.450426)
      (xy -1.139092 0.525013)
      (xy -1.141490 0.580353)
      (xy -1.144839 0.616326)
      (xy -1.148322 0.631355)
      (xy -1.165499 0.652199)
      (xy -1.188997 0.666128)
      (xy -1.207537 0.669143)
      (xy -1.242581 0.671652)
      (xy -1.291427 0.673661)
      (xy -1.351372 0.675179)
      (xy -1.419713 0.676214)
      (xy -1.493746 0.676772)
      (xy -1.570768 0.676862)
      (xy -1.648076 0.676492)
      (xy -1.722968 0.675669)
      (xy -1.792740 0.674402)
      (xy -1.854688 0.672697)
      (xy -1.906110 0.670563)
      (xy -1.944303 0.668008)
      (xy -1.966563 0.665039)
      (xy -1.970140 0.663878)
      (xy -2.001379 0.638374)
      (xy -2.016279 0.603148)
      (xy -2.014063 0.562434)
      (xy -2.006931 0.540671)
      (xy -1.996063 0.524616)
      (xy -1.978683 0.513416)
      (xy -1.952014 0.506219)
      (xy -1.913280 0.502172)
      (xy -1.859706 0.500422)
      (xy -1.811135 0.500106)
      (xy -1.666538 0.499962)
      (xy -1.666538 -0.023833)
      (xy -1.666538 -0.547628)
      (xy -1.823066 -0.550753)
      (xy -1.887421 -0.552372)
      (xy -1.934919 -0.554984)
      (xy -1.968305 -0.559633)
      (xy -1.990329 -0.567365)
      (xy -2.003737 -0.579226)
      (xy -2.011279 -0.596259)
      (xy -2.015700 -0.619512)
      (xy -2.016356 -0.624282)
      (xy -2.017234 -0.654582)
      (xy -2.007623 -0.677981)
      (xy -1.996862 -0.691802)
      (xy -1.972165 -0.720532)
      (xy -1.731123 -0.723470)
      (xy -1.490081 -0.726408)
    )

    (stroke (width 0.000000) (type solid)) (fill solid) (layer "F.SilkS") (tstamp 84bb8145-2295-4b40-a310-f4329cf85e7a))
  (fp_poly
    (pts
      (xy 0.400514 -0.643440)
      (xy 0.420420 -0.639763)
      (xy 0.435799 -0.634426)
      (xy 0.447275 -0.625074)
      (xy 0.455471 -0.609354)
      (xy 0.461011 -0.584913)
      (xy 0.464518 -0.549395)
      (xy 0.466617 -0.500448)
      (xy 0.467929 -0.435717)
      (xy 0.468626 -0.386325)
      (xy 0.471603 -0.165515)
      (xy 0.529983 -0.219565)
      (xy 0.566075 -0.249714)
      (xy 0.600326 -0.272592)
      (xy 0.625038 -0.283800)
      (xy 0.649826 -0.287936)
      (xy 0.688476 -0.291233)
      (xy 0.735251 -0.293306)
      (xy 0.774450 -0.293825)
      (xy 0.835934 -0.292500)
      (xy 0.883297 -0.287456)
      (xy 0.921940 -0.276789)
      (xy 0.957263 -0.258594)
      (xy 0.994667 -0.230967)
      (xy 1.024056 -0.205814)
      (xy 1.059559 -0.173704)
      (xy 1.087480 -0.145338)
      (xy 1.108728 -0.117781)
      (xy 1.124211 -0.088101)
      (xy 1.134839 -0.053363)
      (xy 1.141520 -0.010635)
      (xy 1.145162 0.043018)
      (xy 1.146676 0.110530)
      (xy 1.146970 0.190941)
      (xy 1.146569 0.273766)
      (xy 1.144941 0.339810)
      (xy 1.141450 0.391888)
      (xy 1.135458 0.432817)
      (xy 1.126328 0.465413)
      (xy 1.113423 0.492492)
      (xy 1.096106 0.516869)
      (xy 1.073740 0.541360)
      (xy 1.065925 0.549176)
      (xy 1.013454 0.598114)
      (xy 0.967159 0.633215)
      (xy 0.921942 0.656466)
      (xy 0.872710 0.669856)
      (xy 0.814365 0.675374)
      (xy 0.743340 0.675058)
      (xy 0.686186 0.672174)
      (xy 0.642790 0.666159)
      (xy 0.607318 0.654688)
      (xy 0.573939 0.635434)
      (xy 0.536820 0.606069)
      (xy 0.509294 0.581698)
      (xy 0.470551 0.546696)
      (xy 0.470551 0.582902)
      (xy 0.464997 0.615614)
      (xy 0.445558 0.644001)
      (xy 0.441896 0.647763)
      (xy 0.413931 0.669511)
      (xy 0.386292 0.674695)
      (xy 0.354929 0.666149)
      (xy 0.344666 0.661654)
      (xy 0.335862 0.656064)
      (xy 0.328413 0.647946)
      (xy 0.322216 0.635867)
      (xy 0.317165 0.618393)
      (xy 0.313156 0.594090)
      (xy 0.310086 0.561525)
      (xy 0.307849 0.519265)
      (xy 0.306343 0.465876)
      (xy 0.305462 0.399924)
      (xy 0.305127 0.325394)
      (xy 0.475453 0.325394)
      (xy 0.541729 0.388184)
      (xy 0.589192 0.432369)
      (xy 0.626441 0.464413)
      (xy 0.656927 0.486232)
      (xy 0.684101 0.499744)
      (xy 0.711415 0.506867)
      (xy 0.742321 0.509517)
      (xy 0.760577 0.509765)
      (xy 0.799432 0.508581)
      (xy 0.833221 0.505473)
      (xy 0.854758 0.501107)
      (xy 0.855041 0.501002)
      (xy 0.874216 0.489948)
      (xy 0.901235 0.469872)
      (xy 0.926752 0.448200)
      (xy 0.975414 0.404161)
      (xy 0.978672 0.214335)
      (xy 0.979337 0.136924)
      (xy 0.978493 0.073563)
      (xy 0.976195 0.025923)
      (xy 0.972500 -0.004330)
      (xy 0.971115 -0.009803)
      (xy 0.950787 -0.044699)
      (xy 0.911105 -0.081923)
      (xy 0.909399 -0.083242)
      (xy 0.880410 -0.104221)
      (xy 0.856558 -0.116419)
      (xy 0.829848 -0.122645)
      (xy 0.792283 -0.125708)
      (xy 0.787881 -0.125935)
      (xy 0.747298 -0.126233)
      (xy 0.709844 -0.123541)
      (xy 0.684588 -0.118687)
      (xy 0.664643 -0.107829)
      (xy 0.634822 -0.086381)
      (xy 0.599232 -0.057495)
      (xy 0.563682 -0.025907)
      (xy 0.475453 0.056059)
      (xy 0.475453 0.190727)
      (xy 0.475453 0.325394)
      (xy 0.305127 0.325394)
      (xy 0.305103 0.319977)
      (xy 0.305161 0.224600)
      (xy 0.305532 0.112360)
      (xy 0.306056 -0.006140)
      (xy 0.308799 -0.599700)
      (xy 0.337472 -0.624359)
      (xy 0.362469 -0.641239)
      (xy 0.387584 -0.644967)
    )

    (stroke (width 0.000000) (type solid)) (fill solid) (layer "F.SilkS") (tstamp 42d394d2-3440-4164-a67a-de067640560d))
  (fp_poly
    (pts
      (xy 4.070764 -0.723569)
      (xy 4.160957 -0.722713)
      (xy 4.233772 -0.721847)
      (xy 4.291437 -0.720825)
      (xy 4.336181 -0.719497)
      (xy 4.370231 -0.717715)
      (xy 4.395816 -0.715331)
      (xy 4.415162 -0.712196)
      (xy 4.430499 -0.708164)
      (xy 4.444055 -0.703085)
      (xy 4.455538 -0.697973)
      (xy 4.518462 -0.659360)
      (xy 4.568432 -0.608385)
      (xy 4.590660 -0.573485)
      (xy 4.601247 -0.548498)
      (xy 4.608403 -0.518003)
      (xy 4.613004 -0.477009)
      (xy 4.615484 -0.432072)
      (xy 4.616353 -0.358879)
      (xy 4.611699 -0.300942)
      (xy 4.600648 -0.254469)
      (xy 4.582327 -0.215669)
      (xy 4.558142 -0.183311)
      (xy 4.525265 -0.150059)
      (xy 4.491237 -0.125770)
      (xy 4.452039 -0.108993)
      (xy 4.403651 -0.098274)
      (xy 4.342056 -0.092163)
      (xy 4.300541 -0.090220)
      (xy 4.243747 -0.087595)
      (xy 4.205392 -0.084219)
      (xy 4.184321 -0.079946)
      (xy 4.179303 -0.074796)
      (xy 4.185718 -0.064499)
      (xy 4.202107 -0.039968)
      (xy 4.227210 -0.003036)
      (xy 4.259771 0.044460)
      (xy 4.298530 0.100685)
      (xy 4.342229 0.163804)
      (xy 4.389608 0.231982)
      (xy 4.395316 0.240178)
      (xy 4.451038 0.320817)
      (xy 4.499980 0.392934)
      (xy 4.541285 0.455202)
      (xy 4.574094 0.506298)
      (xy 4.597549 0.544898)
      (xy 4.610793 0.569676)
      (xy 4.613391 0.576817)
      (xy 4.611746 0.612796)
      (xy 4.594961 0.643124)
      (xy 4.567384 0.664335)
      (xy 4.533360 0.672961)
      (xy 4.500444 0.666943)
      (xy 4.489999 0.659162)
      (xy 4.473541 0.641551)
      (xy 4.450371 0.613172)
      (xy 4.419790 0.573091)
      (xy 4.381096 0.520370)
      (xy 4.333591 0.454074)
      (xy 4.276575 0.373266)
      (xy 4.214199 0.283981)
      (xy 4.151359 0.193940)
      (xy 4.098601 0.118916)
      (xy 4.055009 0.057693)
      (xy 4.019668 0.009059)
      (xy 3.991660 -0.028200)
      (xy 3.970069 -0.055300)
      (xy 3.953980 -0.073454)
      (xy 3.942475 -0.083876)
      (xy 3.934638 -0.087779)
      (xy 3.933519 -0.087884)
      (xy 3.911462 -0.088228)
      (xy 3.911462 0.253420)
      (xy 3.911155 0.352357)
      (xy 3.910256 0.438081)
      (xy 3.908801 0.509337)
      (xy 3.906824 0.564867)
      (xy 3.904360 0.603417)
      (xy 3.901444 0.623729)
      (xy 3.901171 0.624589)
      (xy 3.881449 0.654193)
      (xy 3.849870 0.671472)
      (xy 3.810943 0.674898)
      (xy 3.777310 0.666547)
      (xy 3.755458 0.651287)
      (xy 3.745449 0.638403)
      (xy 3.743097 0.624997)
      (xy 3.741052 0.593975)
      (xy 3.739312 0.545072)
      (xy 3.737873 0.478022)
      (xy 3.736730 0.392560)
      (xy 3.735879 0.288421)
      (xy 3.735317 0.165338)
      (xy 3.735039 0.023046)
      (xy 3.735005 -0.053858)
      (xy 3.735005 -0.550239)
      (xy 3.911462 -0.550239)
      (xy 3.911462 -0.406983)
      (xy 3.911462 -0.263727)
      (xy 4.155532 -0.266657)
      (xy 4.231565 -0.267672)
      (xy 4.290449 -0.268800)
      (xy 4.334641 -0.270242)
      (xy 4.366597 -0.272198)
      (xy 4.388775 -0.274869)
      (xy 4.403631 -0.278455)
      (xy 4.413623 -0.283156)
      (xy 4.420217 -0.288262)
      (xy 4.429907 -0.299163)
      (xy 4.436009 -0.313517)
      (xy 4.439324 -0.335739)
      (xy 4.440654 -0.370242)
      (xy 4.440833 -0.401740)
      (xy 4.440491 -0.446063)
      (xy 4.438804 -0.475420)
      (xy 4.434785 -0.494452)
      (xy 4.427443 -0.507794)
      (xy 4.415791 -0.520087)
      (xy 4.415555 -0.520309)
      (xy 4.407244 -0.527712)
      (xy 4.398348 -0.533425)
      (xy 4.386330 -0.537707)
      (xy 4.368658 -0.540814)
      (xy 4.342797 -0.543003)
      (xy 4.306211 -0.544533)
      (xy 4.256366 -0.545658)
      (xy 4.190729 -0.546638)
      (xy 4.150869 -0.547157)
      (xy 3.911462 -0.550239)
      (xy 3.735005 -0.550239)
      (xy 3.735005 -0.726605)
    )

    (stroke (width 0.000000) (type solid)) (fill solid) (layer "F.SilkS") (tstamp 97f2f4e6-231a-473a-b29f-18fe294c7637))
  (fp_poly
    (pts
      (xy 5.497027 -0.717292)
      (xy 5.526684 -0.699616)
      (xy 5.541953 -0.679290)
      (xy 5.546954 -0.665345)
      (xy 5.556783 -0.634161)
      (xy 5.570959 -0.587377)
      (xy 5.589003 -0.526628)
      (xy 5.610438 -0.453552)
      (xy 5.634783 -0.369786)
      (xy 5.661559 -0.276965)
      (xy 5.690289 -0.176728)
      (xy 5.720492 -0.070711)
      (xy 5.734420 -0.021612)
      (xy 5.769672 0.102901)
      (xy 5.799900 0.209940)
      (xy 5.825446 0.300889)
      (xy 5.846654 0.377131)
      (xy 5.863867 0.440050)
      (xy 5.877429 0.491030)
      (xy 5.887683 0.531453)
      (xy 5.894971 0.562703)
      (xy 5.899639 0.586164)
      (xy 5.902028 0.603219)
      (xy 5.902483 0.615252)
      (xy 5.901346 0.623646)
      (xy 5.898961 0.629784)
      (xy 5.896926 0.633187)
      (xy 5.869436 0.659706)
      (xy 5.834663 0.672053)
      (xy 5.798346 0.669853)
      (xy 5.766223 0.652732)
      (xy 5.756410 0.642364)
      (xy 5.746828 0.624561)
      (xy 5.733529 0.592301)
      (xy 5.718189 0.549978)
      (xy 5.702481 0.501986)
      (xy 5.700655 0.496069)
      (xy 5.662792 0.372521)
      (xy 5.468746 0.372521)
      (xy 5.274700 0.372521)
      (xy 5.234654 0.499540)
      (xy 5.216725 0.554457)
      (xy 5.202126 0.593857)
      (xy 5.189272 0.621199)
      (xy 5.176575 0.639946)
      (xy 5.164981 0.651489)
      (xy 5.129874 0.672211)
      (xy 5.095437 0.673806)
      (xy 5.073137 0.665099)
      (xy 5.043302 0.640857)
      (xy 5.029643 0.611173)
      (xy 5.029077 0.603472)
      (xy 5.031797 0.589472)
      (xy 5.039558 0.558630)
      (xy 5.051802 0.512863)
      (xy 5.067974 0.454088)
      (xy 5.087514 0.384222)
      (xy 5.109866 0.305182)
      (xy 5.134472 0.218887)
      (xy 5.141023 0.196064)
      (xy 5.324502 0.196064)
      (xy 5.465956 0.196064)
      (xy 5.516101 0.195584)
      (xy 5.558454 0.194265)
      (xy 5.589553 0.192285)
      (xy 5.605937 0.189825)
      (xy 5.607598 0.188711)
      (xy 5.605136 0.176066)
      (xy 5.598124 0.148231)
      (xy 5.587436 0.108260)
      (xy 5.573944 0.059207)
      (xy 5.558521 0.004124)
      (xy 5.542041 -0.053935)
      (xy 5.525376 -0.111918)
      (xy 5.509400 -0.166769)
      (xy 5.494986 -0.215437)
      (xy 5.483006 -0.254868)
      (xy 5.474334 -0.282008)
      (xy 5.469842 -0.293805)
      (xy 5.469561 -0.294065)
      (xy 5.465300 -0.285111)
      (xy 5.456720 -0.260169)
      (xy 5.444735 -0.222143)
      (xy 5.430260 -0.173940)
      (xy 5.414209 -0.118466)
      (xy 5.413277 -0.115187)
      (xy 5.395766 -0.053533)
      (xy 5.378655 0.006639)
      (xy 5.363230 0.060812)
      (xy 5.350776 0.104469)
      (xy 5.343500 0.129892)
      (xy 5.324502 0.196064)
      (xy 5.141023 0.196064)
      (xy 5.160776 0.127252)
      (xy 5.188219 0.032196)
      (xy 5.216244 -0.064364)
      (xy 5.244295 -0.160512)
      (xy 5.271813 -0.254329)
      (xy 5.298241 -0.343899)
      (xy 5.323022 -0.427305)
      (xy 5.345599 -0.502628)
      (xy 5.365414 -0.567953)
      (xy 5.381910 -0.621361)
      (xy 5.394529 -0.660936)
      (xy 5.402714 -0.684759)
      (xy 5.405330 -0.690796)
      (xy 5.430458 -0.713378)
      (xy 5.462987 -0.722045)
    )

    (stroke (width 0.000000) (type solid)) (fill solid) (layer "F.SilkS") (tstamp ba75ec83-b878-4c0c-82fd-5851b0d9f08d))
  (fp_poly
    (pts
      (xy 6.660749 -0.720442)
      (xy 6.715489 -0.720003)
      (xy 6.756499 -0.718960)
      (xy 6.786719 -0.717061)
      (xy 6.809085 -0.714051)
      (xy 6.826538 -0.709678)
      (xy 6.842015 -0.703686)
      (xy 6.854836 -0.697613)
      (xy 6.889847 -0.675685)
      (xy 6.924457 -0.646798)
      (xy 6.936835 -0.633893)
      (xy 6.951788 -0.612592)
      (xy 6.973175 -0.576601)
      (xy 6.999400 -0.529116)
      (xy 7.028867 -0.473335)
      (xy 7.059979 -0.412453)
      (xy 7.091140 -0.349666)
      (xy 7.120753 -0.288172)
      (xy 7.147222 -0.231166)
      (xy 7.168951 -0.181844)
      (xy 7.184343 -0.143403)
      (xy 7.189608 -0.127793)
      (xy 7.200383 -0.085460)
      (xy 7.206018 -0.045231)
      (xy 7.205886 -0.004573)
      (xy 7.199356 0.039048)
      (xy 7.185801 0.088163)
      (xy 7.164592 0.145306)
      (xy 7.135099 0.213008)
      (xy 7.096693 0.293802)
      (xy 7.072994 0.341824)
      (xy 7.031520 0.423757)
      (xy 6.996336 0.489645)
      (xy 6.965971 0.541449)
      (xy 6.938955 0.581128)
      (xy 6.913817 0.610643)
      (xy 6.889088 0.631954)
      (xy 6.863296 0.647021)
      (xy 6.836283 0.657397)
      (xy 6.813353 0.661596)
      (xy 6.775321 0.665263)
      (xy 6.725918 0.668327)
      (xy 6.668873 0.670721)
      (xy 6.607914 0.672374)
      (xy 6.546770 0.673219)
      (xy 6.489172 0.673186)
      (xy 6.438849 0.672207)
      (xy 6.399528 0.670212)
      (xy 6.374941 0.667133)
      (xy 6.371022 0.665998)
      (xy 6.343867 0.646063)
      (xy 6.327721 0.615227)
      (xy 6.323587 0.579449)
      (xy 6.332471 0.544690)
      (xy 6.347103 0.524024)
      (xy 6.363452 0.510549)
      (xy 6.382511 0.503235)
      (xy 6.410721 0.500325)
      (xy 6.435332 0.499962)
      (xy 6.499498 0.499962)
      (xy 6.499498 -0.024508)
      (xy 6.499498 -0.548977)
      (xy 6.675955 -0.548977)
      (xy 6.675955 -0.023294)
      (xy 6.675955 0.502390)
      (xy 6.729278 0.497968)
      (xy 6.762551 0.492974)
      (xy 6.789541 0.485016)
      (xy 6.799431 0.479598)
      (xy 6.808351 0.467167)
      (xy 6.824418 0.439697)
      (xy 6.846229 0.399793)
      (xy 6.872381 0.350062)
      (xy 6.901472 0.293108)
      (xy 6.922565 0.250880)
      (xy 6.959610 0.176293)
      (xy 6.988658 0.116116)
      (xy 7.009745 0.066871)
      (xy 7.022910 0.025084)
      (xy 7.028191 -0.012720)
      (xy 7.025626 -0.050017)
      (xy 7.015253 -0.090282)
      (xy 6.997109 -0.136991)
      (xy 6.971233 -0.193619)
      (xy 6.937661 -0.263642)
      (xy 6.928386 -0.282988)
      (xy 6.898682 -0.343983)
      (xy 6.870201 -0.400445)
      (xy 6.844486 -0.449469)
      (xy 6.823079 -0.488153)
      (xy 6.807521 -0.513595)
      (xy 6.801914 -0.521004)
      (xy 6.782371 -0.538453)
      (xy 6.760980 -0.546739)
      (xy 6.729307 -0.548967)
      (xy 6.725939 -0.548977)
      (xy 6.675955 -0.548977)
      (xy 6.499498 -0.548977)
      (xy 6.446042 -0.548977)
      (xy 6.394732 -0.553061)
      (xy 6.359162 -0.565914)
      (xy 6.337112 -0.588442)
      (xy 6.333925 -0.594633)
      (xy 6.323685 -0.635382)
      (xy 6.332488 -0.672324)
      (xy 6.346714 -0.693027)
      (xy 6.370386 -0.720532)
      (xy 6.589342 -0.720532)
    )

    (stroke (width 0.000000) (type solid)) (fill solid) (layer "F.SilkS") (tstamp d977d622-88f0-4e5c-8f84-f42345e3fc27))
  (fp_poly
    (pts
      (xy 8.226040 -0.724004)
      (xy 8.287742 -0.723545)
      (xy 8.337137 -0.722799)
      (xy 8.371816 -0.721783)
      (xy 8.389370 -0.720516)
      (xy 8.389605 -0.720475)
      (xy 8.428271 -0.705815)
      (xy 8.451756 -0.678752)
      (xy 8.460109 -0.639223)
      (xy 8.460131 -0.636760)
      (xy 8.454925 -0.601206)
      (xy 8.437080 -0.574063)
      (xy 8.436068 -0.573039)
      (xy 8.426222 -0.563923)
      (xy 8.415646 -0.557458)
      (xy 8.400998 -0.553191)
      (xy 8.378938 -0.550665)
      (xy 8.346125 -0.549425)
      (xy 8.299216 -0.549014)
      (xy 8.259611 -0.548977)
      (xy 8.107217 -0.548977)
      (xy 8.107217 -0.024508)
      (xy 8.107217 0.499962)
      (xy 8.259611 0.499962)
      (xy 8.317466 0.500077)
      (xy 8.359055 0.500726)
      (xy 8.387721 0.502365)
      (xy 8.406803 0.505450)
      (xy 8.419644 0.510435)
      (xy 8.429584 0.517777)
      (xy 8.436068 0.524024)
      (xy 8.456101 0.555627)
      (xy 8.460131 0.583487)
      (xy 8.455323 0.623147)
      (xy 8.439292 0.649227)
      (xy 8.409859 0.665584)
      (xy 8.391012 0.668709)
      (xy 8.355680 0.671324)
      (xy 8.306567 0.673434)
      (xy 8.246381 0.675044)
      (xy 8.177824 0.676162)
      (xy 8.103604 0.676793)
      (xy 8.026424 0.676943)
      (xy 7.948991 0.676617)
      (xy 7.874010 0.675823)
      (xy 7.804186 0.674564)
      (xy 7.742224 0.672848)
      (xy 7.690829 0.670681)
      (xy 7.652707 0.668067)
      (xy 7.630563 0.665014)
      (xy 7.627158 0.663878)
      (xy 7.595920 0.638374)
      (xy 7.581019 0.603148)
      (xy 7.583235 0.562434)
      (xy 7.590367 0.540671)
      (xy 7.601235 0.524616)
      (xy 7.618616 0.513416)
      (xy 7.645285 0.506219)
      (xy 7.684018 0.502172)
      (xy 7.737593 0.500422)
      (xy 7.786163 0.500106)
      (xy 7.930760 0.499962)
      (xy 7.930760 -0.023833)
      (xy 7.930760 -0.547628)
      (xy 7.774233 -0.550753)
      (xy 7.709877 -0.552372)
      (xy 7.662380 -0.554984)
      (xy 7.628993 -0.559633)
      (xy 7.606969 -0.567365)
      (xy 7.593561 -0.579226)
      (xy 7.586020 -0.596259)
      (xy 7.581598 -0.619512)
      (xy 7.580942 -0.624282)
      (xy 7.580063 -0.654578)
      (xy 7.589672 -0.677972)
      (xy 7.600443 -0.691802)
      (xy 7.625147 -0.720532)
      (xy 7.991172 -0.723472)
      (xy 8.075346 -0.723985)
      (xy 8.154438 -0.724156)
    )

    (stroke (width 0.000000) (type solid)) (fill solid) (layer "F.SilkS") (tstamp c85c3fd7-cc07-4617-b584-9f4b1a800e84))
  (fp_poly
    (pts
      (xy 9.287020 -0.718705)
      (xy 9.334387 -0.700941)
      (xy 9.378206 -0.675777)
      (xy 9.401689 -0.656357)
      (xy 9.418130 -0.635224)
      (xy 9.440983 -0.599309)
      (xy 9.468654 -0.551727)
      (xy 9.499550 -0.495592)
      (xy 9.532077 -0.434019)
      (xy 9.564642 -0.370124)
      (xy 9.595649 -0.307020)
      (xy 9.623507 -0.247824)
      (xy 9.646620 -0.195650)
      (xy 9.663395 -0.153612)
      (xy 9.671035 -0.129941)
      (xy 9.684037 -0.047460)
      (xy 9.681198 0.034769)
      (xy 9.669822 0.088535)
      (xy 9.660464 0.113693)
      (xy 9.643658 0.152656)
      (xy 9.621009 0.202175)
      (xy 9.594122 0.259000)
      (xy 9.564601 0.319882)
      (xy 9.534053 0.381570)
      (xy 9.504080 0.440815)
      (xy 9.476290 0.494367)
      (xy 9.452286 0.538976)
      (xy 9.433673 0.571393)
      (xy 9.424389 0.585521)
      (xy 9.383670 0.624641)
      (xy 9.331079 0.653451)
      (xy 9.272528 0.669891)
      (xy 9.213932 0.671899)
      (xy 9.189076 0.667533)
      (xy 9.140992 0.648015)
      (xy 9.095085 0.616913)
      (xy 9.063837 0.584810)
      (xy 9.050313 0.563545)
      (xy 9.030219 0.527703)
      (xy 9.005155 0.480531)
      (xy 8.976724 0.425275)
      (xy 8.946527 0.365181)
      (xy 8.916166 0.303494)
      (xy 8.887242 0.243460)
      (xy 8.861358 0.188325)
      (xy 8.840115 0.141335)
      (xy 8.825115 0.105736)
      (xy 8.818945 0.088535)
      (xy 8.809296 0.034311)
      (xy 8.977680 0.034311)
      (xy 9.090755 0.261194)
      (xy 9.121784 0.322679)
      (xy 9.150559 0.378236)
      (xy 9.175782 0.425471)
      (xy 9.196150 0.461989)
      (xy 9.210364 0.485395)
      (xy 9.216754 0.493246)
      (xy 9.249450 0.498622)
      (xy 9.268924 0.493691)
      (xy 9.277574 0.483512)
      (xy 9.293443 0.458111)
      (xy 9.315189 0.419904)
      (xy 9.341473 0.371307)
      (xy 9.370951 0.314737)
      (xy 9.398177 0.260866)
      (xy 9.511088 0.034311)
      (xy 9.506646 -0.034311)
      (xy 9.504734 -0.056816)
      (xy 9.501403 -0.077801)
      (xy 9.495570 -0.100001)
      (xy 9.486153 -0.126147)
      (xy 9.472065 -0.158972)
      (xy 9.452225 -0.201211)
      (xy 9.425548 -0.255595)
      (xy 9.393243 -0.320284)
      (xy 9.352906 -0.400532)
      (xy 9.319880 -0.463407)
      (xy 9.292391 -0.508908)
      (xy 9.268663 -0.537035)
      (xy 9.246922 -0.547789)
      (xy 9.225392 -0.541170)
      (xy 9.202298 -0.517176)
      (xy 9.175865 -0.475809)
      (xy 9.144317 -0.417069)
      (xy 9.105881 -0.340955)
      (xy 9.095525 -0.320284)
      (xy 9.061427 -0.251980)
      (xy 9.035186 -0.198393)
      (xy 9.015717 -0.156790)
      (xy 9.001937 -0.124436)
      (xy 8.992762 -0.098601)
      (xy 8.987108 -0.076550)
      (xy 8.983892 -0.055550)
      (xy 8.982122 -0.034311)
      (xy 8.977680 0.034311)
      (xy 8.809296 0.034311)
      (xy 8.805052 0.010464)
      (xy 8.806974 -0.072545)
      (xy 8.817733 -0.129941)
      (xy 8.828485 -0.161954)
      (xy 8.846812 -0.206523)
      (xy 8.871122 -0.260534)
      (xy 8.899821 -0.320872)
      (xy 8.931314 -0.384422)
      (xy 8.964008 -0.448070)
      (xy 8.996309 -0.508699)
      (xy 9.026624 -0.563195)
      (xy 9.053358 -0.608444)
      (xy 9.074918 -0.641331)
      (xy 9.087078 -0.656357)
      (xy 9.123786 -0.684470)
      (xy 9.169652 -0.707647)
      (xy 9.216399 -0.722253)
      (xy 9.244384 -0.725434)
    )

    (stroke (width 0.000000) (type solid)) (fill solid) (layer "F.SilkS") (tstamp 922d4b0a-60ad-41cf-92bc-844489e61185))
  (fp_poly
    (pts
      (xy 10.602785 -0.178907)
      (xy 10.837398 0.367619)
      (xy 10.842300 -0.154135)
      (xy 10.843386 -0.268479)
      (xy 10.844368 -0.364833)
      (xy 10.845324 -0.444812)
      (xy 10.846333 -0.510033)
      (xy 10.847474 -0.562109)
      (xy 10.848824 -0.602658)
      (xy 10.850462 -0.633294)
      (xy 10.852467 -0.655634)
      (xy 10.854916 -0.671291)
      (xy 10.857888 -0.681883)
      (xy 10.861461 -0.689024)
      (xy 10.865714 -0.694330)
      (xy 10.868642 -0.697322)
      (xy 10.889523 -0.711863)
      (xy 10.917893 -0.717680)
      (xy 10.936973 -0.718046)
      (xy 10.952472 -0.718220)
      (xy 10.965888 -0.718368)
      (xy 10.977370 -0.717173)
      (xy 10.987067 -0.713319)
      (xy 10.995130 -0.705489)
      (xy 11.001708 -0.692367)
      (xy 11.006952 -0.672638)
      (xy 11.011009 -0.644984)
      (xy 11.014031 -0.608089)
      (xy 11.016167 -0.560638)
      (xy 11.017566 -0.501314)
      (xy 11.018379 -0.428801)
      (xy 11.018755 -0.341781)
      (xy 11.018844 -0.238941)
      (xy 11.018795 -0.118962)
      (xy 11.018757 0.001086)
      (xy 11.018757 0.676419)
      (xy 10.903452 0.676419)
      (xy 10.788148 0.676419)
      (xy 10.552989 0.135927)
      (xy 10.317831 -0.404565)
      (xy 10.312929 0.108968)
      (xy 10.311836 0.207895)
      (xy 10.310519 0.301175)
      (xy 10.309023 0.386917)
      (xy 10.307396 0.463229)
      (xy 10.305684 0.528220)
      (xy 10.303934 0.579997)
      (xy 10.302192 0.616670)
      (xy 10.300505 0.636346)
      (xy 10.299889 0.638972)
      (xy 10.284329 0.653947)
      (xy 10.257707 0.667207)
      (xy 10.228466 0.675048)
      (xy 10.215885 0.675797)
      (xy 10.194236 0.671698)
      (xy 10.178776 0.666547)
      (xy 10.156925 0.651287)
      (xy 10.146916 0.638403)
      (xy 10.144562 0.624993)
      (xy 10.142517 0.593964)
      (xy 10.140777 0.545050)
      (xy 10.139337 0.477987)
      (xy 10.138194 0.392508)
      (xy 10.137344 0.288350)
      (xy 10.136782 0.165247)
      (xy 10.136505 0.022934)
      (xy 10.136472 -0.053273)
      (xy 10.136472 -0.725434)
      (xy 10.252322 -0.725434)
      (xy 10.368172 -0.725434)
    )

    (stroke (width 0.000000) (type solid)) (fill solid) (layer "F.SilkS") (tstamp f7463cb9-019c-4e8d-b2db-0b2d807f9129))
  (fp_poly
    (pts
      (xy 11.898493 -0.717292)
      (xy 11.928151 -0.699616)
      (xy 11.943420 -0.679290)
      (xy 11.948421 -0.665345)
      (xy 11.958249 -0.634161)
      (xy 11.972425 -0.587377)
      (xy 11.990470 -0.526628)
      (xy 12.011904 -0.453552)
      (xy 12.036249 -0.369786)
      (xy 12.063026 -0.276965)
      (xy 12.091755 -0.176728)
      (xy 12.121958 -0.070711)
      (xy 12.135887 -0.021612)
      (xy 12.171139 0.102901)
      (xy 12.201367 0.209940)
      (xy 12.226913 0.300889)
      (xy 12.248121 0.377131)
      (xy 12.265334 0.440050)
      (xy 12.278896 0.491030)
      (xy 12.289149 0.531453)
      (xy 12.296438 0.562703)
      (xy 12.301105 0.586164)
      (xy 12.303495 0.603219)
      (xy 12.303949 0.615252)
      (xy 12.302813 0.623646)
      (xy 12.300428 0.629784)
      (xy 12.298393 0.633187)
      (xy 12.270902 0.659706)
      (xy 12.236130 0.672053)
      (xy 12.199813 0.669853)
      (xy 12.167690 0.652732)
      (xy 12.157877 0.642364)
      (xy 12.148295 0.624561)
      (xy 12.134996 0.592301)
      (xy 12.119655 0.549978)
      (xy 12.103947 0.501986)
      (xy 12.102122 0.496069)
      (xy 12.064258 0.372521)
      (xy 11.870213 0.372521)
      (xy 11.676167 0.372521)
      (xy 11.636121 0.499540)
      (xy 11.618191 0.554457)
      (xy 11.603593 0.593857)
      (xy 11.590739 0.621199)
      (xy 11.578041 0.639946)
      (xy 11.566448 0.651489)
      (xy 11.531341 0.672211)
      (xy 11.496903 0.673806)
      (xy 11.474604 0.665099)
      (xy 11.444769 0.640857)
      (xy 11.431110 0.611173)
      (xy 11.430544 0.603472)
      (xy 11.433264 0.589472)
      (xy 11.441024 0.558630)
      (xy 11.453269 0.512863)
      (xy 11.469440 0.454088)
      (xy 11.488980 0.384222)
      (xy 11.511332 0.305182)
      (xy 11.535939 0.218887)
      (xy 11.542490 0.196064)
      (xy 11.725969 0.196064)
      (xy 11.867422 0.196064)
      (xy 11.917568 0.195584)
      (xy 11.959920 0.194265)
      (xy 11.991019 0.192285)
      (xy 12.007404 0.189825)
      (xy 12.009065 0.188711)
      (xy 12.006603 0.176066)
      (xy 11.999591 0.148231)
      (xy 11.988902 0.108260)
      (xy 11.975410 0.059207)
      (xy 11.959988 0.004124)
      (xy 11.943508 -0.053935)
      (xy 11.926843 -0.111918)
      (xy 11.910867 -0.166769)
      (xy 11.896453 -0.215437)
      (xy 11.884473 -0.254868)
      (xy 11.875800 -0.282008)
      (xy 11.871308 -0.293805)
      (xy 11.871028 -0.294065)
      (xy 11.866767 -0.285111)
      (xy 11.858187 -0.260169)
      (xy 11.846202 -0.222143)
      (xy 11.831727 -0.173940)
      (xy 11.815675 -0.118466)
      (xy 11.814744 -0.115187)
      (xy 11.797233 -0.053533)
      (xy 11.780122 0.006639)
      (xy 11.764696 0.060812)
      (xy 11.752243 0.104469)
      (xy 11.744967 0.129892)
      (xy 11.725969 0.196064)
      (xy 11.542490 0.196064)
      (xy 11.562242 0.127252)
      (xy 11.589686 0.032196)
      (xy 11.617711 -0.064364)
      (xy 11.645761 -0.160512)
      (xy 11.673280 -0.254329)
      (xy 11.699708 -0.343899)
      (xy 11.724489 -0.427305)
      (xy 11.747066 -0.502628)
      (xy 11.766881 -0.567953)
      (xy 11.783377 -0.621361)
      (xy 11.795996 -0.660936)
      (xy 11.804181 -0.684759)
      (xy 11.806796 -0.690796)
      (xy 11.831924 -0.713378)
      (xy 11.864454 -0.722045)
    )

    (stroke (width 0.000000) (type solid)) (fill solid) (layer "F.SilkS") (tstamp 8538b7d1-380f-40b8-91f3-d4b1032e784d))
  (fp_poly
    (pts
      (xy 13.972933 -0.718705)
      (xy 14.020300 -0.700941)
      (xy 14.064119 -0.675777)
      (xy 14.087602 -0.656357)
      (xy 14.104043 -0.635224)
      (xy 14.126896 -0.599309)
      (xy 14.154567 -0.551727)
      (xy 14.185463 -0.495592)
      (xy 14.217990 -0.434019)
      (xy 14.250554 -0.370124)
      (xy 14.281562 -0.307020)
      (xy 14.309419 -0.247824)
      (xy 14.332533 -0.195650)
      (xy 14.349308 -0.153612)
      (xy 14.356948 -0.129941)
      (xy 14.369950 -0.047460)
      (xy 14.367111 0.034769)
      (xy 14.355735 0.088535)
      (xy 14.346377 0.113693)
      (xy 14.329571 0.152656)
      (xy 14.306922 0.202175)
      (xy 14.280035 0.259000)
      (xy 14.250514 0.319882)
      (xy 14.219965 0.381570)
      (xy 14.189993 0.440815)
      (xy 14.162203 0.494367)
      (xy 14.138198 0.538976)
      (xy 14.119585 0.571393)
      (xy 14.110302 0.585521)
      (xy 14.069583 0.624641)
      (xy 14.016991 0.653451)
      (xy 13.958441 0.669891)
      (xy 13.899845 0.671899)
      (xy 13.874989 0.667533)
      (xy 13.826904 0.648015)
      (xy 13.780997 0.616913)
      (xy 13.749750 0.584810)
      (xy 13.736226 0.563545)
      (xy 13.716132 0.527703)
      (xy 13.691068 0.480531)
      (xy 13.662637 0.425275)
      (xy 13.632440 0.365181)
      (xy 13.602079 0.303494)
      (xy 13.573155 0.243460)
      (xy 13.547271 0.188325)
      (xy 13.526028 0.141335)
      (xy 13.511027 0.105736)
      (xy 13.504858 0.088535)
      (xy 13.495209 0.034311)
      (xy 13.663593 0.034311)
      (xy 13.776667 0.261194)
      (xy 13.807696 0.322679)
      (xy 13.836472 0.378236)
      (xy 13.861695 0.425471)
      (xy 13.882063 0.461989)
      (xy 13.896277 0.485395)
      (xy 13.902667 0.493246)
      (xy 13.935363 0.498622)
      (xy 13.954837 0.493691)
      (xy 13.963487 0.483512)
      (xy 13.979355 0.458111)
      (xy 14.001102 0.419904)
      (xy 14.027385 0.371307)
      (xy 14.056863 0.314737)
      (xy 14.084089 0.260866)
      (xy 14.197001 0.034311)
      (xy 14.192559 -0.034311)
      (xy 14.190646 -0.056816)
      (xy 14.187316 -0.077801)
      (xy 14.181483 -0.100001)
      (xy 14.172065 -0.126147)
      (xy 14.157978 -0.158972)
      (xy 14.138138 -0.201211)
      (xy 14.111460 -0.255595)
      (xy 14.079155 -0.320284)
      (xy 14.038818 -0.400532)
      (xy 14.005793 -0.463407)
      (xy 13.978304 -0.508908)
      (xy 13.954576 -0.537035)
      (xy 13.932835 -0.547789)
      (xy 13.911305 -0.541170)
      (xy 13.888210 -0.517176)
      (xy 13.861777 -0.475809)
      (xy 13.830230 -0.417069)
      (xy 13.791794 -0.340955)
      (xy 13.781438 -0.320284)
      (xy 13.747340 -0.251980)
      (xy 13.721099 -0.198393)
      (xy 13.701630 -0.156790)
      (xy 13.687850 -0.124436)
      (xy 13.678675 -0.098601)
      (xy 13.673021 -0.076550)
      (xy 13.669805 -0.055550)
      (xy 13.668035 -0.034311)
      (xy 13.663593 0.034311)
      (xy 13.495209 0.034311)
      (xy 13.490965 0.010464)
      (xy 13.492887 -0.072545)
      (xy 13.503646 -0.129941)
      (xy 13.514397 -0.161954)
      (xy 13.532725 -0.206523)
      (xy 13.557035 -0.260534)
      (xy 13.585734 -0.320872)
      (xy 13.617227 -0.384422)
      (xy 13.649921 -0.448070)
      (xy 13.682222 -0.508699)
      (xy 13.712537 -0.563195)
      (xy 13.739271 -0.608444)
      (xy 13.760831 -0.641331)
      (xy 13.772991 -0.656357)
      (xy 13.809699 -0.684470)
      (xy 13.855565 -0.707647)
      (xy 13.902312 -0.722253)
      (xy 13.930297 -0.725434)
    )

    (stroke (width 0.000000) (type solid)) (fill solid) (layer "F.SilkS") (tstamp 45d01e0d-72bc-4c5c-b2c5-40ef22c9ac2a))
  (fp_poly
    (pts
      (xy 15.118930 -0.723569)
      (xy 15.209123 -0.722713)
      (xy 15.281939 -0.721847)
      (xy 15.339604 -0.720825)
      (xy 15.384348 -0.719497)
      (xy 15.418398 -0.717715)
      (xy 15.443982 -0.715331)
      (xy 15.463329 -0.712196)
      (xy 15.478666 -0.708164)
      (xy 15.492222 -0.703085)
      (xy 15.503705 -0.697973)
      (xy 15.566629 -0.659360)
      (xy 15.616599 -0.608385)
      (xy 15.638826 -0.573485)
      (xy 15.649414 -0.548498)
      (xy 15.656570 -0.518003)
      (xy 15.661171 -0.477009)
      (xy 15.663651 -0.432072)
      (xy 15.664520 -0.358879)
      (xy 15.659866 -0.300942)
      (xy 15.648815 -0.254469)
      (xy 15.630494 -0.215669)
      (xy 15.606309 -0.183311)
      (xy 15.573432 -0.150059)
      (xy 15.539404 -0.125770)
      (xy 15.500205 -0.108993)
      (xy 15.451818 -0.098274)
      (xy 15.390222 -0.092163)
      (xy 15.348708 -0.090220)
      (xy 15.291914 -0.087595)
      (xy 15.253559 -0.084219)
      (xy 15.232488 -0.079946)
      (xy 15.227470 -0.074796)
      (xy 15.233885 -0.064499)
      (xy 15.250273 -0.039968)
      (xy 15.275377 -0.003036)
      (xy 15.307938 0.044460)
      (xy 15.346697 0.100685)
      (xy 15.390395 0.163804)
      (xy 15.437775 0.231982)
      (xy 15.443482 0.240178)
      (xy 15.499204 0.320817)
      (xy 15.548147 0.392934)
      (xy 15.589451 0.455202)
      (xy 15.622260 0.506298)
      (xy 15.645716 0.544898)
      (xy 15.658959 0.569676)
      (xy 15.661558 0.576817)
      (xy 15.659912 0.612796)
      (xy 15.643128 0.643124)
      (xy 15.615551 0.664335)
      (xy 15.581527 0.672961)
      (xy 15.548610 0.666943)
      (xy 15.538165 0.659162)
      (xy 15.521708 0.641551)
      (xy 15.498538 0.613172)
      (xy 15.467956 0.573091)
      (xy 15.429263 0.520370)
      (xy 15.381758 0.454074)
      (xy 15.324742 0.373266)
      (xy 15.262366 0.283981)
      (xy 15.199525 0.193940)
      (xy 15.146767 0.118916)
      (xy 15.103176 0.057693)
      (xy 15.067834 0.009059)
      (xy 15.039827 -0.028200)
      (xy 15.018236 -0.055300)
      (xy 15.002147 -0.073454)
      (xy 14.990642 -0.083876)
      (xy 14.982805 -0.087779)
      (xy 14.981686 -0.087884)
      (xy 14.959629 -0.088228)
      (xy 14.959629 0.253420)
      (xy 14.959322 0.352357)
      (xy 14.958423 0.438081)
      (xy 14.956968 0.509337)
      (xy 14.954991 0.564867)
      (xy 14.952527 0.603417)
      (xy 14.949610 0.623729)
      (xy 14.949338 0.624589)
      (xy 14.929616 0.654193)
      (xy 14.898037 0.671472)
      (xy 14.859110 0.674898)
      (xy 14.825476 0.666547)
      (xy 14.803625 0.651287)
      (xy 14.793616 0.638403)
      (xy 14.791263 0.624997)
      (xy 14.789219 0.593975)
      (xy 14.787479 0.545072)
      (xy 14.786040 0.478022)
      (xy 14.784897 0.392560)
      (xy 14.784046 0.288421)
      (xy 14.783484 0.165338)
      (xy 14.783206 0.023046)
      (xy 14.783172 -0.053858)
      (xy 14.783172 -0.550239)
      (xy 14.959629 -0.550239)
      (xy 14.959629 -0.406983)
      (xy 14.959629 -0.263727)
      (xy 15.203698 -0.266657)
      (xy 15.279732 -0.267672)
      (xy 15.338616 -0.268800)
      (xy 15.382807 -0.270242)
      (xy 15.414764 -0.272198)
      (xy 15.436942 -0.274869)
      (xy 15.451798 -0.278455)
      (xy 15.461790 -0.283156)
      (xy 15.468384 -0.288262)
      (xy 15.478074 -0.299163)
      (xy 15.484176 -0.313517)
      (xy 15.487490 -0.335739)
      (xy 15.488820 -0.370242)
      (xy 15.489000 -0.401740)
      (xy 15.488657 -0.446063)
      (xy 15.486971 -0.475420)
      (xy 15.482951 -0.494452)
      (xy 15.475610 -0.507794)
      (xy 15.463958 -0.520087)
      (xy 15.463722 -0.520309)
      (xy 15.455411 -0.527712)
      (xy 15.446514 -0.533425)
      (xy 15.434497 -0.537707)
      (xy 15.416825 -0.540814)
      (xy 15.390963 -0.543003)
      (xy 15.354378 -0.544533)
      (xy 15.304533 -0.545658)
      (xy 15.238896 -0.546638)
      (xy 15.199036 -0.547157)
      (xy 14.959629 -0.550239)
      (xy 14.783172 -0.550239)
      (xy 14.783172 -0.726605)
    )

    (stroke (width 0.000000) (type solid)) (fill solid) (layer "F.SilkS") (tstamp 034f3b97-163d-4779-bff1-d42974062b1c))
  (fp_poly
    (pts
      (xy 16.835981 -0.723734)
      (xy 16.879016 -0.720050)
      (xy 16.909747 -0.713254)
      (xy 16.930578 -0.702928)
      (xy 16.943913 -0.688655)
      (xy 16.948057 -0.680949)
      (xy 16.959100 -0.638180)
      (xy 16.952922 -0.599294)
      (xy 16.935412 -0.573039)
      (xy 16.926011 -0.564267)
      (xy 16.915955 -0.557937)
      (xy 16.902091 -0.553650)
      (xy 16.881266 -0.551009)
      (xy 16.850326 -0.549615)
      (xy 16.806118 -0.549070)
      (xy 16.745488 -0.548977)
      (xy 16.744797 -0.548977)
      (xy 16.683726 -0.548848)
      (xy 16.639078 -0.548219)
      (xy 16.607668 -0.546721)
      (xy 16.586315 -0.543989)
      (xy 16.571833 -0.539656)
      (xy 16.561041 -0.533355)
      (xy 16.553228 -0.526920)
      (xy 16.539593 -0.512535)
      (xy 16.516274 -0.485388)
      (xy 16.485555 -0.448246)
      (xy 16.449719 -0.403874)
      (xy 16.411051 -0.355041)
      (xy 16.405546 -0.348012)
      (xy 16.356283 -0.283864)
      (xy 16.318964 -0.232509)
      (xy 16.292405 -0.192178)
      (xy 16.275424 -0.161103)
      (xy 16.268264 -0.142817)
      (xy 16.263584 -0.122897)
      (xy 16.259949 -0.096244)
      (xy 16.257252 -0.060533)
      (xy 16.255386 -0.013440)
      (xy 16.254242 0.047359)
      (xy 16.253714 0.124189)
      (xy 16.253647 0.172788)
      (xy 16.253647 0.440049)
      (xy 16.277306 0.467555)
      (xy 16.300965 0.495060)
      (xy 16.516694 0.495060)
      (xy 16.587013 0.495011)
      (xy 16.640424 0.494687)
      (xy 16.679624 0.493822)
      (xy 16.707312 0.492149)
      (xy 16.726185 0.489403)
      (xy 16.738942 0.485318)
      (xy 16.748280 0.479628)
      (xy 16.756898 0.472066)
      (xy 16.757720 0.471294)
      (xy 16.768483 0.460264)
      (xy 16.775661 0.448552)
      (xy 16.779978 0.432154)
      (xy 16.782159 0.407066)
      (xy 16.782929 0.369284)
      (xy 16.783018 0.331599)
      (xy 16.783018 0.215670)
      (xy 16.685447 0.215670)
      (xy 16.640931 0.214578)
      (xy 16.601513 0.211645)
      (xy 16.572852 0.207386)
      (xy 16.563570 0.204595)
      (xy 16.537887 0.183233)
      (xy 16.523967 0.151675)
      (xy 16.522403 0.115840)
      (xy 16.533790 0.081645)
      (xy 16.549302 0.062287)
      (xy 16.558033 0.055993)
      (xy 16.570297 0.051231)
      (xy 16.588872 0.047727)
      (xy 16.616532 0.045207)
      (xy 16.656055 0.043400)
      (xy 16.710218 0.042033)
      (xy 16.765095 0.041086)
      (xy 16.960834 0.038058)
      (xy 16.957703 0.257496)
      (xy 16.954573 0.476934)
      (xy 16.925164 0.533747)
      (xy 16.900908 0.574195)
      (xy 16.872944 0.606562)
      (xy 16.838982 0.631638)
      (xy 16.796731 0.650210)
      (xy 16.743900 0.663068)
      (xy 16.678199 0.670999)
      (xy 16.597338 0.674792)
      (xy 16.513822 0.675345)
      (xy 16.452230 0.674579)
      (xy 16.394653 0.673106)
      (xy 16.345043 0.671084)
      (xy 16.307353 0.668673)
      (xy 16.286256 0.666180)
      (xy 16.230578 0.649194)
      (xy 16.182204 0.620029)
      (xy 16.145341 0.586534)
      (xy 16.127460 0.566966)
      (xy 16.112997 0.547371)
      (xy 16.101593 0.525481)
      (xy 16.092889 0.499030)
      (xy 16.086524 0.465749)
      (xy 16.082139 0.423373)
      (xy 16.079374 0.369634)
      (xy 16.077871 0.302265)
      (xy 16.077268 0.218998)
      (xy 16.077190 0.156851)
      (xy 16.077110 0.063585)
      (xy 16.077509 -0.013065)
      (xy 16.079345 -0.076084)
      (xy 16.083575 -0.128456)
      (xy 16.091158 -0.173165)
      (xy 16.103050 -0.213196)
      (xy 16.120211 -0.251534)
      (xy 16.143597 -0.291163)
      (xy 16.174166 -0.335068)
      (xy 16.212877 -0.386232)
      (xy 16.260687 -0.447642)
      (xy 16.278537 -0.470552)
      (xy 16.331942 -0.538832)
      (xy 16.376105 -0.593223)
      (xy 16.413765 -0.635356)
      (xy 16.447663 -0.666862)
      (xy 16.480538 -0.689371)
      (xy 16.515128 -0.704514)
      (xy 16.554174 -0.713922)
      (xy 16.600415 -0.719224)
      (xy 16.656591 -0.722053)
      (xy 16.703379 -0.723436)
      (xy 16.778237 -0.724724)
    )

    (stroke (width 0.000000) (type solid)) (fill solid) (layer "F.SilkS") (tstamp f65671a0-d594-46e3-9081-5c49eda76e16))
  (fp_poly
    (pts
      (xy -2.530798 0.286003)
      (xy -2.482528 0.287599)
      (xy -2.449749 0.289717)
      (xy -2.428353 0.293293)
      (xy -2.414228 0.299263)
      (xy -2.403264 0.308563)
      (xy -2.396004 0.316699)
      (xy -2.385086 0.331089)
      (xy -2.378153 0.346669)
      (xy -2.374315 0.368161)
      (xy -2.372684 0.400284)
      (xy -2.372366 0.442176)
      (xy -2.374622 0.505644)
      (xy -2.381733 0.551836)
      (xy -2.394214 0.582597)
      (xy -2.412581 0.599773)
      (xy -2.416920 0.601707)
      (xy -2.436849 0.605370)
      (xy -2.470311 0.607543)
      (xy -2.512548 0.608336)
      (xy -2.558804 0.607856)
      (xy -2.604321 0.606211)
      (xy -2.644343 0.603509)
      (xy -2.674112 0.599858)
      (xy -2.688654 0.595543)
      (xy -2.706834 0.573496)
      (xy -2.718539 0.538610)
      (xy -2.724362 0.488527)
      (xy -2.725280 0.449993)
      (xy -2.721757 0.386144)
      (xy -2.710879 0.339362)
      (xy -2.692190 0.308363)
      (xy -2.669386 0.293293)
      (xy -2.647533 0.289062)
      (xy -2.610938 0.286375)
      (xy -2.564425 0.285487)
    )

    (stroke (width 0.000000) (type solid)) (fill solid) (layer "F.SilkS") (tstamp 7c37b8d8-4adc-4563-addb-429d9bbd2814))
  (fp_poly
    (pts
      (xy 12.968006 0.286003)
      (xy 13.016276 0.287599)
      (xy 13.049054 0.289717)
      (xy 13.070451 0.293293)
      (xy 13.084576 0.299263)
      (xy 13.095539 0.308563)
      (xy 13.102800 0.316699)
      (xy 13.113717 0.331089)
      (xy 13.120651 0.346669)
      (xy 13.124488 0.368161)
      (xy 13.126120 0.400284)
      (xy 13.126437 0.442176)
      (xy 13.124181 0.505644)
      (xy 13.117071 0.551836)
      (xy 13.104589 0.582597)
      (xy 13.086223 0.599773)
      (xy 13.081884 0.601707)
      (xy 13.061954 0.605370)
      (xy 13.028492 0.607543)
      (xy 12.986255 0.608336)
      (xy 12.940000 0.607856)
      (xy 12.894483 0.606211)
      (xy 12.854461 0.603509)
      (xy 12.824691 0.599858)
      (xy 12.810149 0.595543)
      (xy 12.791970 0.573496)
      (xy 12.780265 0.538610)
      (xy 12.774441 0.488527)
      (xy 12.773523 0.449993)
      (xy 12.777047 0.386144)
      (xy 12.787924 0.339362)
      (xy 12.806613 0.308363)
      (xy 12.829417 0.293293)
      (xy 12.851271 0.289062)
      (xy 12.887866 0.286375)
      (xy 12.934378 0.285487)
    )

    (stroke (width 0.000000) (type solid)) (fill solid) (layer "F.SilkS") (tstamp 49d47f42-7542-4777-966c-62b131f0cc41))
)
