(footprint "LOGO" (version 20221018) (generator bitmap2component)
  (layer "F.Cu")
  (attr board_only exclude_from_pos_files exclude_from_bom)
  (fp_text reference "G***" (at 0 0) (layer "F.SilkS")
      (effects (font (size 1.5 1.5) (thickness 0.3)))
    (tstamp 0d9ca335-0109-4022-a227-6880c5875630)
  )
  (fp_text value "LOGO" (at 0.75 0) (layer "F.SilkS") hide
      (effects (font (size 1.5 1.5) (thickness 0.3)))
    (tstamp 5a104eba-bbc1-406f-8e56-eb68ea2b405c)
  )
  (fp_poly
    (pts
      (xy -0.612426 -1.776478)
      (xy -0.573763 -1.774487)
      (xy -0.550633 -1.771192)
      (xy -0.529364 -1.765492)
      (xy -0.529369 -1.504276)
      (xy -0.529373 -1.243060)
      (xy -0.697158 -1.243060)
      (xy -0.776896 -1.242277)
      (xy -0.842906 -1.239432)
      (xy -0.900323 -1.233777)
      (xy -0.954279 -1.224565)
      (xy -1.009908 -1.211049)
      (xy -1.072342 -1.192482)
      (xy -1.095335 -1.185113)
      (xy -1.234329 -1.130219)
      (xy -1.365238 -1.059007)
      (xy -1.486650 -0.972843)
      (xy -1.597156 -0.873097)
      (xy -1.695346 -0.761136)
      (xy -1.779809 -0.638331)
      (xy -1.849135 -0.506048)
      (xy -1.883892 -0.419888)
      (xy -1.913226 -0.327936)
      (xy -1.933590 -0.238203)
      (xy -1.945954 -0.144672)
      (xy -1.951289 -0.041328)
      (xy -1.951677 0.000000)
      (xy -1.951166 0.066182)
      (xy -1.949332 0.118751)
      (xy -1.945719 0.162979)
      (xy -1.939872 0.204139)
      (xy -1.931336 0.247504)
      (xy -1.929667 0.255105)
      (xy -1.888667 0.402827)
      (xy -1.833362 0.539127)
      (xy -1.762627 0.666141)
      (xy -1.675331 0.786005)
      (xy -1.610461 0.859729)
      (xy -1.502193 0.961886)
      (xy -1.383609 1.048884)
      (xy -1.253901 1.121190)
      (xy -1.112263 1.179274)
      (xy -1.002078 1.212646)
      (xy -0.962587 1.222725)
      (xy -0.929280 1.230137)
      (xy -0.897944 1.235310)
      (xy -0.864366 1.238671)
      (xy -0.824334 1.240647)
      (xy -0.773635 1.241666)
      (xy -0.711352 1.242139)
      (xy -0.529402 1.243059)
      (xy -0.529383 1.504275)
      (xy -0.529364 1.765491)
      (xy -0.550633 1.771191)
      (xy -0.572766 1.774122)
      (xy -0.609882 1.775817)
      (xy -0.658105 1.776360)
      (xy -0.713558 1.775834)
      (xy -0.772364 1.774325)
      (xy -0.830648 1.771916)
      (xy -0.884533 1.768692)
      (xy -0.930142 1.764736)
      (xy -0.948284 1.762558)
      (xy -1.118993 1.730214)
      (xy -1.287433 1.680553)
      (xy -1.450966 1.614749)
      (xy -1.606955 1.533976)
      (xy -1.752761 1.439407)
      (xy -1.855322 1.358877)
      (xy -1.988059 1.233831)
      (xy -2.105120 1.099397)
      (xy -2.206503 0.956753)
      (xy -2.292210 0.807077)
      (xy -2.362239 0.651548)
      (xy -2.416591 0.491345)
      (xy -2.455266 0.327645)
      (xy -2.478263 0.161627)
      (xy -2.485584 -0.005530)
      (xy -2.477227 -0.172649)
      (xy -2.453193 -0.338550)
      (xy -2.413482 -0.502055)
      (xy -2.358094 -0.661986)
      (xy -2.287029 -0.817164)
      (xy -2.200286 -0.966412)
      (xy -2.097867 -1.108549)
      (xy -1.979770 -1.242399)
      (xy -1.855322 -1.358878)
      (xy -1.717188 -1.464586)
      (xy -1.567288 -1.556628)
      (xy -1.407893 -1.634001)
      (xy -1.241272 -1.695703)
      (xy -1.069696 -1.740733)
      (xy -0.939844 -1.762867)
      (xy -0.893588 -1.767757)
      (xy -0.838759 -1.771710)
      (xy -0.779294 -1.774643)
      (xy -0.719127 -1.776471)
      (xy -0.662192 -1.777111)
    )

    (stroke (width 0.000000) (type solid)) (fill solid) (layer "F.SilkS") (tstamp f34e2384-ee39-45af-8cfb-3b9324634233))
  (fp_poly
    (pts
      (xy 2.424181 -1.775712)
      (xy 2.458187 -1.773639)
      (xy 2.474302 -1.771192)
      (xy 2.495571 -1.765492)
      (xy 2.495561 -1.504276)
      (xy 2.495551 -1.243060)
      (xy 2.327772 -1.242890)
      (xy 2.239783 -1.241547)
      (xy 2.165343 -1.237207)
      (xy 2.099227 -1.229114)
      (xy 2.036212 -1.216513)
      (xy 1.971072 -1.198646)
      (xy 1.929022 -1.185159)
      (xy 1.787453 -1.128045)
      (xy 1.654893 -1.054773)
      (xy 1.532615 -0.966437)
      (xy 1.421893 -0.864129)
      (xy 1.324000 -0.748944)
      (xy 1.240209 -0.621974)
      (xy 1.211419 -0.569090)
      (xy 1.189121 -0.522729)
      (xy 1.166814 -0.471203)
      (xy 1.145978 -0.418531)
      (xy 1.128092 -0.368733)
      (xy 1.114635 -0.325829)
      (xy 1.107089 -0.293838)
      (xy 1.105992 -0.282736)
      (xy 1.106518 -0.278821)
      (xy 1.109081 -0.275517)
      (xy 1.115157 -0.272772)
      (xy 1.126224 -0.270534)
      (xy 1.143757 -0.268752)
      (xy 1.169234 -0.267373)
      (xy 1.204130 -0.266347)
      (xy 1.249924 -0.265621)
      (xy 1.308090 -0.265143)
      (xy 1.380107 -0.264863)
      (xy 1.467450 -0.264727)
      (xy 1.571597 -0.264685)
      (xy 1.621176 -0.264682)
      (xy 2.136360 -0.264682)
      (xy 2.136360 0.000000)
      (xy 2.136360 0.264681)
      (xy 1.621176 0.264681)
      (xy 1.105992 0.264681)
      (xy 1.105992 0.284556)
      (xy 1.109890 0.309556)
      (xy 1.120603 0.347582)
      (xy 1.136660 0.394667)
      (xy 1.156590 0.446842)
      (xy 1.178922 0.500141)
      (xy 1.202185 0.550596)
      (xy 1.211719 0.569674)
      (xy 1.289481 0.700694)
      (xy 1.381896 0.820454)
      (xy 1.487669 0.927839)
      (xy 1.605499 1.021736)
      (xy 1.734090 1.101031)
      (xy 1.872144 1.164611)
      (xy 1.929022 1.185159)
      (xy 1.997919 1.206529)
      (xy 2.061574 1.222183)
      (xy 2.125211 1.232876)
      (xy 2.194054 1.239364)
      (xy 2.273326 1.242405)
      (xy 2.327772 1.242889)
      (xy 2.495551 1.243059)
      (xy 2.495561 1.504275)
      (xy 2.495571 1.765491)
      (xy 2.474302 1.771191)
      (xy 2.454761 1.773611)
      (xy 2.420320 1.775133)
      (xy 2.374964 1.775805)
      (xy 2.322674 1.775676)
      (xy 2.267436 1.774793)
      (xy 2.213230 1.773205)
      (xy 2.164041 1.770960)
      (xy 2.123852 1.768106)
      (xy 2.111200 1.766806)
      (xy 1.939417 1.737531)
      (xy 1.770683 1.690659)
      (xy 1.606759 1.627227)
      (xy 1.449404 1.548271)
      (xy 1.300381 1.454828)
      (xy 1.161449 1.347934)
      (xy 1.034370 1.228626)
      (xy 0.920904 1.097941)
      (xy 0.878657 1.041214)
      (xy 0.779216 0.886274)
      (xy 0.697269 0.725552)
      (xy 0.632164 0.557484)
      (xy 0.583246 0.380509)
      (xy 0.565522 0.293040)
      (xy 0.554442 0.211875)
      (xy 0.547511 0.118081)
      (xy 0.544727 0.017476)
      (xy 0.546091 -0.084125)
      (xy 0.551603 -0.180905)
      (xy 0.561263 -0.267047)
      (xy 0.565522 -0.293041)
      (xy 0.607788 -0.476404)
      (xy 0.666702 -0.651431)
      (xy 0.741799 -0.817405)
      (xy 0.832615 -0.973609)
      (xy 0.938686 -1.119326)
      (xy 1.059549 -1.253840)
      (xy 1.194738 -1.376433)
      (xy 1.333856 -1.479752)
      (xy 1.475900 -1.564798)
      (xy 1.629612 -1.637426)
      (xy 1.791350 -1.696306)
      (xy 1.957469 -1.740111)
      (xy 2.122181 -1.767268)
      (xy 2.163665 -1.770933)
      (xy 2.214158 -1.773757)
      (xy 2.269559 -1.775692)
      (xy 2.325765 -1.776693)
      (xy 2.378673 -1.776715)
    )

    (stroke (width 0.000000) (type solid)) (fill solid) (layer "F.SilkS") (tstamp eafaad4d-baa1-4b13-a6f5-f7dec4440e1a))
)
