PCBNEW-LibModule-V1
$INDEX
LOGO
$EndINDEX
#
# LOGO
# pixmap w = 1872, h = 1864
#
$MODULE LOGO
Po 0 0 0 15 00000000 00000000 ~~
Li LOGO
T0 0 31366 600 600 0 120 N I 21 "G***"
T1 0 -31366 600 600 0 120 N I 21 "LOGO"
DP 0 0 0 0 116 1 21
Dl 11829 26938
Dl 11816 27126
Dl 11749 27295
Dl 11632 27434
Dl 11473 27536
Dl 11277 27589
Dl 11236 27594
Dl 11027 27579
Dl 10845 27505
Dl 10696 27375
Dl 10695 27374
Dl 10664 27331
Dl 10597 27238
Dl 10499 27100
Dl 10372 26920
Dl 10219 26705
Dl 10045 26457
Dl 9852 26182
Dl 9643 25884
Dl 9422 25568
Dl 9216 25274
Dl 7816 23271
Dl 7800 25244
Dl 7783 27217
Dl 7707 27339
Dl 7593 27463
Dl 7437 27549
Dl 7255 27596
Dl 7061 27599
Dl 6871 27557
Dl 6798 27525
Dl 6671 27438
Dl 6582 27316
Dl 6575 27301
Dl 6500 27153
Dl 6500 23260
Dl 6500 19367
Dl 8448 19367
Dl 10396 19367
Dl 10656 19449
Dl 10960 19577
Dl 11229 19753
Dl 11456 19969
Dl 11635 20220
Dl 11759 20499
Dl 11800 20652
Dl 11815 20766
Dl 11824 20937
Dl 11828 21154
Dl 11827 21407
Dl 11826 21443
Dl 11821 21669
Dl 11814 21841
Dl 11804 21971
Dl 11790 22072
Dl 11771 22157
Dl 11744 22237
Dl 11740 22248
Dl 11611 22504
Dl 11426 22737
Dl 11195 22938
Dl 10928 23098
Dl 10762 23167
Dl 10669 23197
Dl 10572 23219
Dl 10527 23225
Dl 10527 21137
Dl 10521 20980
Dl 10504 20870
Dl 10471 20795
Dl 10420 20747
Dl 10348 20714
Dl 10308 20702
Dl 10239 20692
Dl 10109 20684
Dl 9924 20677
Dl 9689 20672
Dl 9409 20669
Dl 9090 20667
Dl 8991 20667
Dl 7800 20667
Dl 7800 21318
Dl 7800 21969
Dl 9064 21960
Dl 9388 21957
Dl 9652 21955
Dl 9863 21952
Dl 10027 21948
Dl 10151 21943
Dl 10243 21936
Dl 10308 21928
Dl 10354 21917
Dl 10387 21903
Dl 10414 21886
Dl 10422 21880
Dl 10516 21810
Dl 10525 21351
Dl 10527 21137
Dl 10527 23225
Dl 10457 23236
Dl 10310 23248
Dl 10119 23258
Dl 9977 23263
Dl 9405 23284
Dl 10568 24948
Dl 10777 25248
Dl 10976 25535
Dl 11160 25804
Dl 11328 26049
Dl 11474 26265
Dl 11596 26448
Dl 11691 26591
Dl 11754 26690
Dl 11782 26740
Dl 11829 26938
Dl 11829 26938
DP 0 0 0 0 45 1 21
Dl -5084 27066
Dl -5243 27225
Dl -5401 27383
Dl -10709 22075
Dl -16017 16767
Dl -21317 22067
Dl -21814 22563
Dl -22298 23047
Dl -22767 23516
Dl -23220 23969
Dl -23654 24402
Dl -24067 24815
Dl -24458 25204
Dl -24823 25568
Dl -25161 25905
Dl -25469 26212
Dl -25746 26488
Dl -25990 26730
Dl -26198 26937
Dl -26368 27105
Dl -26498 27234
Dl -26586 27320
Dl -26630 27363
Dl -26635 27367
Dl -26666 27345
Dl -26729 27288
Dl -26801 27216
Dl -26949 27065
Dl -21641 21758
Dl -16334 16450
Dl -21642 11142
Dl -26950 5834
Dl -26792 5676
Dl -26633 5517
Dl -21325 10825
Dl -16017 16133
Dl -10709 10825
Dl -5401 5517
Dl -5243 5676
Dl -5084 5834
Dl -10392 11142
Dl -15700 16450
Dl -10392 21758
Dl -5084 27066
Dl -5084 27066
DP 0 0 0 0 162 1 21
Dl -25158 24005
Dl -25303 24153
Dl -25382 24230
Dl -25444 24283
Dl -25471 24300
Dl -25498 24275
Dl -25558 24206
Dl -25642 24102
Dl -25743 23972
Dl -25792 23909
Dl -26117 23466
Dl -26402 23045
Dl -26660 22624
Dl -26903 22182
Dl -27135 21721
Dl -27271 21429
Dl -27404 21120
Dl -27530 20811
Dl -27642 20516
Dl -27733 20253
Dl -27787 20075
Dl -27822 19969
Dl -27856 19894
Dl -27881 19867
Dl -27923 19876
Dl -28019 19899
Dl -28158 19935
Dl -28328 19979
Dl -28517 20030
Dl -28706 20081
Dl -28872 20124
Dl -29005 20157
Dl -29093 20177
Dl -29128 20183
Dl -29148 20140
Dl -29171 20057
Dl -29193 19956
Dl -29210 19859
Dl -29215 19789
Dl -29211 19768
Dl -29172 19752
Dl -29078 19723
Dl -28941 19684
Dl -28771 19636
Dl -28579 19585
Dl -28574 19583
Dl -28356 19524
Dl -28195 19478
Dl -28085 19442
Dl -28018 19414
Dl -27987 19391
Dl -27984 19371
Dl -28003 19302
Dl -28031 19179
Dl -28065 19015
Dl -28102 18823
Dl -28141 18613
Dl -28178 18399
Dl -28213 18193
Dl -28242 18008
Dl -28257 17900
Dl -28276 17744
Dl -28290 17584
Dl -28301 17407
Dl -28309 17204
Dl -28313 16964
Dl -28316 16676
Dl -28316 16400
Dl -28314 16026
Dl -28308 15705
Dl -28298 15424
Dl -28281 15169
Dl -28257 14927
Dl -28225 14684
Dl -28183 14428
Dl -28130 14144
Dl -28099 13987
Dl -28065 13814
Dl -28038 13665
Dl -28020 13553
Dl -28012 13488
Dl -28013 13477
Dl -28048 13464
Dl -28137 13437
Dl -28270 13399
Dl -28436 13353
Dl -28620 13303
Dl -28809 13251
Dl -28974 13201
Dl -29106 13159
Dl -29193 13127
Dl -29226 13108
Dl -29226 13051
Dl -29207 12964
Dl -29176 12867
Dl -29141 12781
Dl -29108 12726
Dl -29090 12717
Dl -29041 12731
Dl -28943 12758
Dl -28809 12794
Dl -28650 12836
Dl -28480 12881
Dl -28310 12926
Dl -28154 12966
Dl -28024 13000
Dl -27932 13024
Dl -27890 13033
Dl -27889 13034
Dl -27873 13004
Dl -27843 12923
Dl -27803 12805
Dl -27767 12692
Dl -27615 12244
Dl -27428 11767
Dl -27215 11280
Dl -26985 10803
Dl -26747 10357
Dl -26664 10213
Dl -26539 10008
Dl -26394 9780
Dl -26235 9541
Dl -26071 9303
Dl -25910 9076
Dl -25760 8872
Dl -25628 8703
Dl -25529 8585
Dl -25496 8592
Dl -25432 8634
Dl -25355 8696
Dl -25280 8765
Dl -25223 8827
Dl -25200 8868
Dl -25220 8902
Dl -25272 8975
Dl -25348 9076
Dl -25409 9154
Dl -25830 9730
Dl -26226 10356
Dl -26590 11017
Dl -26915 11699
Dl -27192 12386
Dl -27411 13050
Dl -27630 13922
Dl -27783 14800
Dl -27871 15683
Dl -27892 16567
Dl -27849 17450
Dl -27739 18328
Dl -27564 19200
Dl -27466 19581
Dl -27313 20094
Dl -27138 20587
Dl -26934 21083
Dl -26691 21604
Dl -26685 21617
Dl -26388 22188
Dl -26078 22716
Dl -25741 23224
Dl -25494 23561
Dl -25158 24005
Dl -25158 24005
DP 0 0 0 0 141 1 21
Dl -2808 13069
Dl -2811 13112
Dl -2847 13132
Dl -2937 13165
Dl -3071 13208
Dl -3239 13257
Dl -3432 13310
Dl -3447 13314
Dl -3666 13372
Dl -3828 13418
Dl -3940 13454
Dl -4010 13482
Dl -4045 13506
Dl -4052 13527
Dl -4051 13531
Dl -4002 13715
Dl -3951 13954
Dl -3901 14236
Dl -3853 14549
Dl -3810 14881
Dl -3772 15220
Dl -3742 15554
Dl -3728 15762
Dl -3709 16404
Dl -3728 17074
Dl -3782 17752
Dl -3870 18413
Dl -3986 19013
Dl -4018 19161
Dl -4045 19284
Dl -4062 19368
Dl -4067 19399
Dl -4037 19415
Dl -3951 19444
Dl -3821 19483
Dl -3657 19530
Dl -3467 19581
Dl -3459 19584
Dl -3266 19635
Dl -3096 19683
Dl -2958 19723
Dl -2864 19752
Dl -2823 19768
Dl -2819 19807
Dl -2829 19887
Dl -2847 19988
Dl -2870 20086
Dl -2893 20159
Dl -2907 20183
Dl -2940 20178
Dl -3028 20157
Dl -3160 20124
Dl -3326 20081
Dl -3515 20031
Dl -3517 20030
Dl -3709 19979
Dl -3879 19934
Dl -4018 19899
Dl -4114 19875
Dl -4156 19867
Dl -4180 19897
Dl -4219 19979
Dl -4269 20101
Dl -4323 20252
Dl -4336 20292
Dl -4538 20845
Dl -4773 21405
Dl -5037 21961
Dl -5324 22501
Dl -5627 23015
Dl -5940 23491
Dl -6258 23920
Dl -6472 24177
Dl -6584 24304
Dl -6739 24147
Dl -6894 23991
Dl -6703 23754
Dl -6240 23130
Dl -5813 22458
Dl -5426 21748
Dl -5085 21010
Dl -4795 20257
Dl -4561 19498
Dl -4500 19257
Dl -4372 18675
Dl -4277 18110
Dl -4214 17545
Dl -4180 16961
Dl -4173 16340
Dl -4177 16107
Dl -4196 15598
Dl -4229 15136
Dl -4279 14700
Dl -4348 14272
Dl -4438 13831
Dl -4522 13484
Dl -4721 12793
Dl -4971 12099
Dl -5266 11412
Dl -5599 10746
Dl -5965 10111
Dl -6358 9519
Dl -6655 9127
Dl -6736 9023
Dl -6798 8937
Dl -6831 8884
Dl -6834 8876
Dl -6812 8839
Dl -6754 8772
Dl -6684 8700
Dl -6601 8622
Dl -6549 8585
Dl -6516 8585
Dl -6492 8607
Dl -5980 9299
Dl -5529 9982
Dl -5136 10660
Dl -4797 11342
Dl -4509 12033
Dl -4268 12740
Dl -4265 12750
Dl -4227 12868
Dl -4193 12961
Dl -4169 13010
Dl -4168 13011
Dl -4131 13010
Dl -4043 12994
Dl -3914 12966
Dl -3758 12930
Dl -3587 12888
Dl -3412 12844
Dl -3247 12800
Dl -3103 12760
Dl -2992 12727
Dl -2947 12711
Dl -2919 12732
Dl -2884 12798
Dl -2850 12889
Dl -2822 12986
Dl -2808 13069
Dl -2808 13069
DP 0 0 0 0 51 1 21
Dl -29119 17549
Dl -29150 17621
Dl -29169 17648
Dl -29192 17668
Dl -29229 17682
Dl -29288 17691
Dl -29379 17696
Dl -29511 17699
Dl -29693 17700
Dl -29883 17700
Dl -30114 17700
Dl -30286 17698
Dl -30410 17695
Dl -30494 17688
Dl -30546 17678
Dl -30577 17663
Dl -30595 17643
Dl -30599 17636
Dl -30637 17520
Dl -30615 17432
Dl -30533 17370
Dl -30394 17338
Dl -30290 17334
Dl -30067 17334
Dl -30067 16554
Dl -30067 15774
Dl -30304 15761
Dl -30441 15749
Dl -30526 15729
Dl -30577 15697
Dl -30587 15684
Dl -30631 15582
Dl -30607 15484
Dl -30566 15432
Dl -30532 15404
Dl -30489 15385
Dl -30424 15375
Dl -30325 15371
Dl -30178 15372
Dl -30091 15374
Dl -29684 15384
Dl -29675 16359
Dl -29666 17334
Dl -29469 17334
Dl -29323 17338
Dl -29228 17355
Dl -29170 17390
Dl -29135 17449
Dl -29130 17459
Dl -29119 17549
Dl -29119 17549
DP 0 0 0 0 92 1 21
Dl -1402 17075
Dl -1403 17242
Dl -1414 17384
Dl -1421 17429
Dl -1460 17526
Dl -1525 17616
Dl -1526 17616
Dl -1557 17646
Dl -1589 17667
Dl -1632 17682
Dl -1697 17692
Dl -1794 17697
Dl -1932 17699
Dl -2121 17700
Dl -2237 17700
Dl -2457 17700
Dl -2620 17698
Dl -2734 17694
Dl -2810 17686
Dl -2857 17675
Dl -2883 17658
Dl -2899 17636
Dl -2932 17521
Dl -2903 17423
Dl -2873 17389
Dl -2839 17367
Dl -2786 17352
Dl -2704 17342
Dl -2582 17336
Dl -2408 17334
Dl -2305 17334
Dl -1798 17334
Dl -1808 17042
Dl -1817 16750
Dl -2191 16734
Dl -2374 16723
Dl -2500 16707
Dl -2580 16683
Dl -2623 16646
Dl -2640 16591
Dl -2642 16553
Dl -2635 16475
Dl -2606 16423
Dl -2545 16390
Dl -2442 16373
Dl -2286 16367
Dl -2220 16367
Dl -2036 16363
Dl -1910 16350
Dl -1844 16330
Dl -1841 16327
Dl -1819 16271
Dl -1805 16162
Dl -1800 16029
Dl -1800 15772
Dl -2320 15761
Dl -2519 15756
Dl -2662 15750
Dl -2759 15742
Dl -2822 15730
Dl -2860 15712
Dl -2884 15688
Dl -2887 15685
Dl -2930 15583
Dl -2916 15485
Dl -2860 15419
Dl -2797 15399
Dl -2683 15383
Dl -2530 15372
Dl -2353 15366
Dl -2167 15364
Dl -1985 15367
Dl -1822 15375
Dl -1692 15388
Dl -1609 15406
Dl -1600 15409
Dl -1517 15469
Dl -1458 15557
Dl -1423 15683
Dl -1407 15856
Dl -1407 16053
Dl -1416 16230
Dl -1429 16366
Dl -1447 16451
Dl -1457 16472
Dl -1479 16520
Dl -1469 16592
Dl -1450 16652
Dl -1427 16757
Dl -1411 16905
Dl -1402 17075
Dl -1402 17075
DP 0 0 0 0 114 1 21
Dl 19876 -733
Dl 19813 -662
Dl 19784 -633
Dl 19708 -560
Dl 19588 -445
Dl 19426 -290
Dl 19223 -97
Dl 18983 132
Dl 18706 396
Dl 18396 692
Dl 18053 1018
Dl 17680 1373
Dl 17280 1754
Dl 16854 2160
Dl 16403 2589
Dl 15931 3038
Dl 15439 3506
Dl 14930 3991
Dl 14405 4490
Dl 13866 5003
Dl 13504 5346
Dl 7259 11284
Dl 10282 11292
Dl 10724 11294
Dl 11147 11296
Dl 11545 11298
Dl 11914 11301
Dl 12250 11304
Dl 12547 11308
Dl 12801 11311
Dl 13007 11315
Dl 13161 11319
Dl 13258 11323
Dl 13294 11327
Dl 13294 11328
Dl 13273 11360
Dl 13216 11442
Dl 13126 11570
Dl 13006 11739
Dl 12860 11946
Dl 12689 12186
Dl 12498 12455
Dl 12289 12749
Dl 12064 13065
Dl 11827 13397
Dl 11581 13742
Dl 11329 14096
Dl 11073 14454
Dl 10816 14813
Dl 10562 15168
Dl 10314 15515
Dl 10073 15851
Dl 9844 16171
Dl 9630 16470
Dl 9432 16746
Dl 9254 16993
Dl 9100 17208
Dl 8971 17386
Dl 8871 17524
Dl 8803 17617
Dl 8769 17662
Dl 8766 17665
Dl 8733 17646
Dl 8663 17598
Dl 8589 17545
Dl 8497 17466
Dl 8450 17404
Dl 8447 17378
Dl 8468 17345
Dl 8526 17262
Dl 8617 17132
Dl 8739 16958
Dl 8890 16745
Dl 9066 16496
Dl 9266 16214
Dl 9486 15904
Dl 9725 15570
Dl 9978 15214
Dl 10245 14840
Dl 10449 14555
Dl 10723 14171
Dl 10985 13803
Dl 11234 13453
Dl 11467 13126
Dl 11680 12825
Dl 11873 12554
Dl 12041 12317
Dl 12182 12116
Dl 12295 11956
Dl 12376 11840
Dl 12422 11773
Dl 12433 11755
Dl 12400 11752
Dl 12306 11749
Dl 12154 11746
Dl 11949 11743
Dl 11695 11740
Dl 11398 11737
Dl 11062 11734
Dl 10692 11731
Dl 10292 11729
Dl 9866 11727
Dl 9420 11726
Dl 9295 11725
Dl 6156 11717
Dl 12451 5734
Dl 18745 -250
Dl 15939 -258
Dl 13133 -267
Dl 13133 -500
Dl 13133 -733
Dl 16505 -733
Dl 19876 -733
Dl 19876 -733
DP 0 0 0 0 98 1 21
Dl 4533 15156
Dl 4456 15301
Dl 4349 15438
Dl 4202 15534
Dl 4030 15590
Dl 3847 15604
Dl 3666 15578
Dl 3502 15509
Dl 3369 15398
Dl 3326 15339
Dl 3250 15217
Dl 3233 12287
Dl 3216 9358
Dl 2879 9854
Dl 2757 10034
Dl 2668 10169
Dl 2606 10273
Dl 2565 10355
Dl 2540 10426
Dl 2525 10498
Dl 2517 10567
Dl 2479 10789
Dl 2419 10957
Dl 2330 11082
Dl 2207 11175
Dl 2150 11204
Dl 1965 11257
Dl 1775 11258
Dl 1596 11208
Dl 1444 11114
Dl 1353 11011
Dl 1273 10848
Dl 1219 10654
Dl 1200 10485
Dl 1184 10419
Dl 1134 10315
Dl 1048 10167
Dl 924 9972
Dl 858 9871
Dl 516 9356
Dl 500 12270
Dl 496 12835
Dl 492 13335
Dl 488 13773
Dl 484 14150
Dl 479 14469
Dl 474 14731
Dl 468 14939
Dl 462 15095
Dl 455 15200
Dl 448 15258
Dl 445 15267
Dl 346 15410
Dl 202 15516
Dl 28 15582
Dl -164 15605
Dl -359 15579
Dl -502 15525
Dl -629 15438
Dl -718 15316
Dl -725 15301
Dl -800 15153
Dl -800 11243
Dl -800 7334
Dl -68 7334
Dl 664 7334
Dl 792 7509
Dl 847 7586
Dl 933 7708
Dl 1043 7865
Dl 1169 8046
Dl 1304 8241
Dl 1384 8358
Dl 1513 8544
Dl 1630 8710
Dl 1729 8849
Dl 1805 8954
Dl 1852 9016
Dl 1866 9031
Dl 1889 9005
Dl 1944 8930
Dl 2026 8815
Dl 2131 8665
Dl 2254 8489
Dl 2389 8293
Dl 2400 8277
Dl 2539 8074
Dl 2671 7884
Dl 2788 7716
Dl 2884 7579
Dl 2955 7480
Dl 2994 7428
Dl 3072 7334
Dl 3802 7334
Dl 4533 7334
Dl 4533 11245
Dl 4533 15156
Dl 4533 15156
DP 0 0 0 0 109 1 21
Dl 19233 14950
Dl 19205 15163
Dl 19124 15339
Dl 18991 15475
Dl 18883 15537
Dl 18853 15550
Dl 18817 15560
Dl 18771 15569
Dl 18709 15577
Dl 18626 15583
Dl 18518 15587
Dl 18378 15591
Dl 18203 15594
Dl 17986 15596
Dl 17723 15597
Dl 17410 15598
Dl 17040 15599
Dl 16609 15599
Dl 16566 15599
Dl 16129 15599
Dl 15754 15598
Dl 15436 15598
Dl 15169 15596
Dl 14948 15594
Dl 14769 15592
Dl 14626 15588
Dl 14515 15583
Dl 14430 15577
Dl 14366 15570
Dl 14319 15561
Dl 14282 15551
Dl 14252 15539
Dl 14250 15537
Dl 14112 15457
Dl 14016 15352
Dl 13951 15225
Dl 13908 15056
Dl 13908 14871
Dl 13947 14692
Dl 14020 14539
Dl 14088 14460
Dl 14149 14411
Dl 14215 14373
Dl 14295 14345
Dl 14399 14325
Dl 14534 14312
Dl 14711 14304
Dl 14939 14301
Dl 15148 14300
Dl 15900 14300
Dl 15900 11486
Dl 15900 8671
Dl 15125 8661
Dl 14877 8657
Dl 14687 8653
Dl 14544 8648
Dl 14439 8641
Dl 14363 8630
Dl 14305 8616
Dl 14257 8596
Dl 14208 8570
Dl 14202 8567
Dl 14057 8450
Dl 13958 8299
Dl 13904 8127
Dl 13896 7945
Dl 13933 7769
Dl 14016 7609
Dl 14143 7480
Dl 14217 7434
Dl 14381 7350
Dl 16462 7341
Dl 16954 7339
Dl 17381 7338
Dl 17746 7339
Dl 18051 7342
Dl 18297 7346
Dl 18488 7351
Dl 18624 7358
Dl 18710 7366
Dl 18725 7369
Dl 18897 7430
Dl 19046 7532
Dl 19154 7661
Dl 19199 7762
Dl 19233 7984
Dl 19212 8189
Dl 19137 8366
Dl 19011 8508
Dl 18938 8559
Dl 18783 8650
Dl 18008 8661
Dl 17233 8672
Dl 17233 11486
Dl 17233 14300
Dl 17991 14301
Dl 18242 14302
Dl 18435 14304
Dl 18581 14309
Dl 18689 14316
Dl 18768 14327
Dl 18829 14342
Dl 18880 14362
Dl 18883 14363
Dl 19047 14472
Dl 19161 14623
Dl 19222 14814
Dl 19233 14950
Dl 19233 14950
DP 0 0 0 0 55 1 21
Dl -15167 6505
Dl -15265 6603
Dl -15362 6700
Dl -15831 6700
Dl -16300 6700
Dl -16300 7000
Dl -16300 7300
Dl -15789 7300
Dl -15591 7301
Dl -15450 7304
Dl -15353 7310
Dl -15289 7321
Dl -15249 7339
Dl -15221 7363
Dl -15220 7364
Dl -15175 7456
Dl -15181 7555
Dl -15235 7636
Dl -15267 7657
Dl -15328 7674
Dl -15439 7686
Dl -15604 7694
Dl -15828 7699
Dl -16009 7700
Dl -16667 7700
Dl -16667 7114
Dl -16667 6528
Dl -16570 6431
Dl -16472 6334
Dl -16003 6334
Dl -15534 6334
Dl -15534 6034
Dl -15534 5734
Dl -16026 5734
Dl -16252 5731
Dl -16420 5722
Dl -16537 5704
Dl -16611 5675
Dl -16650 5630
Dl -16663 5569
Dl -16661 5523
Dl -16648 5458
Dl -16619 5410
Dl -16566 5376
Dl -16479 5354
Dl -16352 5342
Dl -16174 5339
Dl -15939 5341
Dl -15928 5341
Dl -15371 5350
Dl -15269 5448
Dl -15167 5546
Dl -15167 6026
Dl -15167 6505
Dl -15167 6505
DP 0 0 0 0 119 1 21
Dl -8173 7004
Dl -8201 7049
Dl -8253 7103
Dl -8285 7135
Dl -8378 7219
Dl -8440 7255
Dl -8480 7250
Dl -8522 7219
Dl -8606 7156
Dl -8722 7068
Dl -8861 6963
Dl -8945 6900
Dl -9659 6401
Dl -10405 5961
Dl -11178 5578
Dl -11974 5255
Dl -12791 4991
Dl -13626 4788
Dl -14473 4645
Dl -15331 4564
Dl -16195 4545
Dl -17063 4589
Dl -17930 4697
Dl -18794 4868
Dl -19384 5023
Dl -20124 5269
Dl -20864 5575
Dl -21594 5935
Dl -22303 6345
Dl -22979 6798
Dl -23258 7005
Dl -23386 7103
Dl -23494 7185
Dl -23571 7241
Dl -23608 7266
Dl -23609 7267
Dl -23636 7245
Dl -23696 7188
Dl -23769 7114
Dl -23917 6961
Dl -23772 6839
Dl -23602 6703
Dl -23390 6544
Dl -23152 6373
Dl -22904 6201
Dl -22660 6039
Dl -22438 5897
Dl -22376 5860
Dl -21575 5418
Dl -20745 5036
Dl -19892 4717
Dl -19734 4663
Dl -19600 4617
Dl -19503 4582
Dl -19453 4563
Dl -19450 4561
Dl -19454 4526
Dl -19474 4438
Dl -19506 4306
Dl -19549 4140
Dl -19599 3951
Dl -19599 3950
Dl -19760 3350
Dl -19660 3307
Dl -19554 3274
Dl -19444 3257
Dl -19327 3250
Dl -19200 3717
Dl -19152 3896
Dl -19106 4065
Dl -19068 4205
Dl -19042 4302
Dl -19037 4319
Dl -19001 4455
Dl -18659 4378
Dl -18024 4254
Dl -17383 4169
Dl -16720 4120
Dl -16020 4106
Dl -15717 4111
Dl -15134 4135
Dl -14597 4178
Dl -14089 4244
Dl -13590 4333
Dl -13292 4398
Dl -13034 4458
Dl -12997 4321
Dl -12975 4238
Dl -12940 4108
Dl -12896 3945
Dl -12848 3767
Dl -12834 3717
Dl -12708 3250
Dl -12591 3257
Dl -12476 3275
Dl -12374 3307
Dl -12275 3350
Dl -12436 3950
Dl -12485 4140
Dl -12526 4307
Dl -12556 4442
Dl -12573 4533
Dl -12574 4570
Dl -12536 4587
Dl -12446 4621
Dl -12315 4668
Dl -12154 4724
Dl -12034 4765
Dl -11221 5076
Dl -10426 5448
Dl -9658 5876
Dl -8925 6355
Dl -8566 6619
Dl -8402 6745
Dl -8285 6839
Dl -8211 6907
Dl -8175 6960
Dl -8173 7004
Dl -8173 7004
DP 0 0 0 0 85 1 21
Dl -2700 -3794
Dl -2701 -3527
Dl -2702 -3319
Dl -2705 -3160
Dl -2710 -3040
Dl -2718 -2952
Dl -2730 -2887
Dl -2745 -2835
Dl -2765 -2788
Dl -2770 -2778
Dl -2877 -2629
Dl -3029 -2528
Dl -3210 -2479
Dl -3441 -2471
Dl -3635 -2516
Dl -3796 -2616
Dl -3802 -2622
Dl -3906 -2741
Dl -3969 -2882
Dl -3997 -3059
Dl -4000 -3158
Dl -4000 -3333
Dl -4350 -3333
Dl -4700 -3333
Dl -4700 -185
Dl -4701 441
Dl -4702 1000
Dl -4704 1494
Dl -4707 1922
Dl -4710 2285
Dl -4714 2584
Dl -4719 2818
Dl -4725 2988
Dl -4732 3095
Dl -4736 3131
Dl -4805 3319
Dl -4921 3460
Dl -5082 3553
Dl -5286 3596
Dl -5367 3599
Dl -5522 3584
Dl -5663 3547
Dl -5686 3537
Dl -5835 3442
Dl -5937 3310
Dl -5998 3131
Dl -6005 3064
Dl -6011 2935
Dl -6017 2741
Dl -6022 2484
Dl -6026 2163
Dl -6029 1776
Dl -6031 1325
Dl -6033 808
Dl -6034 225
Dl -6034 -185
Dl -6034 -3333
Dl -6384 -3333
Dl -6734 -3333
Dl -6734 -3158
Dl -6748 -2958
Dl -6794 -2802
Dl -6879 -2675
Dl -6932 -2622
Dl -7091 -2520
Dl -7283 -2472
Dl -7513 -2477
Dl -7524 -2479
Dl -7717 -2534
Dl -7866 -2638
Dl -7965 -2778
Dl -7986 -2826
Dl -8002 -2876
Dl -8014 -2938
Dl -8023 -3021
Dl -8028 -3133
Dl -8032 -3284
Dl -8033 -3482
Dl -8034 -3736
Dl -8034 -3794
Dl -8034 -4666
Dl -5367 -4666
Dl -2700 -4666
Dl -2700 -3794
Dl -2700 -3794
DP 0 0 0 0 133 1 21
Dl 11833 581
Dl 11832 1030
Dl 11832 1424
Dl 11831 1767
Dl 11830 2062
Dl 11829 2314
Dl 11827 2525
Dl 11824 2701
Dl 11821 2844
Dl 11817 2959
Dl 11812 3049
Dl 11806 3119
Dl 11800 3171
Dl 11793 3211
Dl 11784 3241
Dl 11774 3266
Dl 11764 3288
Dl 11678 3423
Dl 11566 3513
Dl 11417 3564
Dl 11219 3583
Dl 11183 3584
Dl 10979 3570
Dl 10824 3525
Dl 10706 3443
Dl 10616 3327
Dl 10601 3299
Dl 10587 3266
Dl 10577 3222
Dl 10568 3162
Dl 10561 3079
Dl 10556 2967
Dl 10551 2820
Dl 10548 2632
Dl 10545 2398
Dl 10543 2110
Dl 10540 1762
Dl 10540 1675
Dl 10530 134
Dl 9165 134
Dl 7800 134
Dl 7797 1625
Dl 7796 1996
Dl 7795 2307
Dl 7792 2564
Dl 7788 2772
Dl 7781 2938
Dl 7771 3068
Dl 7758 3168
Dl 7741 3245
Dl 7718 3304
Dl 7691 3352
Dl 7657 3395
Dl 7622 3433
Dl 7491 3527
Dl 7322 3584
Dl 7134 3602
Dl 6944 3578
Dl 6798 3525
Dl 6671 3438
Dl 6582 3316
Dl 6575 3301
Dl 6500 3153
Dl 6500 -499
Dl 6500 -1145
Dl 6501 -1734
Dl 6503 -2264
Dl 6505 -2734
Dl 6508 -3143
Dl 6511 -3491
Dl 6515 -3777
Dl 6520 -3999
Dl 6525 -4157
Dl 6530 -4249
Dl 6534 -4272
Dl 6607 -4416
Dl 6729 -4530
Dl 6891 -4609
Dl 7079 -4647
Dl 7283 -4639
Dl 7334 -4630
Dl 7517 -4561
Dl 7657 -4446
Dl 7749 -4291
Dl 7763 -4248
Dl 7773 -4175
Dl 7781 -4036
Dl 7788 -3833
Dl 7794 -3567
Dl 7797 -3238
Dl 7799 -2849
Dl 7799 -2641
Dl 7800 -1166
Dl 9166 -1166
Dl 10533 -1166
Dl 10534 -2675
Dl 10534 -3034
Dl 10535 -3332
Dl 10536 -3576
Dl 10539 -3773
Dl 10542 -3927
Dl 10547 -4047
Dl 10554 -4137
Dl 10562 -4204
Dl 10573 -4254
Dl 10585 -4294
Dl 10596 -4319
Dl 10689 -4467
Dl 10819 -4567
Dl 10997 -4629
Dl 11007 -4632
Dl 11214 -4651
Dl 11407 -4620
Dl 11575 -4547
Dl 11706 -4434
Dl 11789 -4288
Dl 11794 -4273
Dl 11800 -4231
Dl 11806 -4153
Dl 11812 -4034
Dl 11816 -3873
Dl 11820 -3666
Dl 11824 -3412
Dl 11826 -3108
Dl 11829 -2751
Dl 11830 -2338
Dl 11832 -1867
Dl 11832 -1336
Dl 11833 -742
Dl 11833 -498
Dl 11833 73
Dl 11833 581
Dl 11833 581
DP 0 0 0 0 158 1 21
Dl 26366 -530
Dl 26364 -388
Dl 26358 -259
Dl 26345 -136
Dl 26322 -12
Dl 26286 120
Dl 26236 266
Dl 26169 435
Dl 26083 632
Dl 25974 865
Dl 25841 1140
Dl 25681 1465
Dl 25614 1600
Dl 25476 1875
Dl 25344 2136
Dl 25220 2378
Dl 25108 2591
Dl 25050 2699
Dl 25050 -172
Dl 25050 -518
Dl 25050 -863
Dl 24433 -2090
Dl 23816 -3316
Dl 23702 -3316
Dl 23588 -3316
Dl 22990 -2116
Dl 22831 -1796
Dl 22700 -1529
Dl 22595 -1309
Dl 22513 -1131
Dl 22451 -989
Dl 22406 -876
Dl 22376 -788
Dl 22359 -717
Dl 22357 -705
Dl 22343 -605
Dl 22336 -511
Dl 22340 -418
Dl 22356 -317
Dl 22387 -203
Dl 22435 -68
Dl 22503 94
Dl 22594 290
Dl 22708 526
Dl 22849 810
Dl 22970 1050
Dl 23100 1306
Dl 23222 1545
Dl 23333 1760
Dl 23429 1944
Dl 23506 2090
Dl 23561 2191
Dl 23591 2240
Dl 23592 2242
Dl 23673 2294
Dl 23762 2283
Dl 23823 2236
Dl 23851 2192
Dl 23905 2096
Dl 23981 1954
Dl 24075 1772
Dl 24185 1558
Dl 24306 1319
Dl 24436 1061
Dl 24466 1000
Dl 25050 -172
Dl 25050 2699
Dl 25012 2770
Dl 24936 2906
Dl 24885 2992
Dl 24871 3011
Dl 24664 3233
Dl 24417 3406
Dl 24143 3526
Dl 23851 3591
Dl 23551 3595
Dl 23353 3563
Dl 23151 3490
Dl 22940 3371
Dl 22743 3219
Dl 22646 3124
Dl 22596 3067
Dl 22545 3000
Dl 22491 2919
Dl 22429 2817
Dl 22356 2688
Dl 22268 2524
Dl 22163 2321
Dl 22036 2072
Dl 21885 1771
Dl 21847 1695
Dl 21672 1345
Dl 21525 1048
Dl 21404 797
Dl 21305 586
Dl 21226 408
Dl 21166 256
Dl 21122 125
Dl 21091 7
Dl 21071 -104
Dl 21059 -215
Dl 21053 -332
Dl 21051 -461
Dl 21051 -483
Dl 21052 -638
Dl 21056 -774
Dl 21066 -901
Dl 21085 -1024
Dl 21115 -1151
Dl 21158 -1289
Dl 21218 -1444
Dl 21295 -1625
Dl 21394 -1839
Dl 21516 -2091
Dl 21664 -2390
Dl 21806 -2676
Dl 21962 -2986
Dl 22091 -3243
Dl 22199 -3453
Dl 22287 -3623
Dl 22361 -3758
Dl 22424 -3865
Dl 22478 -3951
Dl 22529 -4022
Dl 22579 -4084
Dl 22633 -4144
Dl 22655 -4167
Dl 22894 -4377
Dl 23154 -4528
Dl 23429 -4619
Dl 23710 -4651
Dl 23990 -4622
Dl 24264 -4534
Dl 24522 -4385
Dl 24730 -4206
Dl 24782 -4149
Dl 24833 -4087
Dl 24886 -4014
Dl 24945 -3921
Dl 25014 -3803
Dl 25096 -3654
Dl 25196 -3466
Dl 25317 -3234
Dl 25463 -2950
Dl 25507 -2864
Dl 25642 -2599
Dl 25770 -2345
Dl 25888 -2109
Dl 25992 -1900
Dl 26078 -1726
Dl 26141 -1594
Dl 26178 -1513
Dl 26180 -1508
Dl 26279 -1230
Dl 26338 -952
Dl 26364 -648
Dl 26366 -530
Dl 26366 -530
DP 0 0 0 0 41 1 21
Dl -17300 -166
Dl -17850 -166
Dl -18400 -166
Dl -18400 384
Dl -18401 587
Dl -18403 733
Dl -18408 831
Dl -18417 891
Dl -18430 922
Dl -18449 933
Dl -18462 934
Dl -18525 923
Dl -18545 911
Dl -18553 872
Dl -18559 778
Dl -18564 641
Dl -18567 473
Dl -18567 361
Dl -18567 -166
Dl -19117 -166
Dl -19667 -166
Dl -19667 -266
Dl -19667 -366
Dl -19118 -366
Dl -18569 -366
Dl -18560 -908
Dl -18556 -1109
Dl -18552 -1253
Dl -18546 -1350
Dl -18536 -1410
Dl -18521 -1442
Dl -18500 -1456
Dl -18475 -1460
Dl -18400 -1471
Dl -18400 -919
Dl -18400 -366
Dl -17850 -366
Dl -17300 -366
Dl -17300 -266
Dl -17300 -166
Dl -17300 -166
DP 0 0 0 0 154 1 21
Dl 12164 -12608
Dl 12139 -12584
Dl 12067 -12517
Dl 11949 -12410
Dl 11787 -12263
Dl 11584 -12080
Dl 11342 -11861
Dl 11062 -11608
Dl 10747 -11324
Dl 10398 -11011
Dl 10018 -10669
Dl 9609 -10301
Dl 9173 -9909
Dl 8711 -9494
Dl 8226 -9059
Dl 7720 -8605
Dl 7196 -8134
Dl 6654 -7648
Dl 6097 -7149
Dl 5559 -6666
Dl -1044 -750
Dl 2061 -741
Dl 5166 -733
Dl 5166 -500
Dl 5166 -266
Dl 1483 -266
Dl 993 -267
Dl 523 -267
Dl 76 -268
Dl -344 -270
Dl -731 -272
Dl -1083 -274
Dl -1394 -276
Dl -1661 -279
Dl -1879 -281
Dl -2044 -284
Dl -2152 -287
Dl -2198 -291
Dl -2200 -291
Dl -2175 -316
Dl -2103 -382
Dl -1985 -490
Dl -1824 -636
Dl -1621 -820
Dl -1379 -1039
Dl -1099 -1292
Dl -784 -1576
Dl -436 -1889
Dl -56 -2231
Dl 353 -2599
Dl 789 -2991
Dl 1251 -3406
Dl 1735 -3841
Dl 2241 -4296
Dl 2766 -4767
Dl 3307 -5253
Dl 3864 -5752
Dl 4401 -6233
Dl 11000 -12150
Dl 8016 -12158
Dl 7577 -12160
Dl 7157 -12161
Dl 6761 -12163
Dl 6394 -12165
Dl 6061 -12168
Dl 5766 -12170
Dl 5514 -12172
Dl 5310 -12175
Dl 5159 -12177
Dl 5065 -12180
Dl 5033 -12182
Dl 5051 -12211
Dl 5105 -12291
Dl 5191 -12417
Dl 5306 -12586
Dl 5448 -12793
Dl 5613 -13035
Dl 5800 -13306
Dl 6004 -13604
Dl 6224 -13923
Dl 6456 -14261
Dl 6698 -14611
Dl 6946 -14972
Dl 7198 -15338
Dl 7452 -15705
Dl 7703 -16069
Dl 7950 -16427
Dl 8189 -16773
Dl 8418 -17104
Dl 8634 -17416
Dl 8833 -17704
Dl 9014 -17965
Dl 9173 -18195
Dl 9308 -18388
Dl 9415 -18542
Dl 9492 -18652
Dl 9536 -18713
Dl 9545 -18725
Dl 9580 -18742
Dl 9632 -18726
Dl 9717 -18674
Dl 9751 -18649
Dl 9837 -18582
Dl 9893 -18525
Dl 9907 -18497
Dl 9887 -18465
Dl 9832 -18382
Dl 9744 -18252
Dl 9626 -18078
Dl 9479 -17863
Dl 9307 -17612
Dl 9112 -17327
Dl 8897 -17013
Dl 8663 -16674
Dl 8414 -16312
Dl 8152 -15931
Dl 7899 -15564
Dl 7627 -15170
Dl 7366 -14791
Dl 7119 -14432
Dl 6887 -14095
Dl 6674 -13784
Dl 6481 -13504
Dl 6312 -13257
Dl 6168 -13046
Dl 6052 -12877
Dl 5968 -12752
Dl 5916 -12675
Dl 5900 -12649
Dl 5932 -12647
Dl 6027 -12645
Dl 6179 -12643
Dl 6384 -12641
Dl 6637 -12639
Dl 6934 -12637
Dl 7270 -12636
Dl 7640 -12635
Dl 8040 -12634
Dl 8466 -12633
Dl 8912 -12633
Dl 9033 -12633
Dl 9484 -12633
Dl 9915 -12632
Dl 10322 -12631
Dl 10701 -12629
Dl 11046 -12627
Dl 11353 -12625
Dl 11618 -12622
Dl 11836 -12619
Dl 12002 -12616
Dl 12112 -12613
Dl 12162 -12609
Dl 12164 -12608
Dl 12164 -12608
DP 0 0 0 0 95 1 21
Dl 4533 -14907
Dl 3533 -13606
Dl 2533 -12306
Dl 2533 -10691
Dl 2532 -10328
Dl 2530 -9992
Dl 2527 -9690
Dl 2522 -9426
Dl 2517 -9208
Dl 2511 -9041
Dl 2504 -8931
Dl 2499 -8896
Dl 2441 -8706
Dl 2346 -8567
Dl 2206 -8474
Dl 2019 -8422
Dl 1905 -8411
Dl 1726 -8412
Dl 1593 -8440
Dl 1566 -8451
Dl 1413 -8544
Dl 1309 -8666
Dl 1249 -8812
Dl 1237 -8861
Dl 1228 -8928
Dl 1220 -9017
Dl 1213 -9135
Dl 1208 -9287
Dl 1205 -9479
Dl 1202 -9716
Dl 1200 -10005
Dl 1200 -10350
Dl 1200 -10640
Dl 1200 -12301
Dl 198 -13602
Dl -804 -14903
Dl -794 -15599
Dl -790 -15834
Dl -786 -16011
Dl -780 -16141
Dl -771 -16233
Dl -759 -16297
Dl -743 -16343
Dl -721 -16379
Dl -714 -16389
Dl -568 -16533
Dl -389 -16623
Dl -184 -16656
Dl 39 -16630
Dl 78 -16619
Dl 220 -16565
Dl 328 -16489
Dl 406 -16383
Dl 458 -16238
Dl 488 -16048
Dl 499 -15802
Dl 500 -15733
Dl 500 -15350
Dl 1166 -14483
Dl 1327 -14275
Dl 1476 -14084
Dl 1608 -13918
Dl 1717 -13782
Dl 1800 -13683
Dl 1850 -13627
Dl 1863 -13616
Dl 1890 -13642
Dl 1953 -13714
Dl 2046 -13827
Dl 2164 -13974
Dl 2303 -14150
Dl 2457 -14347
Dl 2562 -14483
Dl 3231 -15350
Dl 3232 -15759
Dl 3240 -16014
Dl 3266 -16213
Dl 3314 -16364
Dl 3389 -16475
Dl 3494 -16555
Dl 3635 -16613
Dl 3660 -16621
Dl 3874 -16656
Dl 4077 -16637
Dl 4256 -16567
Dl 4387 -16461
Dl 4435 -16399
Dl 4472 -16326
Dl 4498 -16234
Dl 4516 -16112
Dl 4527 -15952
Dl 4532 -15742
Dl 4533 -15532
Dl 4533 -14907
Dl 4533 -14907
DP 0 0 0 0 98 1 21
Dl 19234 -8399
Dl 18442 -8408
Dl 17651 -8416
Dl 16433 -11215
Dl 15216 -14014
Dl 15200 -11415
Dl 15196 -10886
Dl 15192 -10420
Dl 15187 -10017
Dl 15183 -9673
Dl 15178 -9387
Dl 15172 -9155
Dl 15166 -8976
Dl 15159 -8848
Dl 15152 -8767
Dl 15145 -8733
Dl 15062 -8615
Dl 14941 -8510
Dl 14806 -8439
Dl 14803 -8438
Dl 14665 -8410
Dl 14500 -8404
Dl 14346 -8420
Dl 14297 -8432
Dl 14130 -8513
Dl 14007 -8644
Dl 13968 -8713
Dl 13957 -8735
Dl 13948 -8760
Dl 13940 -8789
Dl 13933 -8829
Dl 13926 -8881
Dl 13921 -8949
Dl 13916 -9039
Dl 13912 -9152
Dl 13909 -9293
Dl 13906 -9465
Dl 13904 -9672
Dl 13903 -9918
Dl 13901 -10207
Dl 13901 -10541
Dl 13900 -10926
Dl 13900 -11364
Dl 13900 -11859
Dl 13900 -12415
Dl 13900 -12761
Dl 13900 -16668
Dl 14690 -16659
Dl 15480 -16650
Dl 16698 -13817
Dl 17916 -10985
Dl 17933 -13601
Dl 17936 -14080
Dl 17939 -14497
Dl 17941 -14857
Dl 17944 -15163
Dl 17947 -15421
Dl 17951 -15636
Dl 17954 -15811
Dl 17959 -15952
Dl 17964 -16062
Dl 17970 -16147
Dl 17977 -16210
Dl 17985 -16258
Dl 17994 -16293
Dl 18005 -16322
Dl 18018 -16347
Dl 18019 -16349
Dl 18121 -16486
Dl 18263 -16576
Dl 18448 -16622
Dl 18639 -16627
Dl 18814 -16611
Dl 18943 -16572
Dl 19047 -16502
Dl 19144 -16391
Dl 19147 -16387
Dl 19158 -16372
Dl 19167 -16355
Dl 19175 -16332
Dl 19183 -16300
Dl 19189 -16254
Dl 19195 -16191
Dl 19200 -16108
Dl 19204 -16000
Dl 19207 -15865
Dl 19210 -15698
Dl 19213 -15497
Dl 19215 -15257
Dl 19217 -14975
Dl 19219 -14647
Dl 19220 -14269
Dl 19221 -13838
Dl 19223 -13351
Dl 19224 -12804
Dl 19225 -12347
Dl 19234 -8399
Dl 19234 -8399
DP 0 0 0 0 205 1 21
Dl 11833 -27209
Dl 11806 -26982
Dl 11728 -26789
Dl 11605 -26636
Dl 11444 -26528
Dl 11251 -26474
Dl 11150 -26468
Dl 11014 -26488
Dl 10870 -26537
Dl 10750 -26603
Dl 10726 -26622
Dl 10642 -26729
Dl 10575 -26874
Dl 10538 -27027
Dl 10534 -27085
Dl 10522 -27189
Dl 10493 -27273
Dl 10486 -27285
Dl 10471 -27302
Dl 10449 -27315
Dl 10413 -27326
Dl 10358 -27335
Dl 10275 -27341
Dl 10160 -27347
Dl 10006 -27351
Dl 9806 -27354
Dl 9554 -27357
Dl 9243 -27360
Dl 9148 -27360
Dl 8860 -27362
Dl 8594 -27362
Dl 8356 -27361
Dl 8153 -27358
Dl 7993 -27355
Dl 7884 -27350
Dl 7832 -27344
Dl 7829 -27343
Dl 7845 -27313
Dl 7899 -27235
Dl 7989 -27111
Dl 8112 -26946
Dl 8265 -26744
Dl 8444 -26507
Dl 8648 -26241
Dl 8874 -25948
Dl 9118 -25632
Dl 9378 -25297
Dl 9651 -24946
Dl 9701 -24882
Dl 10036 -24452
Dl 10346 -24053
Dl 10629 -23686
Dl 10883 -23355
Dl 11107 -23062
Dl 11298 -22808
Dl 11455 -22597
Dl 11576 -22431
Dl 11660 -22313
Dl 11703 -22243
Dl 11706 -22239
Dl 11769 -22094
Dl 11806 -21955
Dl 11825 -21789
Dl 11826 -21770
Dl 11813 -21472
Dl 11740 -21200
Dl 11610 -20959
Dl 11426 -20753
Dl 11191 -20588
Dl 10983 -20493
Dl 10933 -20475
Dl 10883 -20461
Dl 10827 -20449
Dl 10758 -20439
Dl 10669 -20432
Dl 10554 -20426
Dl 10406 -20422
Dl 10219 -20418
Dl 9985 -20416
Dl 9698 -20414
Dl 9352 -20412
Dl 9333 -20412
Dl 9007 -20412
Dl 8701 -20412
Dl 8424 -20414
Dl 8182 -20418
Dl 7983 -20422
Dl 7833 -20428
Dl 7740 -20435
Dl 7721 -20437
Dl 7432 -20527
Dl 7163 -20674
Dl 6925 -20869
Dl 6730 -21103
Dl 6624 -21290
Dl 6568 -21415
Dl 6536 -21519
Dl 6520 -21630
Dl 6516 -21775
Dl 6516 -21800
Dl 6528 -22013
Dl 6569 -22179
Dl 6646 -22314
Dl 6764 -22435
Dl 6780 -22448
Dl 6850 -22500
Dl 6915 -22531
Dl 6995 -22545
Dl 7113 -22550
Dl 7164 -22550
Dl 7301 -22547
Dl 7394 -22536
Dl 7464 -22510
Dl 7532 -22465
Dl 7539 -22460
Dl 7668 -22324
Dl 7755 -22140
Dl 7797 -21946
Dl 7815 -21841
Dl 7835 -21765
Dl 7847 -21742
Dl 7885 -21735
Dl 7980 -21729
Dl 8124 -21724
Dl 8307 -21719
Dl 8522 -21715
Dl 8760 -21711
Dl 9011 -21709
Dl 9268 -21707
Dl 9522 -21706
Dl 9764 -21706
Dl 9986 -21706
Dl 10178 -21708
Dl 10333 -21711
Dl 10441 -21716
Dl 10495 -21721
Dl 10499 -21723
Dl 10479 -21753
Dl 10420 -21831
Dl 10327 -21955
Dl 10201 -22120
Dl 10045 -22322
Dl 9863 -22559
Dl 9657 -22825
Dl 9430 -23119
Dl 9185 -23435
Dl 8924 -23770
Dl 8651 -24120
Dl 8615 -24166
Dl 8269 -24612
Dl 7951 -25022
Dl 7664 -25395
Dl 7409 -25729
Dl 7186 -26021
Dl 6998 -26272
Dl 6847 -26477
Dl 6732 -26635
Dl 6657 -26745
Dl 6624 -26799
Dl 6574 -26905
Dl 6542 -26992
Dl 6525 -27083
Dl 6518 -27199
Dl 6516 -27349
Dl 6518 -27513
Dl 6527 -27632
Dl 6547 -27727
Dl 6581 -27819
Dl 6606 -27874
Dl 6719 -28065
Dl 6872 -28250
Dl 7043 -28408
Dl 7154 -28484
Dl 7232 -28526
Dl 7312 -28562
Dl 7402 -28591
Dl 7508 -28614
Dl 7637 -28632
Dl 7796 -28645
Dl 7990 -28654
Dl 8228 -28660
Dl 8515 -28664
Dl 8858 -28665
Dl 9066 -28665
Dl 9437 -28665
Dl 9748 -28663
Dl 10006 -28658
Dl 10219 -28652
Dl 10393 -28641
Dl 10537 -28627
Dl 10656 -28608
Dl 10758 -28584
Dl 10849 -28554
Dl 10938 -28517
Dl 10980 -28498
Dl 11135 -28404
Dl 11302 -28271
Dl 11459 -28116
Dl 11587 -27958
Dl 11598 -27942
Dl 11689 -27774
Dl 11764 -27576
Dl 11815 -27377
Dl 11833 -27209
Dl 11833 -27209
$EndMODULE LOGO
$EndLIBRARY
