PCBNEW-LibModule-V1
$INDEX
LOGO
$EndINDEX
#
# LOGO
# pixmap w = 700, h = 700
#
$MODULE LOGO
Po 0 0 0 15 00000000 00000000 ~~
Li LOGO
T0 0 11966 600 600 0 120 N I 21 "G***"
T1 0 -11966 600 600 0 120 N I 21 "LOGO"
DP 0 0 0 0 382 1 21
Dl 10233 1169
Dl 10232 1489
Dl 10231 1753
Dl 10228 1966
Dl 10224 2133
Dl 10220 2259
Dl 10214 2351
Dl 10206 2412
Dl 10197 2448
Dl 10186 2464
Dl 10144 2479
Dl 10043 2504
Dl 9892 2538
Dl 9699 2578
Dl 9470 2624
Dl 9215 2673
Dl 8945 2724
Dl 8644 2780
Dl 8373 2833
Dl 8139 2881
Dl 7948 2922
Dl 7805 2956
Dl 7718 2981
Dl 7694 2992
Dl 7668 3033
Dl 7623 3125
Dl 7563 3258
Dl 7492 3421
Dl 7415 3605
Dl 7335 3798
Dl 7257 3990
Dl 7185 4173
Dl 7123 4334
Dl 7075 4465
Dl 7046 4554
Dl 7039 4592
Dl 7060 4625
Dl 7114 4707
Dl 7197 4830
Dl 7304 4987
Dl 7430 5173
Dl 7571 5379
Dl 7659 5507
Dl 8267 6394
Dl 8267 6790
Dl 8267 7185
Dl 7340 8109
Dl 6414 9034
Dl 6029 9034
Dl 5643 9034
Dl 4769 8432
Dl 3894 7831
Dl 3615 7983
Dl 3336 8136
Dl 2928 8126
Dl 2521 8117
Dl 1629 5967
Dl 737 3817
Dl 735 3478
Dl 736 3329
Dl 741 3203
Dl 748 3114
Dl 754 3086
Dl 788 3047
Dl 866 2980
Dl 974 2896
Dl 1079 2821
Dl 1354 2618
Dl 1578 2427
Dl 1764 2235
Dl 1921 2030
Dl 2063 1798
Dl 2153 1623
Dl 2286 1309
Dl 2364 1026
Dl 2386 771
Dl 2370 608
Dl 2265 216
Dl 2099 -154
Dl 1878 -497
Dl 1606 -807
Dl 1289 -1077
Dl 930 -1301
Dl 884 -1325
Dl 635 -1434
Dl 386 -1515
Dl 155 -1562
Dl 17 -1572
Dl -244 -1544
Dl -526 -1464
Dl -816 -1339
Dl -1104 -1174
Dl -1377 -977
Dl -1623 -753
Dl -1776 -582
Dl -1923 -372
Dl -2064 -120
Dl -2188 150
Dl -2281 413
Dl -2304 496
Dl -2339 670
Dl -2350 829
Dl -2334 989
Dl -2290 1169
Dl -2215 1386
Dl -2196 1438
Dl -2023 1804
Dl -1795 2140
Dl -1510 2449
Dl -1166 2735
Dl -933 2894
Dl -835 2960
Dl -759 3016
Dl -725 3047
Dl -715 3094
Dl -707 3192
Dl -702 3326
Dl -700 3451
Dl -700 3818
Dl -1566 5909
Dl -1713 6264
Dl -1853 6602
Dl -1984 6918
Dl -2104 7206
Dl -2211 7462
Dl -2302 7679
Dl -2375 7854
Dl -2428 7980
Dl -2460 8052
Dl -2467 8067
Dl -2487 8096
Dl -2521 8114
Dl -2581 8126
Dl -2678 8132
Dl -2824 8133
Dl -2897 8134
Dl -3292 8134
Dl -3574 7984
Dl -3856 7834
Dl -4403 8211
Dl -4599 8345
Dl -4803 8485
Dl -4998 8619
Dl -5169 8735
Dl -5279 8810
Dl -5609 9034
Dl -5995 9034
Dl -6382 9034
Dl -7308 8108
Dl -8233 7182
Dl -8233 6795
Dl -8233 6628
Dl -8228 6512
Dl -8218 6431
Dl -8197 6368
Dl -8163 6307
Dl -8123 6246
Dl -8074 6174
Dl -7994 6057
Dl -7889 5903
Dl -7765 5723
Dl -7629 5525
Dl -7506 5345
Dl -7372 5147
Dl -7251 4966
Dl -7148 4809
Dl -7069 4685
Dl -7018 4599
Dl -7000 4561
Dl -7012 4519
Dl -7045 4424
Dl -7097 4285
Dl -7164 4112
Dl -7242 3912
Dl -7304 3756
Dl -7408 3500
Dl -7492 3301
Dl -7558 3154
Dl -7609 3053
Dl -7649 2992
Dl -7679 2965
Dl -7728 2952
Dl -7834 2929
Dl -7989 2898
Dl -8187 2859
Dl -8418 2814
Dl -8676 2765
Dl -8929 2718
Dl -9203 2667
Dl -9456 2618
Dl -9682 2573
Dl -9872 2533
Dl -10020 2500
Dl -10117 2476
Dl -10154 2463
Dl -10165 2444
Dl -10174 2402
Dl -10181 2332
Dl -10187 2230
Dl -10192 2090
Dl -10195 1907
Dl -10198 1676
Dl -10199 1392
Dl -10200 1049
Dl -10200 780
Dl -10200 -865
Dl -10125 -911
Dl -10076 -928
Dl -9969 -954
Dl -9812 -989
Dl -9613 -1030
Dl -9379 -1077
Dl -9119 -1127
Dl -8840 -1179
Dl -8833 -1181
Dl -8556 -1232
Dl -8298 -1282
Dl -8069 -1328
Dl -7874 -1369
Dl -7722 -1403
Dl -7620 -1428
Dl -7576 -1444
Dl -7575 -1444
Dl -7551 -1485
Dl -7507 -1576
Dl -7446 -1707
Dl -7373 -1867
Dl -7294 -2046
Dl -7212 -2232
Dl -7133 -2415
Dl -7061 -2585
Dl -7001 -2731
Dl -6958 -2841
Dl -6935 -2905
Dl -6933 -2915
Dl -6951 -2950
Dl -7003 -3034
Dl -7084 -3159
Dl -7191 -3319
Dl -7317 -3507
Dl -7460 -3718
Dl -7583 -3897
Dl -8233 -4843
Dl -8233 -5229
Dl -8233 -5614
Dl -7309 -6540
Dl -6385 -7466
Dl -5989 -7466
Dl -5593 -7466
Dl -4755 -6893
Dl -4538 -6745
Dl -4333 -6604
Dl -4148 -6477
Dl -3991 -6369
Dl -3870 -6286
Dl -3793 -6233
Dl -3780 -6224
Dl -3644 -6128
Dl -3014 -6384
Dl -2770 -6484
Dl -2581 -6562
Dl -2439 -6623
Dl -2337 -6669
Dl -2269 -6705
Dl -2226 -6734
Dl -2201 -6761
Dl -2187 -6787
Dl -2184 -6797
Dl -2173 -6844
Dl -2152 -6949
Dl -2122 -7103
Dl -2084 -7301
Dl -2039 -7533
Dl -1991 -7793
Dl -1938 -8072
Dl -1933 -8101
Dl -1880 -8381
Dl -1829 -8642
Dl -1783 -8875
Dl -1741 -9073
Dl -1707 -9229
Dl -1681 -9336
Dl -1665 -9385
Dl -1664 -9386
Dl -1646 -9397
Dl -1607 -9406
Dl -1543 -9414
Dl -1448 -9420
Dl -1317 -9425
Dl -1144 -9428
Dl -926 -9430
Dl -655 -9432
Dl -328 -9433
Dl 13 -9433
Dl 338 -9432
Dl 643 -9430
Dl 922 -9428
Dl 1168 -9425
Dl 1375 -9421
Dl 1535 -9416
Dl 1643 -9411
Dl 1692 -9406
Dl 1693 -9405
Dl 1710 -9365
Dl 1737 -9265
Dl 1774 -9107
Dl 1818 -8898
Dl 1869 -8642
Dl 1927 -8342
Dl 1969 -8114
Dl 2022 -7830
Dl 2072 -7564
Dl 2118 -7325
Dl 2159 -7120
Dl 2192 -6956
Dl 2216 -6842
Dl 2230 -6784
Dl 2231 -6780
Dl 2260 -6748
Dl 2328 -6705
Dl 2439 -6649
Dl 2599 -6576
Dl 2813 -6485
Dl 2968 -6421
Dl 3194 -6328
Dl 3368 -6258
Dl 3496 -6209
Dl 3588 -6178
Dl 3652 -6162
Dl 3696 -6160
Dl 3728 -6168
Dl 3758 -6184
Dl 3763 -6187
Dl 3811 -6220
Dl 3907 -6285
Dl 4043 -6378
Dl 4212 -6493
Dl 4407 -6626
Dl 4620 -6772
Dl 4741 -6855
Dl 5632 -7466
Dl 6024 -7466
Dl 6417 -7466
Dl 7342 -6541
Dl 8267 -5616
Dl 8267 -5223
Dl 8267 -4829
Dl 7613 -3879
Dl 6959 -2928
Dl 7271 -2194
Dl 7364 -1981
Dl 7450 -1790
Dl 7525 -1632
Dl 7586 -1514
Dl 7628 -1444
Dl 7641 -1429
Dl 7686 -1416
Dl 7789 -1393
Dl 7943 -1360
Dl 8139 -1321
Dl 8370 -1275
Dl 8629 -1225
Dl 8908 -1173
Dl 8939 -1167
Dl 9258 -1106
Dl 9540 -1051
Dl 9778 -1002
Dl 9969 -960
Dl 10106 -927
Dl 10186 -903
Dl 10205 -893
Dl 10211 -852
Dl 10216 -751
Dl 10220 -596
Dl 10224 -395
Dl 10228 -153
Dl 10230 122
Dl 10232 425
Dl 10233 748
Dl 10233 788
Dl 10233 1169
Dl 10233 1169
$EndMODULE LOGO
$EndLIBRARY
