PCBNEW-LibModule-V1
$INDEX
LOGO
$EndINDEX
#
# LOGO
# pixmap w = 700, h = 700
#
$MODULE LOGO
Po 0 0 0 15 00000000 00000000 ~~
Li LOGO
T0 0 11966 600 600 0 120 N I 21 "G***"
T1 0 -11966 600 600 0 120 N I 21 "LOGO"
DP 0 0 0 0 537 1 21
Dl 9900 788
Dl 9899 1126
Dl 9898 1403
Dl 9896 1625
Dl 9893 1799
Dl 9888 1929
Dl 9882 2021
Dl 9873 2082
Dl 9863 2118
Dl 9853 2131
Dl 9811 2146
Dl 9710 2171
Dl 9559 2204
Dl 9365 2245
Dl 9137 2290
Dl 8881 2340
Dl 8611 2390
Dl 8309 2447
Dl 8037 2500
Dl 7802 2548
Dl 7611 2589
Dl 7470 2623
Dl 7384 2648
Dl 7361 2659
Dl 7334 2701
Dl 7288 2795
Dl 7227 2933
Dl 7153 3104
Dl 7071 3301
Dl 6983 3513
Dl 6895 3731
Dl 6809 3948
Dl 6730 4152
Dl 6660 4336
Dl 6604 4490
Dl 6565 4605
Dl 6546 4672
Dl 6546 4684
Dl 6568 4720
Dl 6623 4805
Dl 6708 4932
Dl 6817 5094
Dl 6947 5286
Dl 7093 5500
Dl 7248 5726
Dl 7405 5957
Dl 7550 6172
Dl 7677 6366
Dl 7784 6531
Dl 7865 6661
Dl 7916 6749
Dl 7934 6789
Dl 7911 6826
Dl 7846 6903
Dl 7745 7014
Dl 7616 7152
Dl 7463 7312
Dl 7293 7486
Dl 7112 7670
Dl 6927 7855
Dl 6744 8037
Dl 6569 8209
Dl 6408 8365
Dl 6268 8498
Dl 6154 8602
Dl 6073 8672
Dl 6031 8700
Dl 6029 8700
Dl 5990 8682
Dl 5904 8630
Dl 5775 8548
Dl 5611 8441
Dl 5419 8313
Dl 5204 8168
Dl 4982 8017
Dl 4752 7860
Dl 4538 7715
Dl 4345 7588
Dl 4182 7482
Dl 4053 7401
Dl 3967 7350
Dl 3929 7334
Dl 3881 7349
Dl 3786 7391
Dl 3656 7454
Dl 3504 7532
Dl 3434 7569
Dl 3267 7656
Dl 3120 7726
Dl 3007 7773
Dl 2936 7794
Dl 2926 7794
Dl 2909 7785
Dl 2886 7759
Dl 2858 7713
Dl 2820 7642
Dl 2772 7542
Dl 2712 7409
Dl 2637 7240
Dl 2547 7029
Dl 2439 6774
Dl 2312 6470
Dl 2163 6113
Dl 1991 5699
Dl 1961 5626
Dl 1813 5266
Dl 1673 4924
Dl 1543 4604
Dl 1425 4311
Dl 1322 4051
Dl 1235 3829
Dl 1166 3649
Dl 1118 3518
Dl 1092 3439
Dl 1088 3418
Dl 1122 3379
Dl 1199 3313
Dl 1307 3229
Dl 1412 3154
Dl 1689 2950
Dl 1915 2758
Dl 2101 2564
Dl 2260 2356
Dl 2403 2121
Dl 2473 1988
Dl 2630 1604
Dl 2724 1209
Dl 2756 807
Dl 2727 406
Dl 2639 13
Dl 2492 -365
Dl 2287 -722
Dl 2026 -1052
Dl 2006 -1073
Dl 1693 -1359
Dl 1344 -1592
Dl 954 -1773
Dl 766 -1838
Dl 656 -1870
Dl 552 -1892
Dl 439 -1906
Dl 299 -1913
Dl 116 -1916
Dl 17 -1916
Dl -191 -1915
Dl -348 -1910
Dl -472 -1899
Dl -578 -1881
Dl -684 -1853
Dl -733 -1838
Dl -1140 -1678
Dl -1509 -1465
Dl -1837 -1202
Dl -2120 -893
Dl -2354 -540
Dl -2419 -416
Dl -2554 -109
Dl -2643 182
Dl -2691 482
Dl -2705 800
Dl -2673 1227
Dl -2579 1634
Dl -2423 2018
Dl -2208 2373
Dl -1942 2690
Dl -1823 2802
Dl -1668 2932
Dl -1498 3065
Dl -1332 3185
Dl -1191 3277
Dl -1173 3287
Dl -1097 3345
Dl -1051 3407
Dl -1048 3416
Dl -1057 3460
Dl -1091 3562
Dl -1149 3718
Dl -1229 3926
Dl -1330 4182
Dl -1450 4482
Dl -1589 4824
Dl -1744 5203
Dl -1898 5575
Dl -2045 5930
Dl -2185 6268
Dl -2317 6584
Dl -2437 6872
Dl -2544 7128
Dl -2635 7346
Dl -2708 7520
Dl -2762 7646
Dl -2793 7719
Dl -2800 7734
Dl -2854 7787
Dl -2899 7800
Dl -2949 7785
Dl -3046 7743
Dl -3177 7680
Dl -3330 7601
Dl -3401 7564
Dl -3597 7462
Dl -3751 7390
Dl -3859 7349
Dl -3912 7342
Dl -3959 7364
Dl -4051 7419
Dl -4182 7502
Dl -4340 7606
Dl -4519 7727
Dl -4633 7805
Dl -4941 8017
Dl -5199 8194
Dl -5411 8339
Dl -5582 8455
Dl -5716 8544
Dl -5819 8610
Dl -5894 8656
Dl -5946 8684
Dl -5979 8698
Dl -5995 8700
Dl -6029 8677
Dl -6105 8612
Dl -6217 8510
Dl -6360 8376
Dl -6528 8215
Dl -6715 8032
Dl -6917 7832
Dl -6957 7792
Dl -7160 7589
Dl -7349 7398
Dl -7517 7225
Dl -7660 7077
Dl -7772 6958
Dl -7849 6874
Dl -7884 6830
Dl -7885 6827
Dl -7891 6807
Dl -7893 6788
Dl -7888 6762
Dl -7872 6725
Dl -7843 6671
Dl -7796 6595
Dl -7728 6492
Dl -7637 6356
Dl -7518 6181
Dl -7369 5963
Dl -7185 5696
Dl -7168 5671
Dl -7013 5444
Dl -6871 5233
Dl -6745 5044
Dl -6641 4885
Dl -6563 4761
Dl -6514 4680
Dl -6500 4649
Dl -6512 4607
Dl -6546 4511
Dl -6599 4369
Dl -6668 4189
Dl -6750 3979
Dl -6842 3746
Dl -6888 3631
Dl -7004 3342
Dl -7100 3111
Dl -7176 2931
Dl -7237 2799
Dl -7284 2708
Dl -7320 2654
Dl -7346 2632
Dl -7394 2619
Dl -7500 2596
Dl -7656 2564
Dl -7854 2525
Dl -8085 2481
Dl -8343 2432
Dl -8596 2385
Dl -8869 2334
Dl -9123 2285
Dl -9349 2239
Dl -9539 2200
Dl -9687 2167
Dl -9783 2143
Dl -9821 2130
Dl -9833 2109
Dl -9843 2064
Dl -9850 1990
Dl -9856 1880
Dl -9861 1730
Dl -9864 1533
Dl -9866 1283
Dl -9866 976
Dl -9866 780
Dl -9866 -532
Dl -9791 -578
Dl -9742 -594
Dl -9635 -621
Dl -9478 -656
Dl -9279 -697
Dl -9046 -744
Dl -8786 -794
Dl -8507 -846
Dl -8500 -847
Dl -8222 -899
Dl -7965 -949
Dl -7735 -995
Dl -7540 -1036
Dl -7388 -1070
Dl -7286 -1095
Dl -7242 -1111
Dl -7241 -1112
Dl -7217 -1153
Dl -7172 -1246
Dl -7109 -1382
Dl -7033 -1550
Dl -6948 -1743
Dl -6858 -1949
Dl -6768 -2160
Dl -6680 -2366
Dl -6600 -2558
Dl -6531 -2725
Dl -6478 -2860
Dl -6444 -2952
Dl -6433 -2989
Dl -6451 -3028
Dl -6504 -3114
Dl -6586 -3243
Dl -6693 -3408
Dl -6822 -3602
Dl -6969 -3819
Dl -7128 -4053
Dl -7154 -4090
Dl -7316 -4327
Dl -7466 -4549
Dl -7600 -4749
Dl -7714 -4921
Dl -7803 -5058
Dl -7863 -5154
Dl -7891 -5203
Dl -7892 -5205
Dl -7887 -5232
Dl -7859 -5278
Dl -7806 -5345
Dl -7724 -5439
Dl -7608 -5563
Dl -7456 -5721
Dl -7264 -5917
Dl -7028 -6155
Dl -6980 -6202
Dl -6744 -6438
Dl -6533 -6644
Dl -6351 -6819
Dl -6202 -6959
Dl -6089 -7060
Dl -6016 -7119
Dl -5989 -7133
Dl -5948 -7115
Dl -5858 -7063
Dl -5727 -6981
Dl -5561 -6873
Dl -5365 -6744
Dl -5147 -6598
Dl -4913 -6439
Dl -4888 -6422
Dl -4651 -6260
Dl -4430 -6109
Dl -4230 -5974
Dl -4059 -5858
Dl -3922 -5766
Dl -3827 -5703
Dl -3779 -5673
Dl -3777 -5672
Dl -3748 -5663
Dl -3705 -5664
Dl -3641 -5678
Dl -3549 -5707
Dl -3422 -5753
Dl -3252 -5819
Dl -3032 -5907
Dl -2877 -5971
Dl -2602 -6083
Dl -2383 -6173
Dl -2213 -6244
Dl -2085 -6300
Dl -1993 -6342
Dl -1930 -6376
Dl -1891 -6402
Dl -1868 -6426
Dl -1856 -6449
Dl -1851 -6464
Dl -1840 -6511
Dl -1819 -6615
Dl -1788 -6770
Dl -1750 -6967
Dl -1706 -7200
Dl -1657 -7460
Dl -1605 -7739
Dl -1600 -7768
Dl -1547 -8048
Dl -1496 -8308
Dl -1449 -8541
Dl -1408 -8740
Dl -1373 -8896
Dl -1347 -9002
Dl -1332 -9052
Dl -1330 -9053
Dl -1311 -9065
Dl -1269 -9075
Dl -1200 -9083
Dl -1098 -9089
Dl -957 -9094
Dl -771 -9097
Dl -534 -9098
Dl -240 -9099
Dl 13 -9099
Dl 302 -9099
Dl 572 -9096
Dl 813 -9093
Dl 1020 -9089
Dl 1184 -9084
Dl 1299 -9079
Dl 1356 -9073
Dl 1360 -9072
Dl 1377 -9032
Dl 1404 -8932
Dl 1440 -8775
Dl 1485 -8566
Dl 1537 -8309
Dl 1595 -8010
Dl 1647 -7737
Dl 1701 -7450
Dl 1752 -7183
Dl 1800 -6944
Dl 1841 -6739
Dl 1876 -6576
Dl 1902 -6462
Dl 1919 -6404
Dl 1921 -6399
Dl 1962 -6375
Dl 2055 -6332
Dl 2190 -6274
Dl 2357 -6203
Dl 2548 -6123
Dl 2752 -6039
Dl 2962 -5955
Dl 3166 -5873
Dl 3356 -5799
Dl 3522 -5735
Dl 3655 -5685
Dl 3746 -5654
Dl 3784 -5645
Dl 3819 -5667
Dl 3903 -5722
Dl 4029 -5807
Dl 4191 -5917
Dl 4384 -6048
Dl 4601 -6196
Dl 4836 -6357
Dl 4893 -6396
Dl 5132 -6560
Dl 5355 -6710
Dl 5557 -6844
Dl 5731 -6958
Dl 5870 -7046
Dl 5968 -7106
Dl 6020 -7132
Dl 6024 -7133
Dl 6062 -7110
Dl 6139 -7045
Dl 6250 -6945
Dl 6389 -6814
Dl 6548 -6661
Dl 6723 -6491
Dl 6906 -6310
Dl 7091 -6124
Dl 7273 -5941
Dl 7444 -5765
Dl 7600 -5604
Dl 7733 -5463
Dl 7837 -5348
Dl 7906 -5267
Dl 7933 -5225
Dl 7934 -5223
Dl 7915 -5183
Dl 7863 -5095
Dl 7781 -4965
Dl 7673 -4799
Dl 7545 -4605
Dl 7399 -4388
Dl 7240 -4155
Dl 7230 -4140
Dl 7069 -3906
Dl 6919 -3687
Dl 6785 -3489
Dl 6671 -3320
Dl 6582 -3185
Dl 6521 -3092
Dl 6494 -3047
Dl 6493 -3047
Dl 6488 -3016
Dl 6496 -2964
Dl 6518 -2886
Dl 6557 -2775
Dl 6616 -2624
Dl 6696 -2429
Dl 6801 -2181
Dl 6855 -2052
Dl 6962 -1805
Dl 7061 -1584
Dl 7147 -1396
Dl 7219 -1248
Dl 7273 -1146
Dl 7305 -1098
Dl 7308 -1096
Dl 7353 -1083
Dl 7456 -1060
Dl 7609 -1027
Dl 7805 -987
Dl 8037 -942
Dl 8296 -892
Dl 8575 -839
Dl 8605 -834
Dl 8925 -773
Dl 9207 -718
Dl 9445 -668
Dl 9635 -627
Dl 9773 -593
Dl 9853 -569
Dl 9872 -559
Dl 9878 -518
Dl 9884 -416
Dl 9889 -264
Dl 9893 -66
Dl 9896 168
Dl 9898 431
Dl 9900 716
Dl 9900 788
Dl 9900 788
$EndMODULE LOGO
$EndLIBRARY
