PCBNEW-LibModule-V1
$INDEX
LOGO
$EndINDEX
#
# LOGO
# pixmap w = 234, h = 648
#
$MODULE LOGO
Po 0 0 0 15 00000000 00000000 ~~
Li LOGO
T0 0 11100 600 600 0 120 N I 21 "G***"
T1 0 -11100 600 600 0 120 N I 21 "LOGO"
DP 0 0 0 0 417 1 21
Dl 2871 4716
Dl 2730 4839
Dl 2659 4898
Dl 2547 4991
Dl 2405 5107
Dl 2245 5238
Dl 2079 5372
Dl 1922 5499
Dl 1785 5613
Dl 1675 5707
Dl 1600 5773
Dl 1569 5805
Dl 1568 5807
Dl 1592 5833
Dl 1662 5896
Dl 1769 5988
Dl 1908 6105
Dl 2070 6239
Dl 2214 6357
Dl 2391 6501
Dl 2549 6632
Dl 2681 6744
Dl 2780 6831
Dl 2841 6886
Dl 2855 6904
Dl 2829 6930
Dl 2758 6992
Dl 2649 7084
Dl 2510 7201
Dl 2347 7336
Dl 2208 7449
Dl 2032 7594
Dl 1874 7725
Dl 1742 7837
Dl 1643 7923
Dl 1583 7978
Dl 1568 7995
Dl 1593 8021
Dl 1662 8083
Dl 1768 8173
Dl 1903 8286
Dl 2059 8413
Dl 2101 8448
Dl 2261 8579
Dl 2402 8697
Dl 2516 8795
Dl 2595 8867
Dl 2631 8905
Dl 2633 8909
Dl 2612 8954
Dl 2560 9027
Dl 2492 9107
Dl 2424 9179
Dl 2371 9223
Dl 2354 9230
Dl 2319 9209
Dl 2240 9151
Dl 2123 9061
Dl 1976 8944
Dl 1804 8807
Dl 1615 8654
Dl 1576 8622
Dl 1386 8466
Dl 1214 8323
Dl 1067 8200
Dl 950 8101
Dl 871 8031
Dl 836 7998
Dl 834 7995
Dl 859 7970
Dl 928 7908
Dl 1035 7816
Dl 1174 7699
Dl 1336 7564
Dl 1481 7445
Dl 1658 7300
Dl 1817 7169
Dl 1950 7057
Dl 2051 6971
Dl 2113 6917
Dl 2130 6900
Dl 2105 6875
Dl 2035 6814
Dl 1927 6723
Dl 1789 6608
Dl 1626 6474
Dl 1481 6356
Dl 1304 6211
Dl 1145 6079
Dl 1012 5967
Dl 912 5880
Dl 851 5824
Dl 835 5806
Dl 860 5779
Dl 930 5717
Dl 1035 5627
Dl 1169 5516
Dl 1324 5390
Dl 1346 5372
Dl 1514 5236
Dl 1674 5105
Dl 1816 4989
Dl 1927 4897
Dl 1996 4839
Dl 2137 4716
Dl 1485 4185
Dl 1307 4040
Dl 1148 3908
Dl 1014 3796
Dl 912 3709
Dl 850 3653
Dl 833 3635
Dl 858 3610
Dl 928 3548
Dl 1036 3457
Dl 1174 3341
Dl 1338 3207
Dl 1485 3086
Dl 1690 2918
Dl 1848 2787
Dl 1963 2687
Dl 2039 2614
Dl 2083 2564
Dl 2099 2532
Dl 2093 2514
Dl 2056 2482
Dl 1974 2414
Dl 1857 2317
Dl 1712 2198
Dl 1546 2062
Dl 1450 1983
Dl 1279 1843
Dl 1126 1717
Dl 999 1610
Dl 905 1530
Dl 851 1481
Dl 841 1470
Dl 863 1443
Dl 930 1381
Dl 1036 1288
Dl 1173 1171
Dl 1335 1036
Dl 1481 916
Dl 1707 730
Dl 1882 580
Dl 2007 466
Dl 2081 390
Dl 2101 353
Dl 2100 351
Dl 2067 321
Dl 1989 256
Dl 1875 160
Dl 1731 42
Dl 1566 -92
Dl 1453 -184
Dl 1280 -325
Dl 1126 -452
Dl 997 -560
Dl 901 -642
Dl 846 -692
Dl 834 -705
Dl 859 -731
Dl 928 -793
Dl 1035 -885
Dl 1173 -1002
Dl 1335 -1136
Dl 1475 -1251
Dl 1651 -1395
Dl 1810 -1527
Dl 1943 -1638
Dl 2044 -1724
Dl 2106 -1779
Dl 2123 -1796
Dl 2100 -1822
Dl 2032 -1883
Dl 1926 -1974
Dl 1789 -2088
Dl 1629 -2219
Dl 1529 -2300
Dl 1355 -2441
Dl 1196 -2571
Dl 1061 -2682
Dl 957 -2769
Dl 893 -2825
Dl 878 -2839
Dl 867 -2859
Dl 870 -2885
Dl 893 -2921
Dl 943 -2973
Dl 1023 -3046
Dl 1140 -3145
Dl 1299 -3277
Dl 1478 -3422
Dl 1655 -3567
Dl 1814 -3699
Dl 1946 -3811
Dl 2046 -3897
Dl 2107 -3953
Dl 2122 -3971
Dl 2096 -3997
Dl 2024 -4059
Dl 1916 -4151
Dl 1776 -4267
Dl 1613 -4401
Dl 1475 -4515
Dl 1298 -4659
Dl 1141 -4790
Dl 1009 -4902
Dl 909 -4988
Dl 849 -5043
Dl 835 -5061
Dl 860 -5088
Dl 930 -5150
Dl 1035 -5240
Dl 1169 -5351
Dl 1324 -5477
Dl 1346 -5495
Dl 1514 -5631
Dl 1675 -5762
Dl 1816 -5878
Dl 1927 -5970
Dl 1997 -6028
Dl 2138 -6150
Dl 1484 -6681
Dl 1307 -6826
Dl 1148 -6958
Dl 1016 -7071
Dl 916 -7159
Dl 855 -7216
Dl 840 -7236
Dl 868 -7264
Dl 940 -7326
Dl 1049 -7418
Dl 1187 -7533
Dl 1347 -7665
Dl 1433 -7735
Dl 1605 -7875
Dl 1762 -8004
Dl 1897 -8114
Dl 2000 -8200
Dl 2063 -8253
Dl 2076 -8265
Dl 2094 -8287
Dl 2098 -8311
Dl 2080 -8344
Dl 2037 -8392
Dl 1961 -8461
Dl 1847 -8558
Dl 1688 -8688
Dl 1629 -8736
Dl 1469 -8866
Dl 1325 -8984
Dl 1205 -9081
Dl 1118 -9151
Dl 1073 -9187
Dl 1071 -9188
Dl 1049 -9215
Dl 1057 -9254
Dl 1099 -9318
Dl 1164 -9398
Dl 1240 -9483
Dl 1302 -9541
Dl 1335 -9560
Dl 1367 -9537
Dl 1444 -9478
Dl 1559 -9387
Dl 1705 -9269
Dl 1876 -9131
Dl 2066 -8978
Dl 2116 -8937
Dl 2333 -8760
Dl 2503 -8620
Dl 2631 -8512
Dl 2723 -8431
Dl 2783 -8373
Dl 2816 -8332
Dl 2828 -8303
Dl 2824 -8282
Dl 2810 -8266
Dl 2767 -8228
Dl 2681 -8156
Dl 2559 -8056
Dl 2411 -7934
Dl 2245 -7799
Dl 2166 -7735
Dl 1998 -7597
Dl 1848 -7473
Dl 1723 -7369
Dl 1632 -7291
Dl 1582 -7246
Dl 1574 -7237
Dl 1596 -7211
Dl 1664 -7148
Dl 1770 -7056
Dl 1907 -6939
Dl 2069 -6804
Dl 2218 -6682
Dl 2871 -6150
Dl 2730 -6028
Dl 2659 -5968
Dl 2547 -5876
Dl 2405 -5759
Dl 2245 -5629
Dl 2079 -5495
Dl 1923 -5367
Dl 1785 -5254
Dl 1675 -5160
Dl 1600 -5094
Dl 1569 -5062
Dl 1568 -5061
Dl 1592 -5035
Dl 1662 -4972
Dl 1769 -4880
Dl 1907 -4764
Dl 2070 -4629
Dl 2215 -4511
Dl 2392 -4366
Dl 2551 -4235
Dl 2684 -4124
Dl 2785 -4039
Dl 2846 -3984
Dl 2862 -3967
Dl 2837 -3942
Dl 2768 -3882
Dl 2660 -3791
Dl 2521 -3675
Dl 2358 -3541
Dl 2212 -3422
Dl 2011 -3259
Dl 1858 -3132
Dl 1745 -3036
Dl 1669 -2965
Dl 1623 -2916
Dl 1602 -2881
Dl 1601 -2856
Dl 1612 -2839
Dl 1651 -2803
Dl 1735 -2732
Dl 1855 -2632
Dl 2002 -2511
Dl 2169 -2376
Dl 2262 -2300
Dl 2432 -2162
Dl 2583 -2038
Dl 2708 -1933
Dl 2799 -1854
Dl 2848 -1806
Dl 2856 -1796
Dl 2829 -1770
Dl 2758 -1708
Dl 2649 -1616
Dl 2510 -1499
Dl 2347 -1364
Dl 2208 -1251
Dl 2032 -1106
Dl 1874 -975
Dl 1742 -863
Dl 1643 -777
Dl 1583 -722
Dl 1568 -705
Dl 1593 -679
Dl 1663 -617
Dl 1771 -526
Dl 1909 -411
Dl 2070 -278
Dl 2186 -184
Dl 2361 -42
Dl 2520 88
Dl 2653 198
Dl 2755 283
Dl 2818 337
Dl 2834 351
Dl 2819 385
Dl 2751 457
Dl 2631 566
Dl 2461 713
Dl 2240 895
Dl 2214 916
Dl 2037 1062
Dl 1880 1194
Dl 1748 1307
Dl 1648 1394
Dl 1589 1451
Dl 1574 1470
Dl 1601 1497
Dl 1673 1560
Dl 1782 1652
Dl 1921 1768
Dl 2082 1900
Dl 2183 1983
Dl 2356 2125
Dl 2513 2254
Dl 2647 2364
Dl 2749 2448
Dl 2812 2501
Dl 2827 2514
Dl 2832 2534
Dl 2813 2568
Dl 2766 2621
Dl 2686 2696
Dl 2567 2799
Dl 2405 2934
Dl 2218 3086
Dl 2041 3231
Dl 1881 3363
Dl 1747 3475
Dl 1646 3562
Dl 1583 3617
Dl 1566 3635
Dl 1591 3660
Dl 1661 3722
Dl 1768 3813
Dl 1907 3929
Dl 2070 4064
Dl 2218 4185
Dl 2871 4716
Dl 2871 4716
DP 0 0 0 0 63 1 21
Dl -67 8400
Dl -1350 8400
Dl -1567 8400
Dl -1567 7966
Dl -1567 7715
Dl -1583 7485
Dl -1630 7313
Dl -1709 7199
Dl -1820 7141
Dl -1886 7134
Dl -2006 7163
Dl -2098 7251
Dl -2161 7396
Dl -2195 7595
Dl -2200 7741
Dl -2200 7966
Dl -1884 7966
Dl -1567 7966
Dl -1567 8400
Dl -2634 8400
Dl -2634 7927
Dl -2628 7648
Dl -2609 7425
Dl -2575 7247
Dl -2523 7103
Dl -2451 6982
Dl -2424 6949
Dl -2273 6814
Dl -2094 6731
Dl -1900 6701
Dl -1705 6723
Dl -1522 6798
Dl -1364 6925
Dl -1340 6953
Dl -1278 7036
Dl -1240 7102
Dl -1234 7124
Dl -1216 7163
Dl -1205 7166
Dl -1167 7153
Dl -1079 7116
Dl -951 7059
Dl -793 6988
Dl -636 6916
Dl -461 6836
Dl -309 6766
Dl -187 6712
Dl -108 6677
Dl -80 6666
Dl -73 6697
Dl -71 6777
Dl -73 6891
Dl -74 6906
Dl -84 7146
Dl -600 7383
Dl -1117 7620
Dl -1127 7793
Dl -1137 7966
Dl -602 7966
Dl -67 7966
Dl -67 8183
Dl -67 8400
Dl -67 8400
DP 0 0 0 0 61 1 21
Dl -72 6126
Dl -80 6201
Dl -99 6229
Dl -107 6230
Dl -147 6217
Dl -241 6181
Dl -383 6126
Dl -565 6053
Dl -781 5967
Dl -1023 5868
Dl -1285 5762
Dl -1317 5748
Dl -1584 5639
Dl -1834 5536
Dl -2061 5444
Dl -2256 5364
Dl -2413 5301
Dl -2524 5256
Dl -2582 5233
Dl -2584 5233
Dl -2647 5204
Dl -2651 5180
Dl -2634 5168
Dl -2591 5148
Dl -2495 5108
Dl -2355 5049
Dl -2178 4976
Dl -1972 4891
Dl -1746 4799
Dl -1507 4701
Dl -1263 4602
Dl -1023 4505
Dl -793 4412
Dl -583 4327
Dl -400 4254
Dl -252 4195
Dl -147 4154
Dl -93 4134
Dl -88 4133
Dl -78 4163
Dl -72 4244
Dl -73 4357
Dl -74 4372
Dl -84 4611
Dl -776 4893
Dl -975 4975
Dl -1149 5049
Dl -1292 5112
Dl -1393 5159
Dl -1446 5187
Dl -1451 5193
Dl -1416 5211
Dl -1329 5249
Dl -1197 5304
Dl -1032 5373
Dl -842 5451
Dl -758 5485
Dl -84 5758
Dl -74 5995
Dl -72 6126
Dl -72 6126
DP 0 0 0 0 47 1 21
Dl -57 3666
Dl -525 3666
Dl -525 3233
Dl -544 3044
Dl -586 2846
Dl -665 2650
Dl -771 2476
Dl -894 2343
Dl -928 2317
Dl -1020 2261
Dl -1111 2228
Dl -1226 2211
Dl -1311 2206
Dl -1454 2204
Dl -1559 2217
Dl -1652 2249
Dl -1700 2272
Dl -1868 2392
Dl -2002 2563
Dl -2104 2787
Dl -2176 3068
Dl -2183 3108
Dl -2204 3233
Dl -1364 3233
Dl -525 3233
Dl -525 3666
Dl -1350 3666
Dl -2644 3666
Dl -2624 3291
Dl -2583 2917
Dl -2501 2595
Dl -2380 2325
Dl -2219 2108
Dl -2018 1945
Dl -1779 1835
Dl -1500 1779
Dl -1429 1773
Dl -1132 1786
Dl -869 1855
Dl -642 1979
Dl -451 2157
Dl -298 2389
Dl -184 2672
Dl -108 3006
Dl -78 3304
Dl -57 3666
Dl -57 3666
DP 0 0 0 0 26 1 21
Dl -66 -167
Dl -75 558
Dl -84 1283
Dl -300 1283
Dl -517 1283
Dl -527 1025
Dl -537 766
Dl -1369 766
Dl -2200 766
Dl -2200 1033
Dl -2200 1300
Dl -2417 1300
Dl -2634 1300
Dl -2634 566
Dl -2634 -167
Dl -2417 -167
Dl -2200 -167
Dl -2200 83
Dl -2200 333
Dl -1367 333
Dl -534 333
Dl -534 83
Dl -534 -167
Dl -300 -167
Dl -66 -167
Dl -66 -167
DP 0 0 0 0 71 1 21
Dl -72 -2291
Dl -74 -2067
Dl -75 -2004
Dl -84 -1285
Dl -499 -1044
Dl -499 -1543
Dl -508 -2028
Dl -517 -2514
Dl -934 -2754
Dl -1350 -2995
Dl -1550 -2881
Dl -1688 -2803
Dl -1846 -2714
Dl -1976 -2642
Dl -2201 -2517
Dl -2193 -2021
Dl -2184 -1525
Dl -1784 -1296
Dl -1637 -1213
Dl -1510 -1143
Dl -1416 -1093
Dl -1364 -1069
Dl -1359 -1067
Dl -1322 -1083
Dl -1239 -1126
Dl -1120 -1191
Dl -976 -1271
Dl -916 -1305
Dl -499 -1543
Dl -499 -1044
Dl -700 -927
Dl -885 -821
Dl -1053 -728
Dl -1194 -652
Dl -1299 -599
Dl -1359 -573
Dl -1367 -571
Dl -1410 -588
Dl -1501 -634
Dl -1630 -704
Dl -1789 -792
Dl -1968 -895
Dl -2025 -928
Dl -2633 -1284
Dl -2633 -2022
Dl -2634 -2761
Dl -2012 -3119
Dl -1827 -3225
Dl -1661 -3319
Dl -1522 -3395
Dl -1419 -3448
Dl -1362 -3475
Dl -1354 -3477
Dl -1315 -3461
Dl -1229 -3417
Dl -1107 -3350
Dl -960 -3268
Dl -798 -3177
Dl -633 -3081
Dl -474 -2989
Dl -333 -2905
Dl -219 -2836
Dl -145 -2787
Dl -125 -2773
Dl -105 -2751
Dl -91 -2717
Dl -81 -2663
Dl -75 -2580
Dl -72 -2459
Dl -72 -2291
Dl -72 -2291
DP 0 0 0 0 31 1 21
Dl -67 -5646
Dl -948 -5031
Dl -1828 -4417
Dl -956 -4400
Dl -84 -4384
Dl -84 -4167
Dl -84 -3950
Dl -1336 -3942
Dl -1619 -3940
Dl -1880 -3940
Dl -2113 -3941
Dl -2310 -3943
Dl -2464 -3946
Dl -2566 -3950
Dl -2610 -3955
Dl -2611 -3956
Dl -2623 -3999
Dl -2631 -4088
Dl -2634 -4183
Dl -2634 -4388
Dl -1755 -5002
Dl -876 -5617
Dl -1755 -5626
Dl -2634 -5635
Dl -2634 -5851
Dl -2634 -6067
Dl -1350 -6067
Dl -67 -6067
Dl -67 -5856
Dl -67 -5646
Dl -67 -5646
DP 0 0 0 0 86 1 21
Dl -67 -7549
Dl -68 -7301
Dl -70 -7072
Dl -73 -6869
Dl -77 -6702
Dl -82 -6578
Dl -88 -6506
Dl -92 -6491
Dl -126 -6503
Dl -213 -6543
Dl -346 -6609
Dl -500 -6687
Dl -500 -7834
Dl -501 -8031
Dl -504 -8203
Dl -509 -8340
Dl -514 -8431
Dl -520 -8467
Dl -557 -8452
Dl -640 -8410
Dl -757 -8348
Dl -899 -8271
Dl -1055 -8186
Dl -1213 -8099
Dl -1363 -8014
Dl -1494 -7940
Dl -1595 -7881
Dl -1655 -7843
Dl -1667 -7833
Dl -1640 -7813
Dl -1564 -7767
Dl -1452 -7702
Dl -1313 -7624
Dl -1159 -7538
Dl -1001 -7450
Dl -849 -7368
Dl -715 -7296
Dl -609 -7241
Dl -542 -7208
Dl -525 -7202
Dl -518 -7233
Dl -511 -7321
Dl -506 -7455
Dl -502 -7624
Dl -501 -7820
Dl -500 -7834
Dl -500 -6687
Dl -519 -6696
Dl -727 -6802
Dl -963 -6924
Dl -1221 -7058
Dl -1392 -7147
Dl -1660 -7289
Dl -1909 -7420
Dl -2132 -7540
Dl -2325 -7643
Dl -2480 -7727
Dl -2592 -7789
Dl -2655 -7826
Dl -2666 -7834
Dl -2638 -7851
Dl -2558 -7896
Dl -2433 -7964
Dl -2272 -8051
Dl -2080 -8154
Dl -1867 -8268
Dl -1637 -8390
Dl -1400 -8516
Dl -1163 -8642
Dl -932 -8763
Dl -715 -8878
Dl -520 -8980
Dl -353 -9067
Dl -222 -9134
Dl -135 -9178
Dl -99 -9195
Dl -92 -9166
Dl -86 -9078
Dl -81 -8941
Dl -76 -8762
Dl -73 -8551
Dl -70 -8316
Dl -68 -8065
Dl -67 -7806
Dl -67 -7549
Dl -67 -7549
$EndMODULE LOGO
$EndLIBRARY
