PCBNEW-LibModule-V1
$INDEX
LOGO
$EndINDEX
#
# LOGO
# pixmap w = 1752, h = 144
#
$MODULE LOGO
Po 0 0 0 15 00000000 00000000 ~~
Li LOGO
T0 0 2700 600 600 0 120 N I 21 "G***"
T1 0 -2700 600 600 0 120 N I 21 "LOGO"
DP 0 0 0 0 76 1 21
Dl -2508 -272
Dl -2514 -196
Dl -2537 -112
Dl -2581 11
Dl -2642 160
Dl -2713 324
Dl -2788 489
Dl -2863 643
Dl -2931 774
Dl -2986 869
Dl -3023 915
Dl -3026 916
Dl -3057 937
Dl -3067 967
Dl -3052 1021
Dl -3012 1113
Dl -2991 1158
Dl -2939 1267
Dl -2899 1330
Dl -2857 1358
Dl -2797 1366
Dl -2756 1367
Dl -2622 1383
Dl -2541 1430
Dl -2518 1504
Dl -2540 1575
Dl -2568 1606
Dl -2622 1624
Dl -2718 1631
Dl -2818 1633
Dl -3066 1633
Dl -3179 1408
Dl -3227 1307
Dl -3297 1159
Dl -3382 977
Dl -3475 776
Dl -3570 568
Dl -3579 548
Dl -3682 318
Dl -3758 139
Dl -3812 2
Dl -3846 -103
Dl -3863 -184
Dl -3867 -241
Dl -3861 -377
Dl -3838 -458
Dl -3795 -495
Dl -3754 -500
Dl -3664 -477
Dl -3614 -405
Dl -3600 -293
Dl -3588 -224
Dl -3555 -115
Dl -3507 19
Dl -3448 166
Dl -3385 314
Dl -3322 450
Dl -3266 561
Dl -3222 635
Dl -3194 658
Dl -3163 623
Dl -3115 538
Dl -3056 418
Dl -2992 277
Dl -2929 128
Dl -2873 -15
Dl -2829 -138
Dl -2804 -227
Dl -2800 -256
Dl -2783 -392
Dl -2730 -474
Dl -2649 -500
Dl -2572 -471
Dl -2524 -391
Dl -2508 -272
Dl -2508 -272
DP 0 0 0 0 80 1 21
Dl -26467 220
Dl -26469 451
Dl -26478 625
Dl -26495 753
Dl -26524 845
Dl -26568 911
Dl -26629 962
Dl -26676 989
Dl -26762 1016
Dl -26894 1037
Dl -27055 1052
Dl -27226 1059
Dl -27386 1058
Dl -27517 1047
Dl -27579 1034
Dl -27705 975
Dl -27797 884
Dl -27857 754
Dl -27891 577
Dl -27900 351
Dl -27900 33
Dl -27574 33
Dl -27399 36
Dl -27282 49
Dl -27210 75
Dl -27175 117
Dl -27167 171
Dl -27198 243
Dl -27279 298
Dl -27397 329
Dl -27458 333
Dl -27600 333
Dl -27600 515
Dl -27595 628
Dl -27577 694
Dl -27539 730
Dl -27536 732
Dl -27469 749
Dl -27359 761
Dl -27224 766
Dl -27083 765
Dl -26955 757
Dl -26856 744
Dl -26807 726
Dl -26789 678
Dl -26776 572
Dl -26769 406
Dl -26767 197
Dl -26767 -292
Dl -27003 -596
Dl -27238 -900
Dl -27517 -900
Dl -27706 -911
Dl -27832 -944
Dl -27896 -998
Dl -27897 -1074
Dl -27857 -1147
Dl -27829 -1175
Dl -27784 -1191
Dl -27710 -1199
Dl -27592 -1199
Dl -27476 -1195
Dl -27319 -1189
Dl -27213 -1179
Dl -27143 -1162
Dl -27091 -1135
Dl -27050 -1100
Dl -26977 -1024
Dl -26883 -914
Dl -26781 -787
Dl -26680 -655
Dl -26592 -533
Dl -26528 -436
Dl -26501 -384
Dl -26489 -321
Dl -26479 -205
Dl -26472 -50
Dl -26468 129
Dl -26467 220
Dl -26467 220
DP 0 0 0 0 79 1 21
Dl -24367 -1200
Dl -24368 -125
Dl -24369 137
Dl -24371 378
Dl -24374 590
Dl -24378 765
Dl -24384 894
Dl -24389 969
Dl -24393 985
Dl -24465 1037
Dl -24565 1038
Dl -24592 1030
Dl -24619 1017
Dl -24639 998
Dl -24652 961
Dl -24660 898
Dl -24665 799
Dl -24667 653
Dl -24667 452
Dl -24667 414
Dl -24667 -467
Dl -24667 -685
Dl -24667 -903
Dl -25075 -893
Dl -25484 -884
Dl -25494 -721
Dl -25500 -619
Dl -25494 -548
Dl -25466 -504
Dl -25407 -480
Dl -25307 -469
Dl -25154 -467
Dl -25068 -467
Dl -24667 -467
Dl -24667 414
Dl -24668 190
Dl -24672 27
Dl -24679 -82
Dl -24690 -142
Dl -24705 -160
Dl -24707 -160
Dl -24737 -130
Dl -24799 -53
Dl -24886 62
Dl -24993 207
Dl -25113 374
Dl -25154 432
Dl -25277 605
Dl -25390 760
Dl -25485 888
Dl -25557 980
Dl -25600 1029
Dl -25606 1034
Dl -25670 1042
Dl -25725 1030
Dl -25789 976
Dl -25800 926
Dl -25782 874
Dl -25729 779
Dl -25650 649
Dl -25548 494
Dl -25449 350
Dl -25098 -150
Dl -25309 -167
Dl -25507 -199
Dl -25650 -264
Dl -25742 -368
Dl -25789 -515
Dl -25795 -714
Dl -25781 -863
Dl -25752 -978
Dl -25699 -1064
Dl -25615 -1125
Dl -25492 -1165
Dl -25324 -1188
Dl -25103 -1199
Dl -24902 -1200
Dl -24367 -1200
Dl -24367 -1200
DP 0 0 0 0 79 1 21
Dl -22308 -129
Dl -22309 0
Dl -22343 138
Dl -22410 301
Dl -22509 505
Dl -22520 526
Dl -22603 676
Dl -22603 -75
Dl -22618 -148
Dl -22659 -264
Dl -22717 -405
Dl -22778 -534
Dl -22859 -693
Dl -22920 -798
Dl -22967 -859
Dl -23006 -883
Dl -23017 -884
Dl -23054 -870
Dl -23098 -821
Dl -23155 -730
Dl -23229 -589
Dl -23256 -534
Dl -23326 -384
Dl -23382 -246
Dl -23420 -135
Dl -23431 -75
Dl -23418 -2
Dl -23381 107
Dl -23326 239
Dl -23260 380
Dl -23191 517
Dl -23124 636
Dl -23066 723
Dl -23024 764
Dl -23017 766
Dl -22981 737
Dl -22924 655
Dl -22851 528
Dl -22784 400
Dl -22694 209
Dl -22633 56
Dl -22605 -50
Dl -22603 -75
Dl -22603 676
Dl -22639 742
Dl -22745 898
Dl -22846 999
Dl -22947 1048
Dl -23052 1051
Dl -23154 1019
Dl -23223 980
Dl -23287 920
Dl -23353 831
Dl -23429 703
Dl -23520 525
Dl -23556 451
Dl -23646 255
Dl -23703 98
Dl -23728 -38
Dl -23719 -170
Dl -23678 -316
Dl -23602 -492
Dl -23541 -619
Dl -23428 -835
Dl -23329 -995
Dl -23239 -1104
Dl -23151 -1169
Dl -23059 -1198
Dl -23017 -1200
Dl -22922 -1186
Dl -22833 -1137
Dl -22745 -1047
Dl -22651 -911
Dl -22545 -720
Dl -22494 -619
Dl -22400 -423
Dl -22338 -265
Dl -22308 -129
Dl -22308 -129
DP 0 0 0 0 60 1 21
Dl -18998 950
Dl -19071 1009
Dl -19149 1044
Dl -19221 1016
Dl -19288 922
Dl -19348 771
Dl -19413 566
Dl -19499 566
Dl -19499 266
Dl -19521 179
Dl -19542 102
Dl -19574 -6
Dl -19611 -131
Dl -19651 -258
Dl -19687 -372
Dl -19715 -457
Dl -19730 -499
Dl -19732 -500
Dl -19741 -463
Dl -19765 -376
Dl -19800 -253
Dl -19834 -134
Dl -19874 10
Dl -19907 131
Dl -19928 213
Dl -19934 241
Dl -19903 254
Dl -19824 263
Dl -19717 266
Dl -19499 266
Dl -19499 566
Dl -19721 566
Dl -20028 566
Dl -20101 783
Dl -20160 932
Dl -20220 1018
Dl -20284 1044
Dl -20357 1014
Dl -20367 1006
Dl -20441 947
Dl -20150 -85
Dl -20078 -338
Dl -20011 -570
Dl -19950 -775
Dl -19899 -944
Dl -19859 -1070
Dl -19833 -1143
Dl -19826 -1159
Dl -19759 -1198
Dl -19681 -1183
Dl -19621 -1126
Dl -19600 -1076
Dl -19564 -970
Dl -19515 -817
Dl -19456 -626
Dl -19389 -404
Dl -19318 -160
Dl -19286 -50
Dl -18998 950
Dl -18998 950
DP 0 0 0 0 64 1 21
Dl -16934 197
Dl -16935 437
Dl -16936 624
Dl -16939 765
Dl -16944 868
Dl -16951 938
Dl -16960 983
Dl -16973 1010
Dl -16989 1026
Dl -17000 1033
Dl -17086 1046
Dl -17176 1015
Dl -17207 990
Dl -17210 956
Dl -17214 865
Dl -17218 725
Dl -17223 547
Dl -17229 339
Dl -17232 185
Dl -17250 -613
Dl -17596 185
Dl -17691 401
Dl -17778 599
Dl -17854 769
Dl -17915 902
Dl -17957 990
Dl -17975 1025
Dl -18025 1047
Dl -18114 1062
Dl -18216 1066
Dl -18303 1060
Dl -18345 1044
Dl -18352 1004
Dl -18358 907
Dl -18363 763
Dl -18366 582
Dl -18368 373
Dl -18368 146
Dl -18367 -89
Dl -18365 -322
Dl -18361 -543
Dl -18357 -743
Dl -18351 -913
Dl -18345 -1041
Dl -18337 -1119
Dl -18333 -1136
Dl -18273 -1187
Dl -18188 -1198
Dl -18112 -1165
Dl -18107 -1161
Dl -18094 -1125
Dl -18083 -1045
Dl -18075 -917
Dl -18070 -735
Dl -18067 -495
Dl -18066 -286
Dl -18066 550
Dl -17690 -317
Dl -17315 -1184
Dl -17124 -1194
Dl -16934 -1204
Dl -16934 -103
Dl -16934 197
Dl -16934 197
DP 0 0 0 0 86 1 21
Dl -14791 -12
Dl -14822 127
Dl -14887 289
Dl -14984 493
Dl -14995 515
Dl -15076 672
Dl -15079 677
Dl -15079 -100
Dl -15100 -163
Dl -15143 -270
Dl -15202 -406
Dl -15264 -542
Dl -15342 -702
Dl -15400 -808
Dl -15445 -871
Dl -15483 -898
Dl -15500 -900
Dl -15537 -888
Dl -15577 -844
Dl -15628 -761
Dl -15696 -628
Dl -15737 -542
Dl -15805 -393
Dl -15863 -259
Dl -15904 -155
Dl -15921 -100
Dl -15915 -26
Dl -15874 95
Dl -15798 268
Dl -15766 333
Dl -15680 506
Dl -15617 627
Dl -15571 704
Dl -15536 745
Dl -15507 760
Dl -15487 758
Dl -15459 726
Dl -15408 645
Dl -15342 528
Dl -15267 386
Dl -15256 365
Dl -15165 177
Dl -15107 39
Dl -15080 -55
Dl -15079 -100
Dl -15079 677
Dl -15155 808
Dl -15221 911
Dl -15268 968
Dl -15274 973
Dl -15404 1031
Dl -15536 1047
Dl -15582 1041
Dl -15661 1012
Dl -15732 961
Dl -15803 877
Dl -15882 752
Dl -15975 577
Dl -16005 517
Dl -16105 311
Dl -16172 148
Dl -16207 11
Dl -16210 -117
Dl -16181 -252
Dl -16121 -409
Dl -16029 -606
Dl -16017 -630
Dl -15918 -829
Dl -15837 -974
Dl -15767 -1074
Dl -15699 -1137
Dl -15627 -1170
Dl -15543 -1183
Dl -15501 -1184
Dl -15411 -1179
Dl -15337 -1158
Dl -15271 -1113
Dl -15205 -1035
Dl -15132 -918
Dl -15043 -751
Dl -14992 -650
Dl -14893 -446
Dl -14826 -282
Dl -14792 -143
Dl -14791 -12
Dl -14791 -12
DP 0 0 0 0 59 1 21
Dl -12814 -1063
Dl -12844 -989
Dl -12849 -982
Dl -12884 -938
Dl -12930 -914
Dl -13005 -903
Dl -13128 -901
Dl -13135 -900
Dl -13367 -900
Dl -13367 -67
Dl -13367 766
Dl -13118 766
Dl -12986 769
Dl -12905 778
Dl -12860 799
Dl -12835 830
Dl -12817 923
Dl -12861 1004
Dl -12902 1034
Dl -12962 1048
Dl -13073 1058
Dl -13223 1064
Dl -13396 1067
Dl -13580 1067
Dl -13761 1063
Dl -13926 1056
Dl -14060 1046
Dl -14151 1033
Dl -14180 1023
Dl -14226 949
Dl -14228 881
Dl -14217 783
Dl -13942 773
Dl -13667 763
Dl -13667 -69
Dl -13667 -900
Dl -13886 -900
Dl -14053 -909
Dl -14161 -936
Dl -14219 -984
Dl -14234 -1045
Dl -14230 -1096
Dl -14214 -1135
Dl -14176 -1162
Dl -14110 -1181
Dl -14006 -1192
Dl -13856 -1198
Dl -13652 -1200
Dl -13512 -1201
Dl -13289 -1200
Dl -13125 -1199
Dl -13008 -1195
Dl -12930 -1188
Dl -12882 -1177
Dl -12854 -1161
Dl -12836 -1139
Dl -12833 -1132
Dl -12814 -1063
Dl -12814 -1063
DP 0 0 0 0 75 1 21
Dl -10800 -1065
Dl -10830 -981
Dl -10904 -920
Dl -10986 -900
Dl -11067 -900
Dl -11067 -67
Dl -11067 766
Dl -10971 766
Dl -10887 782
Dl -10834 816
Dl -10807 893
Dl -10828 976
Dl -10886 1036
Dl -10908 1045
Dl -11000 1058
Dl -11135 1062
Dl -11290 1060
Dl -11367 1054
Dl -11367 766
Dl -11367 -67
Dl -11367 -900
Dl -11467 -900
Dl -11511 -897
Dl -11548 -879
Dl -11586 -837
Dl -11633 -761
Dl -11696 -642
Dl -11750 -534
Dl -11823 -381
Dl -11882 -242
Dl -11921 -131
Dl -11934 -67
Dl -11919 -2
Dl -11881 105
Dl -11826 237
Dl -11760 379
Dl -11693 516
Dl -11630 633
Dl -11579 713
Dl -11555 741
Dl -11493 761
Dl -11442 766
Dl -11367 766
Dl -11367 1054
Dl -11442 1050
Dl -11567 1035
Dl -11610 1026
Dl -11689 995
Dl -11760 944
Dl -11831 861
Dl -11908 740
Dl -11998 570
Dl -12054 455
Dl -12145 258
Dl -12203 100
Dl -12228 -37
Dl -12220 -170
Dl -12178 -315
Dl -12103 -490
Dl -12041 -617
Dl -11942 -814
Dl -11861 -959
Dl -11788 -1060
Dl -11711 -1126
Dl -11620 -1164
Dl -11505 -1184
Dl -11354 -1193
Dl -11280 -1195
Dl -11089 -1198
Dl -10954 -1191
Dl -10868 -1172
Dl -10820 -1139
Dl -10802 -1089
Dl -10800 -1065
Dl -10800 -1065
DP 0 0 0 0 70 1 21
Dl -8741 942
Dl -8748 972
Dl -8761 993
Dl -8774 1006
Dl -8847 1047
Dl -8918 1021
Dl -8985 931
Dl -9049 777
Dl -9050 771
Dl -9117 565
Dl -9205 567
Dl -9205 266
Dl -9270 41
Dl -9310 -98
Dl -9348 -235
Dl -9372 -325
Dl -9398 -411
Dl -9422 -462
Dl -9429 -467
Dl -9446 -437
Dl -9476 -355
Dl -9515 -235
Dl -9554 -100
Dl -9658 266
Dl -9431 266
Dl -9205 266
Dl -9205 567
Dl -9433 574
Dl -9748 583
Dl -9808 783
Dl -9849 896
Dl -9893 985
Dl -9924 1025
Dl -9981 1060
Dl -10029 1055
Dl -10075 1030
Dl -10124 976
Dl -10134 939
Dl -10125 889
Dl -10099 786
Dl -10061 639
Dl -10011 458
Dl -9953 252
Dl -9890 30
Dl -9824 -197
Dl -9759 -421
Dl -9697 -631
Dl -9640 -819
Dl -9592 -974
Dl -9555 -1088
Dl -9532 -1150
Dl -9527 -1158
Dl -9458 -1197
Dl -9378 -1187
Dl -9339 -1156
Dl -9321 -1114
Dl -9287 -1016
Dl -9240 -870
Dl -9183 -684
Dl -9117 -466
Dl -9046 -224
Dl -9006 -85
Dl -8924 198
Dl -8860 424
Dl -8811 601
Dl -8776 733
Dl -8753 830
Dl -8742 897
Dl -8741 942
Dl -8741 942
DP 0 0 0 0 79 1 21
Dl -6634 -125
Dl -6635 137
Dl -6637 378
Dl -6641 590
Dl -6645 765
Dl -6650 894
Dl -6656 969
Dl -6659 985
Dl -6732 1037
Dl -6832 1038
Dl -6859 1030
Dl -6886 1017
Dl -6905 998
Dl -6919 961
Dl -6927 898
Dl -6932 799
Dl -6933 653
Dl -6934 452
Dl -6934 414
Dl -6934 -467
Dl -6934 -685
Dl -6934 -903
Dl -7342 -893
Dl -7750 -884
Dl -7761 -721
Dl -7766 -619
Dl -7760 -548
Dl -7733 -504
Dl -7674 -480
Dl -7573 -469
Dl -7420 -467
Dl -7335 -467
Dl -6934 -467
Dl -6934 414
Dl -6935 190
Dl -6939 27
Dl -6946 -82
Dl -6957 -142
Dl -6971 -160
Dl -6973 -160
Dl -7003 -130
Dl -7065 -53
Dl -7153 62
Dl -7260 207
Dl -7379 374
Dl -7420 432
Dl -7544 605
Dl -7656 760
Dl -7752 888
Dl -7824 980
Dl -7866 1029
Dl -7873 1034
Dl -7937 1042
Dl -7992 1030
Dl -8055 976
Dl -8067 926
Dl -8048 874
Dl -7996 779
Dl -7916 649
Dl -7815 494
Dl -7716 350
Dl -7364 -150
Dl -7576 -167
Dl -7774 -199
Dl -7917 -264
Dl -8008 -368
Dl -8055 -515
Dl -8062 -714
Dl -8048 -863
Dl -8018 -978
Dl -7965 -1064
Dl -7881 -1125
Dl -7759 -1165
Dl -7591 -1188
Dl -7369 -1199
Dl -7168 -1200
Dl -6634 -1200
Dl -6634 -125
Dl -6634 -125
DP 0 0 0 0 103 1 21
Dl -433 319
Dl -436 526
Dl -440 707
Dl -446 853
Dl -454 952
Dl -463 994
Dl -515 1023
Dl -587 1027
Dl -664 1002
Dl -694 941
Dl -695 939
Dl -701 897
Dl -701 313
Dl -702 280
Dl -706 162
Dl -725 78
Dl -770 6
Dl -852 -75
Dl -910 -125
Dl -1049 -210
Dl -1197 -238
Dl -1339 -209
Dl -1413 -165
Dl -1452 -131
Dl -1477 -94
Dl -1492 -39
Dl -1498 48
Dl -1500 181
Dl -1500 258
Dl -1499 419
Dl -1494 528
Dl -1481 600
Dl -1460 650
Dl -1428 689
Dl -1364 739
Dl -1281 762
Dl -1186 766
Dl -1086 762
Dl -1012 740
Dl -937 691
Dl -858 621
Dl -773 540
Dl -726 478
Dl -706 411
Dl -701 313
Dl -701 897
Dl -706 862
Dl -822 951
Dl -927 1013
Dl -1053 1044
Dl -1128 1051
Dl -1245 1054
Dl -1343 1050
Dl -1384 1044
Dl -1485 995
Dl -1598 910
Dl -1697 809
Dl -1737 754
Dl -1767 692
Dl -1786 615
Dl -1796 508
Dl -1800 355
Dl -1800 296
Dl -1796 90
Dl -1782 -63
Dl -1751 -177
Dl -1701 -267
Dl -1625 -345
Dl -1575 -385
Dl -1493 -444
Dl -1424 -479
Dl -1344 -495
Dl -1231 -500
Dl -1168 -500
Dl -1034 -498
Dl -948 -489
Dl -891 -466
Dl -844 -428
Dl -834 -417
Dl -774 -361
Dl -731 -334
Dl -728 -334
Dl -716 -365
Dl -707 -448
Dl -701 -568
Dl -700 -648
Dl -698 -791
Dl -693 -912
Dl -685 -994
Dl -680 -1014
Dl -634 -1056
Dl -559 -1065
Dl -486 -1038
Dl -474 -1027
Dl -464 -985
Dl -455 -886
Dl -447 -740
Dl -441 -559
Dl -437 -353
Dl -434 -131
Dl -433 97
Dl -433 319
Dl -433 319
DP 0 0 0 0 46 1 21
Dl 3700 -84
Dl 3698 230
Dl 3694 487
Dl 3687 685
Dl 3678 823
Dl 3667 896
Dl 3663 905
Dl 3612 967
Dl 3530 1012
Dl 3409 1043
Dl 3400 1043
Dl 3400 766
Dl 3400 -67
Dl 3400 -900
Dl 2983 -900
Dl 2566 -900
Dl 2566 -67
Dl 2566 766
Dl 2983 766
Dl 3400 766
Dl 3400 1043
Dl 3239 1059
Dl 3014 1065
Dl 2976 1065
Dl 2739 1060
Dl 2566 1046
Dl 2457 1023
Dl 2444 1018
Dl 2360 967
Dl 2303 906
Dl 2302 904
Dl 2290 847
Dl 2280 725
Dl 2273 542
Dl 2268 299
Dl 2266 0
Dl 2266 -84
Dl 2266 -1006
Dl 2364 -1103
Dl 2461 -1200
Dl 2983 -1200
Dl 3505 -1200
Dl 3602 -1103
Dl 3700 -1006
Dl 3700 -84
Dl 3700 -84
DP 0 0 0 0 56 1 21
Dl 6866 -1045
Dl 6846 -976
Dl 6781 -931
Dl 6664 -907
Dl 6518 -900
Dl 6300 -900
Dl 6300 -69
Dl 6300 763
Dl 6575 773
Dl 6850 783
Dl 6861 881
Dl 6863 942
Dl 6848 988
Dl 6809 1021
Dl 6736 1044
Dl 6624 1057
Dl 6462 1064
Dl 6245 1066
Dl 6167 1066
Dl 5945 1065
Dl 5780 1061
Dl 5663 1054
Dl 5583 1043
Dl 5530 1027
Dl 5507 1014
Dl 5476 988
Dl 5455 953
Dl 5442 897
Dl 5435 807
Dl 5433 671
Dl 5433 562
Dl 5436 358
Dl 5447 212
Dl 5467 115
Dl 5501 59
Dl 5548 35
Dl 5577 33
Dl 5643 41
Dl 5688 74
Dl 5715 142
Dl 5729 254
Dl 5733 421
Dl 5733 440
Dl 5733 766
Dl 5866 766
Dl 6000 766
Dl 6000 -217
Dl 6000 -1200
Dl 6393 -1200
Dl 6581 -1198
Dl 6712 -1189
Dl 6796 -1170
Dl 6843 -1138
Dl 6863 -1090
Dl 6866 -1045
Dl 6866 -1045
DP 0 0 0 0 40 1 21
Dl 8958 929
Dl 8926 982
Dl 8879 1021
Dl 8820 1050
Dl 8769 1032
Dl 8738 1009
Dl 8701 962
Dl 8637 868
Dl 8551 732
Dl 8449 565
Dl 8335 374
Dl 8214 167
Dl 8090 -48
Dl 7967 -262
Dl 7852 -467
Dl 7748 -656
Dl 7660 -820
Dl 7593 -950
Dl 7551 -1039
Dl 7540 -1078
Dl 7577 -1156
Dl 7645 -1195
Dl 7722 -1182
Dl 7725 -1181
Dl 7755 -1144
Dl 7814 -1057
Dl 7895 -930
Dl 7994 -768
Dl 8107 -582
Dl 8229 -378
Dl 8355 -164
Dl 8480 51
Dl 8600 259
Dl 8710 453
Dl 8805 624
Dl 8881 765
Dl 8934 867
Dl 8957 922
Dl 8958 929
Dl 8958 929
DP 0 0 0 0 85 1 21
Dl 11033 1002
Dl 10958 1030
Dl 10854 1042
Dl 10773 1003
Dl 10758 985
Dl 10750 941
Dl 10743 843
Dl 10738 701
Dl 10734 528
Dl 10733 391
Dl 10733 -467
Dl 10733 -684
Dl 10733 -900
Dl 10369 -900
Dl 10215 -899
Dl 10083 -894
Dl 9989 -887
Dl 9952 -880
Dl 9921 -838
Dl 9903 -754
Dl 9897 -654
Dl 9906 -561
Dl 9928 -499
Dl 9941 -489
Dl 9990 -482
Dl 10090 -476
Dl 10226 -472
Dl 10358 -470
Dl 10733 -467
Dl 10733 391
Dl 10732 207
Dl 10727 48
Dl 10720 -74
Dl 10711 -149
Dl 10704 -167
Dl 10677 -141
Dl 10618 -68
Dl 10533 44
Dl 10429 187
Dl 10310 353
Dl 10263 419
Dl 10139 593
Dl 10025 750
Dl 9928 879
Dl 9853 973
Dl 9808 1024
Dl 9801 1030
Dl 9723 1045
Dl 9693 1042
Dl 9633 999
Dl 9611 920
Dl 9633 832
Dl 9665 781
Dl 9728 688
Dl 9814 561
Dl 9916 414
Dl 9985 315
Dl 10091 165
Dl 10181 34
Dl 10250 -68
Dl 10291 -132
Dl 10300 -149
Dl 10269 -159
Dl 10193 -166
Dl 10132 -167
Dl 9932 -191
Dl 9769 -260
Dl 9683 -332
Dl 9635 -426
Dl 9608 -560
Dl 9601 -711
Dl 9617 -858
Dl 9655 -976
Dl 9665 -994
Dl 9717 -1065
Dl 9780 -1117
Dl 9864 -1155
Dl 9978 -1179
Dl 10133 -1193
Dl 10337 -1200
Dl 10498 -1200
Dl 11033 -1200
Dl 11033 -99
Dl 11033 1002
Dl 11033 1002
DP 0 0 0 0 60 1 21
Dl 13166 -1045
Dl 13146 -976
Dl 13081 -931
Dl 12964 -907
Dl 12818 -900
Dl 12600 -900
Dl 12600 -69
Dl 12600 763
Dl 12875 773
Dl 13150 783
Dl 13161 881
Dl 13163 943
Dl 13148 989
Dl 13109 1022
Dl 13037 1044
Dl 12924 1057
Dl 12763 1063
Dl 12546 1064
Dl 12468 1064
Dl 12275 1062
Dl 12104 1058
Dl 11967 1054
Dl 11875 1049
Dl 11841 1044
Dl 11776 986
Dl 11751 900
Dl 11766 833
Dl 11794 798
Dl 11840 778
Dl 11922 768
Dl 12051 766
Dl 12300 766
Dl 12300 -67
Dl 12300 -900
Dl 12067 -900
Dl 11942 -903
Dl 11865 -913
Dl 11818 -937
Dl 11783 -979
Dl 11781 -982
Dl 11747 -1058
Dl 11762 -1126
Dl 11765 -1132
Dl 11781 -1155
Dl 11805 -1173
Dl 11847 -1185
Dl 11916 -1193
Dl 12022 -1198
Dl 12173 -1200
Dl 12379 -1200
Dl 12444 -1201
Dl 12681 -1200
Dl 12860 -1196
Dl 12989 -1188
Dl 13075 -1174
Dl 13128 -1151
Dl 13155 -1119
Dl 13165 -1075
Dl 13166 -1045
Dl 13166 -1045
DP 0 0 0 0 69 1 21
Dl 15300 -102
Dl 15299 198
Dl 15299 438
Dl 15297 626
Dl 15294 767
Dl 15289 869
Dl 15282 939
Dl 15273 984
Dl 15260 1011
Dl 15244 1026
Dl 15235 1032
Dl 15142 1049
Dl 15062 1006
Dl 15032 964
Dl 15023 914
Dl 15014 806
Dl 15008 648
Dl 15003 450
Dl 15000 219
Dl 14999 60
Dl 14999 -784
Dl 14866 -584
Dl 14800 -474
Dl 14752 -375
Dl 14733 -309
Dl 14733 -308
Dl 14706 -236
Dl 14642 -188
Dl 14566 -177
Dl 14520 -197
Dl 14477 -258
Dl 14451 -327
Dl 14421 -402
Dl 14365 -506
Dl 14306 -600
Dl 14183 -784
Dl 14174 100
Dl 14171 368
Dl 14168 578
Dl 14163 736
Dl 14157 851
Dl 14149 930
Dl 14138 980
Dl 14124 1010
Dl 14110 1025
Dl 14045 1061
Dl 13992 1051
Dl 13933 1000
Dl 13914 978
Dl 13900 951
Dl 13888 911
Dl 13880 850
Dl 13874 761
Dl 13870 637
Dl 13868 470
Dl 13867 255
Dl 13866 -18
Dl 13866 -134
Dl 13866 -1200
Dl 14058 -1200
Dl 14250 -1199
Dl 14422 -947
Dl 14595 -694
Dl 14771 -947
Dl 14946 -1201
Dl 15123 -1201
Dl 15300 -1200
Dl 15300 -102
Dl 15300 -102
DP 0 0 0 0 82 1 21
Dl 17383 -137
Dl 17381 -3
Dl 17345 140
Dl 17277 309
Dl 17175 519
Dl 17172 524
Dl 17100 660
Dl 17100 -74
Dl 17085 -148
Dl 17045 -258
Dl 16988 -389
Dl 16920 -529
Dl 16848 -663
Dl 16779 -779
Dl 16720 -862
Dl 16678 -900
Dl 16673 -900
Dl 16631 -871
Dl 16572 -793
Dl 16504 -680
Dl 16435 -544
Dl 16369 -401
Dl 16315 -264
Dl 16278 -146
Dl 16266 -66
Dl 16283 45
Dl 16336 195
Dl 16420 375
Dl 16506 545
Dl 16569 662
Dl 16616 731
Dl 16654 761
Dl 16688 757
Dl 16725 726
Dl 16742 708
Dl 16790 638
Dl 16852 527
Dl 16920 391
Dl 16986 247
Dl 17043 110
Dl 17083 -1
Dl 17099 -72
Dl 17100 -74
Dl 17100 660
Dl 17091 678
Dl 17013 813
Dl 16946 916
Dl 16898 974
Dl 16891 980
Dl 16751 1040
Dl 16615 1044
Dl 16567 1030
Dl 16496 994
Dl 16434 945
Dl 16373 871
Dl 16305 763
Dl 16224 611
Dl 16162 487
Dl 16064 282
Dl 15999 119
Dl 15967 -20
Dl 15967 -151
Dl 16000 -290
Dl 16066 -454
Dl 16165 -659
Dl 16169 -667
Dl 16274 -868
Dl 16363 -1013
Dl 16445 -1111
Dl 16525 -1168
Dl 16612 -1191
Dl 16711 -1188
Dl 16800 -1168
Dl 16879 -1125
Dl 16954 -1051
Dl 17033 -937
Dl 17124 -775
Dl 17194 -638
Dl 17289 -438
Dl 17352 -277
Dl 17383 -137
Dl 17383 -137
DP 0 0 0 0 62 1 21
Dl 19466 1002
Dl 19391 1030
Dl 19287 1042
Dl 19206 1003
Dl 19192 985
Dl 19183 940
Dl 19175 842
Dl 19169 704
Dl 19167 541
Dl 19167 508
Dl 19166 66
Dl 18750 66
Dl 18333 66
Dl 18332 508
Dl 18330 675
Dl 18325 818
Dl 18318 925
Dl 18309 981
Dl 18307 985
Dl 18235 1037
Dl 18135 1038
Dl 18108 1030
Dl 18033 1002
Dl 18033 -59
Dl 18033 -365
Dl 18034 -611
Dl 18038 -803
Dl 18044 -948
Dl 18053 -1052
Dl 18068 -1123
Dl 18088 -1167
Dl 18114 -1190
Dl 18148 -1199
Dl 18188 -1200
Dl 18243 -1190
Dl 18283 -1152
Dl 18309 -1078
Dl 18325 -961
Dl 18332 -790
Dl 18333 -653
Dl 18333 -234
Dl 18750 -234
Dl 19166 -234
Dl 19166 -653
Dl 19169 -860
Dl 19179 -1010
Dl 19198 -1110
Dl 19229 -1170
Dl 19274 -1196
Dl 19311 -1200
Dl 19352 -1199
Dl 19386 -1189
Dl 19412 -1166
Dl 19432 -1121
Dl 19446 -1049
Dl 19456 -943
Dl 19462 -796
Dl 19465 -602
Dl 19466 -354
Dl 19466 -59
Dl 19466 1002
Dl 19466 1002
DP 0 0 0 0 51 1 21
Dl 21566 -990
Dl 21557 -832
Dl 21526 -731
Dl 21469 -680
Dl 21382 -673
Dl 21381 -673
Dl 21311 -691
Dl 21280 -740
Dl 21272 -792
Dl 21260 -862
Dl 21228 -893
Dl 21155 -900
Dl 21131 -900
Dl 21000 -900
Dl 21000 16
Dl 20999 288
Dl 20998 501
Dl 20996 663
Dl 20992 782
Dl 20985 866
Dl 20976 923
Dl 20963 960
Dl 20946 986
Dl 20933 1000
Dl 20870 1053
Dl 20819 1059
Dl 20758 1030
Dl 20741 1016
Dl 20727 989
Dl 20717 944
Dl 20710 871
Dl 20705 765
Dl 20702 617
Dl 20700 421
Dl 20700 168
Dl 20700 48
Dl 20700 -900
Dl 20573 -900
Dl 20487 -894
Dl 20443 -863
Dl 20415 -792
Dl 20384 -718
Dl 20335 -688
Dl 20266 -684
Dl 20150 -684
Dl 20140 -942
Dl 20130 -1200
Dl 20848 -1200
Dl 21566 -1200
Dl 21566 -990
Dl 21566 -990
DP 0 0 0 0 45 1 21
Dl 23633 -1200
Dl 23632 -125
Dl 23631 137
Dl 23629 378
Dl 23626 590
Dl 23622 765
Dl 23616 894
Dl 23611 969
Dl 23607 985
Dl 23535 1037
Dl 23435 1038
Dl 23408 1030
Dl 23333 1002
Dl 23332 159
Dl 23331 -684
Dl 22954 183
Dl 22577 1050
Dl 22388 1059
Dl 22200 1069
Dl 22200 -28
Dl 22200 -334
Dl 22201 -580
Dl 22204 -772
Dl 22208 -918
Dl 22214 -1023
Dl 22222 -1095
Dl 22232 -1139
Dl 22245 -1163
Dl 22249 -1167
Dl 22326 -1194
Dl 22409 -1173
Dl 22469 -1115
Dl 22478 -1093
Dl 22484 -1038
Dl 22490 -928
Dl 22494 -772
Dl 22498 -582
Dl 22500 -366
Dl 22500 -250
Dl 22502 516
Dl 22871 -342
Dl 23240 -1201
Dl 23437 -1201
Dl 23633 -1200
Dl 23633 -1200
DP 0 0 0 0 63 1 21
Dl 25700 -754
Dl 25416 -381
Dl 25133 -8
Dl 25133 495
Dl 25132 689
Dl 25130 827
Dl 25123 919
Dl 25113 977
Dl 25096 1010
Dl 25073 1029
Dl 25068 1032
Dl 25005 1061
Dl 24960 1054
Dl 24904 1004
Dl 24900 1000
Dl 24873 968
Dl 24855 926
Dl 24843 864
Dl 24836 768
Dl 24833 628
Dl 24833 446
Dl 24833 -41
Dl 24550 -404
Dl 24435 -552
Dl 24357 -660
Dl 24307 -740
Dl 24280 -804
Dl 24268 -864
Dl 24266 -919
Dl 24281 -1071
Dl 24324 -1164
Dl 24398 -1200
Dl 24411 -1200
Dl 24501 -1178
Dl 24551 -1108
Dl 24566 -991
Dl 24573 -920
Dl 24599 -848
Dl 24651 -759
Dl 24738 -640
Dl 24771 -597
Dl 24860 -486
Dl 24934 -400
Dl 24985 -350
Dl 25001 -341
Dl 25031 -370
Dl 25091 -440
Dl 25170 -538
Dl 25213 -593
Dl 25321 -744
Dl 25382 -858
Dl 25400 -932
Dl 25414 -1059
Dl 25454 -1152
Dl 25512 -1198
Dl 25529 -1201
Dl 25618 -1192
Dl 25669 -1159
Dl 25693 -1087
Dl 25699 -962
Dl 25700 -957
Dl 25700 -754
Dl 25700 -754
DP 0 0 0 0 91 1 21
Dl 27752 697
Dl 27728 806
Dl 27664 912
Dl 27575 991
Dl 27523 1017
Dl 27450 1035
Dl 27344 1046
Dl 27192 1053
Dl 27068 1055
Dl 26901 1056
Dl 26753 1054
Dl 26641 1050
Dl 26578 1045
Dl 26577 1045
Dl 26465 989
Dl 26379 889
Dl 26335 766
Dl 26333 731
Dl 26336 689
Dl 26350 641
Dl 26379 583
Dl 26427 505
Dl 26498 403
Dl 26597 269
Dl 26729 96
Dl 26899 -122
Dl 26899 -123
Dl 27047 -314
Dl 27181 -488
Dl 27295 -638
Dl 27384 -757
Dl 27443 -838
Dl 27466 -875
Dl 27435 -885
Dl 27350 -893
Dl 27223 -898
Dl 27069 -900
Dl 27056 -900
Dl 26647 -900
Dl 26615 -792
Dl 26570 -705
Dl 26506 -673
Dl 26411 -684
Dl 26352 -743
Dl 26335 -837
Dl 26363 -957
Dl 26383 -1002
Dl 26431 -1075
Dl 26492 -1128
Dl 26578 -1165
Dl 26699 -1187
Dl 26866 -1198
Dl 27081 -1200
Dl 27262 -1200
Dl 27389 -1197
Dl 27476 -1190
Dl 27535 -1176
Dl 27580 -1154
Dl 27622 -1120
Dl 27640 -1104
Dl 27714 -1023
Dl 27744 -939
Dl 27748 -877
Dl 27745 -834
Dl 27732 -787
Dl 27705 -729
Dl 27659 -654
Dl 27590 -554
Dl 27493 -423
Dl 27364 -254
Dl 27199 -41
Dl 27052 149
Dl 26920 323
Dl 26807 475
Dl 26719 596
Dl 26661 679
Dl 26639 717
Dl 26642 739
Dl 26670 752
Dl 26732 760
Dl 26838 762
Dl 26999 760
Dl 27036 759
Dl 27445 750
Dl 27472 645
Dl 27519 549
Dl 27589 513
Dl 27668 534
Dl 27733 601
Dl 27752 697
Dl 27752 697
DP 0 0 0 0 24 1 21
Dl -21167 640
Dl -21171 755
Dl -21190 856
Dl -21220 914
Dl -21286 945
Dl -21392 962
Dl -21512 965
Dl -21620 951
Dl -21675 930
Dl -21711 892
Dl -21729 819
Dl -21734 705
Dl -21727 593
Dl -21710 506
Dl -21694 473
Dl -21640 451
Dl -21542 437
Dl -21450 433
Dl -21333 439
Dl -21244 456
Dl -21207 473
Dl -21179 537
Dl -21167 640
Dl -21167 640
DP 0 0 0 0 24 1 21
Dl 4833 640
Dl 4829 755
Dl 4810 856
Dl 4780 914
Dl 4714 945
Dl 4608 962
Dl 4488 965
Dl 4380 951
Dl 4325 930
Dl 4289 892
Dl 4271 819
Dl 4266 705
Dl 4273 593
Dl 4290 506
Dl 4306 473
Dl 4360 451
Dl 4458 437
Dl 4550 433
Dl 4667 439
Dl 4756 456
Dl 4793 473
Dl 4821 537
Dl 4833 640
Dl 4833 640
$EndMODULE LOGO
$EndLIBRARY
