PCBNEW-LibModule-V1
$INDEX
LOGO
$EndINDEX
#
# LOGO
# pixmap w = 648, h = 1020
#
$MODULE LOGO
Po 0 0 0 15 00000000 00000000 ~~
Li LOGO
T0 0 17300 600 600 0 120 N I 21 "G***"
T1 0 -17300 600 600 0 120 N I 21 "LOGO"
DP 0 0 0 0 104 1 21
Dl 1467 12743
Dl 1460 12944
Dl 1441 13131
Dl 1411 13286
Dl 1376 13383
Dl 1229 13592
Dl 1039 13751
Dl 806 13860
Dl 600 13903
Dl 600 12757
Dl 594 12619
Dl 579 12518
Dl 560 12473
Dl 521 12458
Dl 434 12447
Dl 296 12439
Dl 102 12434
Dl -155 12433
Dl -174 12433
Dl -867 12433
Dl -867 12750
Dl -867 13066
Dl -219 13066
Dl -13 13065
Dl 176 13060
Dl 334 13053
Dl 451 13044
Dl 513 13034
Dl 514 13034
Dl 558 13013
Dl 584 12980
Dl 596 12921
Dl 599 12817
Dl 600 12757
Dl 600 13903
Dl 529 13918
Dl 425 13926
Dl 294 13934
Dl 194 13943
Dl 139 13951
Dl 133 13954
Dl 151 13984
Dl 203 14061
Dl 285 14180
Dl 391 14334
Dl 517 14516
Dl 659 14719
Dl 745 14842
Dl 897 15060
Dl 1039 15265
Dl 1165 15449
Dl 1271 15605
Dl 1351 15726
Dl 1400 15803
Dl 1412 15823
Dl 1460 15982
Dl 1450 16136
Dl 1383 16273
Dl 1265 16378
Dl 1139 16423
Dl 994 16431
Dl 859 16403
Dl 787 16364
Dl 749 16322
Dl 678 16232
Dl 578 16099
Dl 454 15930
Dl 310 15731
Dl 151 15508
Dl -19 15268
Dl -84 15175
Dl -867 14056
Dl -867 15086
Dl -868 15380
Dl -869 15616
Dl -872 15799
Dl -876 15940
Dl -882 16044
Dl -891 16120
Dl -903 16175
Dl -918 16217
Dl -926 16232
Dl -1000 16338
Dl -1104 16402
Dl -1251 16430
Dl -1329 16432
Dl -1441 16427
Dl -1518 16404
Dl -1589 16350
Dl -1620 16320
Dl -1734 16206
Dl -1734 13868
Dl -1734 11529
Dl -542 11539
Dl 650 11550
Dl 860 11646
Dl 1064 11770
Dl 1238 11933
Dl 1368 12121
Dl 1417 12236
Dl 1447 12371
Dl 1463 12546
Dl 1467 12743
Dl 1467 12743
DP 0 0 0 0 135 1 21
Dl 5994 -40
Dl 5969 -15
Dl 5897 53
Dl 5781 161
Dl 5625 307
Dl 5431 487
Dl 5200 700
Dl 4938 943
Dl 4645 1214
Dl 4325 1509
Dl 3980 1827
Dl 3614 2165
Dl 3228 2520
Dl 2826 2890
Dl 2410 3272
Dl 2383 3298
Dl 1963 3683
Dl 1555 4059
Dl 1162 4421
Dl 786 4767
Dl 430 5095
Dl 98 5401
Dl -209 5684
Dl -486 5940
Dl -732 6167
Dl -944 6363
Dl -1117 6524
Dl -1250 6647
Dl -1340 6731
Dl -1384 6773
Dl -1550 6937
Dl 675 6927
Dl 1053 6925
Dl 1411 6924
Dl 1743 6924
Dl 2045 6925
Dl 2309 6926
Dl 2532 6928
Dl 2706 6931
Dl 2828 6933
Dl 2892 6937
Dl 2900 6939
Dl 2880 6967
Dl 2822 7043
Dl 2731 7161
Dl 2611 7317
Dl 2464 7506
Dl 2296 7723
Dl 2110 7962
Dl 1909 8219
Dl 1698 8489
Dl 1480 8768
Dl 1260 9049
Dl 1041 9329
Dl 827 9602
Dl 621 9863
Dl 429 10108
Dl 253 10332
Dl 97 10529
Dl -34 10694
Dl -137 10824
Dl -208 10912
Dl -244 10954
Dl -245 10956
Dl -283 10972
Dl -340 10945
Dl -390 10906
Dl -495 10816
Dl 886 9066
Dl 1122 8767
Dl 1347 8482
Dl 1556 8216
Dl 1747 7972
Dl 1915 7757
Dl 2058 7574
Dl 2171 7428
Dl 2252 7323
Dl 2297 7263
Dl 2304 7252
Dl 2310 7240
Dl 2309 7229
Dl 2297 7220
Dl 2268 7213
Dl 2219 7207
Dl 2145 7203
Dl 2042 7200
Dl 1904 7198
Dl 1728 7197
Dl 1508 7198
Dl 1241 7199
Dl 921 7202
Dl 544 7205
Dl 106 7209
Dl 37 7210
Dl -348 7213
Dl -713 7216
Dl -1053 7218
Dl -1361 7219
Dl -1634 7220
Dl -1864 7221
Dl -2048 7220
Dl -2179 7219
Dl -2253 7218
Dl -2267 7216
Dl -2243 7192
Dl -2173 7126
Dl -2058 7019
Dl -1903 6874
Dl -1709 6694
Dl -1479 6481
Dl -1216 6238
Dl -923 5967
Dl -601 5670
Dl -255 5350
Dl 115 5009
Dl 504 4650
Dl 910 4276
Dl 1332 3888
Dl 1516 3717
Dl 5300 233
Dl 3691 225
Dl 2083 216
Dl 2083 83
Dl 2083 -50
Dl 4044 -59
Dl 4398 -60
Dl 4732 -60
Dl 5038 -60
Dl 5312 -58
Dl 5548 -56
Dl 5740 -53
Dl 5882 -49
Dl 5969 -45
Dl 5994 -40
Dl 5994 -40
DP 0 0 0 0 84 1 21
Dl -2766 4566
Dl -2775 6913
Dl -2784 9261
Dl -2865 9347
Dl -2993 9438
Dl -3146 9480
Dl -3306 9472
Dl -3453 9414
Dl -3536 9347
Dl -3617 9261
Dl -3634 7630
Dl -3650 5999
Dl -3792 6208
Dl -3868 6332
Dl -3918 6441
Dl -3934 6509
Dl -3962 6669
Dl -4040 6803
Dl -4154 6902
Dl -4292 6958
Dl -4442 6963
Dl -4566 6924
Dl -4662 6847
Dl -4743 6735
Dl -4793 6614
Dl -4800 6555
Dl -4822 6463
Dl -4882 6336
Dl -4942 6237
Dl -5084 6019
Dl -5100 7619
Dl -5105 7990
Dl -5108 8300
Dl -5112 8556
Dl -5117 8762
Dl -5122 8924
Dl -5127 9049
Dl -5134 9142
Dl -5143 9209
Dl -5153 9256
Dl -5165 9289
Dl -5175 9308
Dl -5284 9416
Dl -5427 9475
Dl -5591 9481
Dl -5717 9450
Dl -5801 9419
Dl -5852 9402
Dl -5858 9400
Dl -5877 9374
Dl -5915 9309
Dl -5925 9291
Dl -5936 9267
Dl -5946 9235
Dl -5955 9191
Dl -5962 9131
Dl -5968 9049
Dl -5972 8941
Dl -5976 8801
Dl -5979 8625
Dl -5981 8409
Dl -5982 8146
Dl -5983 7833
Dl -5984 7465
Dl -5984 7036
Dl -5984 6883
Dl -5984 4583
Dl -5503 4583
Dl -5022 4583
Dl -4705 5040
Dl -4599 5190
Dl -4505 5318
Dl -4430 5414
Dl -4380 5470
Dl -4363 5481
Dl -4337 5449
Dl -4279 5372
Dl -4198 5259
Dl -4100 5120
Dl -4028 5016
Dl -3717 4566
Dl -3242 4566
Dl -2766 4566
Dl -2766 4566
DP 0 0 0 0 87 1 21
Dl 5761 9060
Dl 5733 9216
Dl 5651 9345
Dl 5518 9437
Dl 5445 9463
Dl 5380 9472
Dl 5259 9479
Dl 5090 9485
Dl 4883 9490
Dl 4648 9494
Dl 4395 9496
Dl 4133 9497
Dl 3872 9496
Dl 3621 9494
Dl 3389 9491
Dl 3187 9486
Dl 3024 9480
Dl 2909 9473
Dl 2854 9465
Dl 2714 9392
Dl 2613 9279
Dl 2556 9139
Dl 2547 8990
Dl 2590 8844
Dl 2667 8737
Dl 2729 8684
Dl 2799 8646
Dl 2890 8621
Dl 3014 8607
Dl 3183 8601
Dl 3337 8600
Dl 3700 8600
Dl 3700 7033
Dl 3700 5466
Dl 3317 5466
Dl 3063 5458
Dl 2868 5429
Dl 2725 5378
Dl 2629 5300
Dl 2574 5191
Dl 2553 5049
Dl 2553 5016
Dl 2575 4848
Dl 2644 4723
Dl 2765 4635
Dl 2802 4619
Dl 2846 4605
Dl 2905 4593
Dl 2985 4584
Dl 3093 4577
Dl 3236 4572
Dl 3421 4569
Dl 3656 4567
Dl 3946 4566
Dl 4129 4566
Dl 4410 4567
Dl 4672 4568
Dl 4910 4571
Dl 5112 4574
Dl 5273 4578
Dl 5382 4583
Dl 5430 4587
Dl 5572 4647
Dl 5678 4752
Dl 5742 4892
Dl 5757 5050
Dl 5729 5178
Dl 5687 5277
Dl 5634 5349
Dl 5559 5398
Dl 5451 5431
Dl 5300 5450
Dl 5095 5460
Dl 5047 5461
Dl 4600 5473
Dl 4600 7033
Dl 4600 8593
Dl 5047 8605
Dl 5264 8614
Dl 5425 8630
Dl 5540 8660
Dl 5621 8706
Dl 5678 8773
Dl 5722 8866
Dl 5729 8887
Dl 5761 9060
Dl 5761 9060
DP 0 0 0 0 72 1 21
Dl -6963 -2367
Dl -6973 -1785
Dl -6977 -1575
Dl -6982 -1421
Dl -6988 -1312
Dl -6998 -1239
Dl -7013 -1189
Dl -7035 -1154
Dl -7065 -1121
Dl -7073 -1112
Dl -7153 -1052
Dl -7254 -1019
Dl -7343 -1008
Dl -7526 -1018
Dl -7672 -1076
Dl -7774 -1179
Dl -7828 -1321
Dl -7834 -1399
Dl -7838 -1461
Dl -7863 -1491
Dl -7926 -1500
Dl -7984 -1500
Dl -8134 -1500
Dl -8134 383
Dl -8134 2267
Dl -8242 2384
Dl -8335 2466
Dl -8434 2505
Dl -8500 2515
Dl -8608 2519
Dl -8697 2511
Dl -8717 2506
Dl -8847 2440
Dl -8944 2334
Dl -8956 2311
Dl -8967 2279
Dl -8975 2232
Dl -8982 2165
Dl -8988 2072
Dl -8992 1948
Dl -8995 1787
Dl -8998 1585
Dl -8999 1337
Dl -9000 1036
Dl -9000 677
Dl -9000 375
Dl -9000 -1500
Dl -9150 -1500
Dl -9243 -1498
Dl -9286 -1481
Dl -9300 -1438
Dl -9300 -1399
Dl -9329 -1240
Dl -9409 -1119
Dl -9536 -1039
Dl -9702 -1006
Dl -9791 -1008
Dl -9920 -1028
Dl -10010 -1069
Dl -10061 -1112
Dl -10093 -1146
Dl -10117 -1180
Dl -10133 -1226
Dl -10144 -1293
Dl -10151 -1392
Dl -10156 -1535
Dl -10160 -1731
Dl -10161 -1785
Dl -10171 -2367
Dl -8567 -2367
Dl -6963 -2367
Dl -6963 -2367
DP 0 0 0 0 87 1 21
Dl 1468 2266
Dl 1354 2389
Dl 1281 2462
Dl 1216 2499
Dl 1129 2512
Dl 1059 2514
Dl 886 2500
Dl 759 2448
Dl 668 2353
Dl 655 2333
Dl 638 2297
Dl 625 2247
Dl 615 2175
Dl 608 2074
Dl 603 1934
Dl 601 1748
Dl 600 1508
Dl 600 1369
Dl 600 500
Dl -134 500
Dl -867 500
Dl -867 1341
Dl -868 1606
Dl -870 1813
Dl -873 1971
Dl -879 2088
Dl -888 2173
Dl -901 2234
Dl -917 2282
Dl -926 2300
Dl -1016 2413
Dl -1146 2495
Dl -1294 2532
Dl -1317 2533
Dl -1415 2517
Dl -1523 2480
Dl -1533 2474
Dl -1622 2414
Dl -1686 2343
Dl -1691 2333
Dl -1700 2300
Dl -1708 2237
Dl -1714 2139
Dl -1719 2003
Dl -1724 1825
Dl -1727 1601
Dl -1730 1326
Dl -1732 998
Dl -1733 612
Dl -1733 163
Dl -1733 54
Dl -1734 -2141
Dl -1620 -2254
Dl -1549 -2319
Dl -1483 -2353
Dl -1397 -2366
Dl -1311 -2367
Dl -1152 -2354
Dl -1044 -2317
Dl -1038 -2313
Dl -988 -2273
Dl -950 -2225
Dl -920 -2162
Dl -898 -2075
Dl -883 -1956
Dl -874 -1797
Dl -869 -1591
Dl -867 -1330
Dl -867 -1202
Dl -867 -367
Dl -135 -367
Dl 596 -367
Dl 606 -1270
Dl 616 -2173
Dl 725 -2270
Dl 798 -2327
Dl 871 -2356
Dl 971 -2366
Dl 1033 -2367
Dl 1154 -2363
Dl 1236 -2343
Dl 1306 -2300
Dl 1341 -2270
Dl 1450 -2173
Dl 1459 46
Dl 1468 2266
Dl 1468 2266
DP 0 0 0 0 118 1 21
Dl 9800 52
Dl 9789 293
Dl 9747 507
Dl 9737 536
Dl 9704 618
Dl 9646 748
Dl 9569 915
Dl 9476 1108
Dl 9375 1315
Dl 9325 1416
Dl 9184 1692
Dl 9063 1914
Dl 8956 2087
Dl 8931 2121
Dl 8931 86
Dl 8918 -39
Dl 8877 -177
Dl 8809 -339
Dl 8713 -537
Dl 8590 -784
Dl 8583 -798
Dl 8484 -996
Dl 8393 -1172
Dl 8316 -1319
Dl 8256 -1427
Dl 8218 -1489
Dl 8208 -1500
Dl 8186 -1472
Dl 8140 -1392
Dl 8073 -1268
Dl 7990 -1110
Dl 7895 -925
Dl 7832 -799
Dl 7707 -549
Dl 7610 -347
Dl 7541 -182
Dl 7499 -42
Dl 7484 86
Dl 7498 214
Dl 7539 352
Dl 7607 514
Dl 7703 712
Dl 7826 957
Dl 7828 960
Dl 7927 1153
Dl 8018 1324
Dl 8096 1464
Dl 8156 1565
Dl 8195 1619
Dl 8205 1626
Dl 8230 1594
Dl 8280 1511
Dl 8350 1385
Dl 8436 1226
Dl 8533 1042
Dl 8587 938
Dl 8710 698
Dl 8806 504
Dl 8875 346
Dl 8917 210
Dl 8931 86
Dl 8931 2121
Dl 8859 2221
Dl 8765 2320
Dl 8668 2393
Dl 8564 2446
Dl 8464 2480
Dl 8291 2521
Dl 8143 2526
Dl 7987 2495
Dl 7905 2469
Dl 7807 2431
Dl 7720 2384
Dl 7640 2322
Dl 7561 2238
Dl 7478 2126
Dl 7387 1978
Dl 7283 1789
Dl 7160 1552
Dl 7036 1305
Dl 6625 477
Dl 6608 178
Dl 6603 -15
Dl 6615 -170
Dl 6647 -312
Dl 6648 -316
Dl 6684 -416
Dl 6745 -561
Dl 6827 -740
Dl 6923 -942
Dl 7028 -1156
Dl 7136 -1371
Dl 7242 -1576
Dl 7341 -1759
Dl 7426 -1911
Dl 7492 -2018
Dl 7519 -2056
Dl 7684 -2208
Dl 7878 -2310
Dl 8092 -2362
Dl 8311 -2363
Dl 8524 -2312
Dl 8718 -2211
Dl 8868 -2074
Dl 8922 -1998
Dl 8998 -1872
Dl 9091 -1708
Dl 9195 -1518
Dl 9304 -1311
Dl 9412 -1099
Dl 9514 -894
Dl 9604 -706
Dl 9676 -547
Dl 9724 -428
Dl 9730 -410
Dl 9781 -192
Dl 9800 52
Dl 9800 52
DP 0 0 0 0 115 1 21
Dl 1894 -6938
Dl 1867 -6914
Dl 1792 -6849
Dl 1671 -6747
Dl 1507 -6609
Dl 1303 -6437
Dl 1060 -6235
Dl 783 -6003
Dl 474 -5745
Dl 135 -5462
Dl -231 -5158
Dl -621 -4833
Dl -1033 -4491
Dl -1463 -4134
Dl -1909 -3764
Dl -2231 -3496
Dl -6344 -84
Dl -4356 -75
Dl -2367 -67
Dl -2367 83
Dl -2367 233
Dl -4752 233
Dl -5144 232
Dl -5515 231
Dl -5861 230
Dl -6175 228
Dl -6454 225
Dl -6691 222
Dl -6881 218
Dl -7020 215
Dl -7101 211
Dl -7122 207
Dl -7095 183
Dl -7019 119
Dl -6898 17
Dl -6733 -121
Dl -6528 -292
Dl -6285 -494
Dl -6008 -726
Dl -5698 -984
Dl -5358 -1266
Dl -4992 -1571
Dl -4602 -1895
Dl -4190 -2237
Dl -3760 -2594
Dl -3314 -2965
Dl -2988 -3235
Dl 1129 -6650
Dl -888 -6659
Dl -1248 -6661
Dl -1587 -6664
Dl -1899 -6667
Dl -2179 -6671
Dl -2420 -6675
Dl -2619 -6680
Dl -2768 -6685
Dl -2862 -6690
Dl -2895 -6695
Dl -2871 -6737
Dl -2815 -6828
Dl -2731 -6963
Dl -2621 -7136
Dl -2489 -7343
Dl -2338 -7577
Dl -2173 -7833
Dl -1997 -8107
Dl -1812 -8392
Dl -1623 -8683
Dl -1433 -8975
Dl -1246 -9263
Dl -1065 -9541
Dl -893 -9803
Dl -735 -10045
Dl -593 -10261
Dl -470 -10445
Dl -372 -10593
Dl -300 -10699
Dl -259 -10757
Dl -250 -10767
Dl -204 -10747
Dl -136 -10699
Dl -127 -10692
Dl -36 -10617
Dl -1202 -8807
Dl -1403 -8494
Dl -1594 -8198
Dl -1770 -7922
Dl -1930 -7673
Dl -2069 -7455
Dl -2185 -7273
Dl -2275 -7131
Dl -2336 -7034
Dl -2365 -6986
Dl -2367 -6982
Dl -2335 -6980
Dl -2241 -6977
Dl -2092 -6975
Dl -1893 -6973
Dl -1650 -6971
Dl -1368 -6970
Dl -1053 -6968
Dl -710 -6968
Dl -345 -6967
Dl -231 -6967
Dl 153 -6967
Dl 511 -6965
Dl 840 -6963
Dl 1133 -6961
Dl 1386 -6957
Dl 1594 -6953
Dl 1751 -6949
Dl 1853 -6944
Dl 1893 -6939
Dl 1894 -6938
Dl 1894 -6938
DP 0 0 0 0 69 1 21
Dl -2767 -8246
Dl -3349 -7491
Dl -3931 -6735
Dl -3941 -5702
Dl -3950 -4668
Dl -4056 -4563
Dl -4188 -4475
Dl -4346 -4438
Dl -4510 -4455
Dl -4600 -4490
Dl -4654 -4520
Dl -4697 -4552
Dl -4731 -4594
Dl -4756 -4653
Dl -4774 -4736
Dl -4787 -4851
Dl -4794 -5005
Dl -4798 -5205
Dl -4800 -5457
Dl -4800 -5717
Dl -4801 -6717
Dl -5384 -7473
Dl -5967 -8230
Dl -5967 -8668
Dl -5967 -9107
Dl -5854 -9221
Dl -5775 -9290
Dl -5701 -9324
Dl -5601 -9334
Dl -5569 -9334
Dl -5392 -9315
Dl -5260 -9257
Dl -5171 -9154
Dl -5119 -9001
Dl -5101 -8793
Dl -5100 -8772
Dl -5100 -8541
Dl -4746 -8079
Dl -4631 -7928
Dl -4530 -7797
Dl -4450 -7694
Dl -4399 -7628
Dl -4383 -7607
Dl -4361 -7628
Dl -4305 -7695
Dl -4222 -7799
Dl -4118 -7931
Dl -4008 -8074
Dl -3641 -8553
Dl -3629 -8842
Dl -3621 -8987
Dl -3609 -9082
Dl -3588 -9146
Dl -3552 -9196
Dl -3528 -9222
Dl -3447 -9283
Dl -3346 -9315
Dl -3261 -9326
Dl -3086 -9324
Dl -2956 -9283
Dl -2861 -9199
Dl -2834 -9160
Dl -2805 -9103
Dl -2785 -9036
Dl -2774 -8944
Dl -2769 -8814
Dl -2767 -8648
Dl -2767 -8246
Dl -2767 -8246
DP 0 0 0 0 87 1 21
Dl 5766 -4434
Dl 5256 -4434
Dl 4746 -4434
Dl 4090 -5942
Dl 3434 -7450
Dl 3432 -6134
Dl 3430 -5753
Dl 3427 -5436
Dl 3422 -5180
Dl 3416 -4980
Dl 3408 -4835
Dl 3398 -4740
Dl 3389 -4702
Dl 3314 -4576
Dl 3196 -4488
Dl 3052 -4441
Dl 2897 -4443
Dl 2748 -4496
Dl 2739 -4501
Dl 2700 -4525
Dl 2666 -4549
Dl 2638 -4576
Dl 2613 -4613
Dl 2593 -4664
Dl 2576 -4734
Dl 2563 -4826
Dl 2553 -4947
Dl 2545 -5101
Dl 2540 -5292
Dl 2536 -5525
Dl 2534 -5805
Dl 2533 -6136
Dl 2533 -6524
Dl 2533 -6973
Dl 2533 -7067
Dl 2533 -9336
Dl 3053 -9326
Dl 3572 -9317
Dl 4214 -7825
Dl 4342 -7528
Dl 4462 -7250
Dl 4572 -6997
Dl 4670 -6775
Dl 4751 -6589
Dl 4815 -6446
Dl 4858 -6351
Dl 4877 -6312
Dl 4878 -6311
Dl 4882 -6339
Dl 4887 -6426
Dl 4891 -6566
Dl 4894 -6753
Dl 4897 -6978
Dl 4898 -7237
Dl 4899 -7521
Dl 4900 -7659
Dl 4900 -7992
Dl 4903 -8293
Dl 4906 -8556
Dl 4911 -8775
Dl 4917 -8945
Dl 4924 -9061
Dl 4932 -9115
Dl 5003 -9215
Dl 5119 -9287
Dl 5262 -9326
Dl 5413 -9328
Dl 5557 -9288
Dl 5570 -9282
Dl 5607 -9262
Dl 5639 -9242
Dl 5667 -9217
Dl 5690 -9181
Dl 5709 -9130
Dl 5725 -9060
Dl 5737 -8966
Dl 5747 -8843
Dl 5754 -8687
Dl 5759 -8493
Dl 5763 -8256
Dl 5765 -7971
Dl 5766 -7635
Dl 5766 -7241
Dl 5766 -6787
Dl 5766 -6718
Dl 5766 -4434
Dl 5766 -4434
DP 0 0 0 0 125 1 21
Dl 1463 -12243
Dl 1460 -12149
Dl 1418 -11925
Dl 1320 -11738
Dl 1166 -11585
Dl 1066 -11521
Dl 883 -11417
Dl -34 -11410
Dl -331 -11409
Dl -569 -11410
Dl -754 -11413
Dl -895 -11420
Dl -998 -11429
Dl -1072 -11443
Dl -1095 -11449
Dl -1317 -11551
Dl -1499 -11696
Dl -1633 -11878
Dl -1713 -12087
Dl -1734 -12271
Dl -1709 -12462
Dl -1637 -12611
Dl -1522 -12712
Dl -1367 -12762
Dl -1293 -12767
Dl -1182 -12760
Dl -1104 -12731
Dl -1025 -12665
Dl -1015 -12655
Dl -915 -12516
Dl -881 -12405
Dl -859 -12267
Dl -158 -12267
Dl 75 -12267
Dl 248 -12269
Dl 371 -12272
Dl 449 -12277
Dl 492 -12286
Dl 507 -12298
Dl 501 -12314
Dl 492 -12325
Dl 431 -12399
Dl 337 -12516
Dl 216 -12669
Dl 73 -12852
Dl -89 -13059
Dl -263 -13284
Dl -445 -13520
Dl -630 -13762
Dl -814 -14002
Dl -991 -14235
Dl -1158 -14454
Dl -1308 -14653
Dl -1438 -14826
Dl -1542 -14967
Dl -1616 -15069
Dl -1655 -15125
Dl -1658 -15131
Dl -1722 -15323
Dl -1733 -15531
Dl -1695 -15738
Dl -1612 -15928
Dl -1486 -16084
Dl -1444 -16120
Dl -1373 -16171
Dl -1305 -16211
Dl -1230 -16242
Dl -1140 -16264
Dl -1025 -16280
Dl -878 -16290
Dl -688 -16296
Dl -447 -16298
Dl -215 -16299
Dl 91 -16299
Dl 339 -16295
Dl 537 -16287
Dl 694 -16273
Dl 818 -16251
Dl 918 -16219
Dl 1002 -16176
Dl 1078 -16119
Dl 1156 -16048
Dl 1182 -16022
Dl 1322 -15851
Dl 1415 -15670
Dl 1461 -15489
Dl 1461 -15318
Dl 1415 -15165
Dl 1323 -15040
Dl 1186 -14952
Dl 1131 -14933
Dl 969 -14918
Dl 823 -14961
Dl 704 -15055
Dl 626 -15194
Dl 606 -15270
Dl 581 -15417
Dl -110 -15426
Dl -316 -15428
Dl -498 -15428
Dl -645 -15426
Dl -749 -15423
Dl -798 -15418
Dl -800 -15416
Dl -781 -15387
Dl -723 -15310
Dl -633 -15191
Dl -512 -15034
Dl -366 -14844
Dl -198 -14627
Dl -11 -14386
Dl 190 -14128
Dl 271 -14024
Dl 480 -13755
Dl 677 -13499
Dl 860 -13259
Dl 1024 -13043
Dl 1164 -12854
Dl 1276 -12700
Dl 1357 -12586
Dl 1402 -12516
Dl 1408 -12504
Dl 1450 -12380
Dl 1463 -12243
Dl 1463 -12243
DP 0 0 0 0 15 1 21
Dl -10771 -13473
Dl -10773 -13308
Dl -10776 -13242
Dl -10780 -13198
Dl -10784 -13216
Dl -10787 -13288
Dl -10788 -13411
Dl -10788 -13434
Dl -10787 -13564
Dl -10785 -13644
Dl -10781 -13670
Dl -10777 -13636
Dl -10776 -13625
Dl -10771 -13473
Dl -10771 -13473
DP 0 0 0 0 10 1 21
Dl -10417 -16988
Dl -10591 -16976
Dl -10764 -16964
Dl -10776 -16724
Dl -10787 -16484
Dl -10794 -16742
Dl -10800 -17000
Dl -10609 -16994
Dl -10417 -16988
Dl -10417 -16988
$EndMODULE LOGO
$EndLIBRARY
